scf_GrCoIr_ndim2.out__MPI144_OMP0_POOL3:        PWSCF        :     14h27m CPU      2h57m WALL
scf_GrCoIr_ndim2.out__MPI144_OMP0_POOL4:        PWSCF        :     11h40m CPU      2h52m WALL
scf_GrCoIr_ndim2.out__OB_MPI144_OMP0_POOL4:     PWSCF        :     15h20m CPU      2h 0m WALL
scf_GrCoIr_ndim2.out__OB_MPI144_OMP0_POOL6:     PWSCF        :     22h 9m CPU      2h21m WALL
