
     Program PHONON v.7.1 starts on 31Jan2023 at 14:22:58 

     This program is part of the open-source Quantum ESPRESSO suite
     for quantum simulation of materials; please cite
         "P. Giannozzi et al., J. Phys.:Condens. Matter 21 395502 (2009);
         "P. Giannozzi et al., J. Phys.:Condens. Matter 29 465901 (2017);
         "P. Giannozzi et al., J. Chem. Phys. 152 154105 (2020);
          URL http://www.quantum-espresso.org", 
     in publications or presentations arising from this work. More details at
     http://www.quantum-espresso.org/quote

     Parallel version (MPI & OpenMP), running on      48 processor cores
     Number of MPI processes:                24
     Threads/MPI process:                     2

     MPI processes distributed on     1 nodes
     R & G space division:  proc/nbgrp/npool/nimage =      24
     361379 MiB available memory on the printing compute node when the environment starts
 
     Reading input from ph.quartz36.in

     Reading xml data from directory:

     ./submitPWSCF/out/SiO2_OR_36_nc.save/
     file O.pbe-mt.UPF: wavefunction(s)  4f renormalized

     IMPORTANT: XC functional enforced from input :
     Exchange-correlation= PBE
                           (   1   4   3   4   0   0   0)
     Any further DFT definition will be discarded
     Please, verify this is what you really want

 
     Parallelization info
     --------------------
     sticks:   dense  smooth     PW     G-vecs:    dense   smooth      PW
     Min         316     316     84                12278    12278    1687
     Max         317     317     86                12280    12280    1689
     Sum        7595    7595   2029               294685   294685   40503
 
     Using Slab Decomposition
 
     Reading collected, re-writing distributed wavefunctions

     Calculation of q =    0.0000000   0.0000000   0.0000000

     Dielectric contant and Born Charges for for SiO2 O.R. 36  atoms supercell  

     bravais-lattice index     =            8
     lattice parameter (alat)  =      18.5722  a.u.
     unit-cell volume          =    3051.0810 (a.u.)^3
     number of atoms/cell      =           36
     number of atomic types    =            2
     kinetic-energy cut-off    =      80.0000  Ry
     charge density cut-off    =     320.0000  Ry
     convergence threshold     =      1.0E-14
     beta                      =       0.7000
     number of iterations used =            4
     Exchange-correlation= PBE
                           (   1   4   3   4   0   0   0)


     celldm(1)=   18.57224  celldm(2)=    0.86603  celldm(3)=    0.54996
     celldm(4)=    0.00000  celldm(5)=    0.00000  celldm(6)=    0.00000

     crystal axes: (cart. coord. in units of alat)
               a(1) = (  1.0000  0.0000  0.0000 )  
               a(2) = (  0.0000  0.8660  0.0000 )  
               a(3) = (  0.0000  0.0000  0.5500 )  

     reciprocal axes: (cart. coord. in units 2 pi/alat)
               b(1) = (  1.0000  0.0000  0.0000 )  
               b(2) = (  0.0000  1.1547  0.0000 )  
               b(3) = (  0.0000  0.0000  1.8183 )  


     Atoms inside the unit cell: 

     Cartesian axes

     site n.  atom      mass           positions (alat units)
        1     Si  47.8670   tau(    1) = (    0.23111    0.00000    0.00000  )
        2     Si  47.8670   tau(    2) = (    0.73111    0.00000    0.00000  )
        3     Si  47.8670   tau(    3) = (    0.48111    0.43301    0.00000  )
        4     Si  47.8670   tau(    4) = (    0.98111    0.43301    0.00000  )
        5     O   15.9994   tau(    5) = (    0.13384    0.74466    0.05907  )
        6     O   15.9994   tau(    6) = (    0.63384    0.74466    0.05907  )
        7     O   15.9994   tau(    7) = (    0.38384    0.31165    0.05907  )
        8     O   15.9994   tau(    8) = (    0.88384    0.31165    0.05907  )
        9     O   15.9994   tau(    9) = (    0.32799    0.05527    0.12423  )
       10     O   15.9994   tau(   10) = (    0.82799    0.05527    0.12423  )
       11     O   15.9994   tau(   11) = (    0.07799    0.48828    0.12423  )
       12     O   15.9994   tau(   12) = (    0.57799    0.48828    0.12423  )
       13     Si  47.8670   tau(   13) = (    0.38444    0.20017    0.18334  )
       14     Si  47.8670   tau(   14) = (    0.88444    0.20017    0.18334  )
       15     Si  47.8670   tau(   15) = (    0.13444    0.63318    0.18334  )
       16     Si  47.8670   tau(   16) = (    0.63444    0.63318    0.18334  )
       17     O   15.9994   tau(   17) = (    0.03817    0.17647    0.24241  )
       18     O   15.9994   tau(   18) = (    0.53817    0.17647    0.24241  )
       19     O   15.9994   tau(   19) = (    0.28817    0.60948    0.24241  )
       20     O   15.9994   tau(   20) = (    0.78817    0.60948    0.24241  )
       21     O   15.9994   tau(   21) = (    0.03817    0.68955    0.30755  )
       22     O   15.9994   tau(   22) = (    0.53817    0.68955    0.30755  )
       23     O   15.9994   tau(   23) = (    0.28817    0.25654    0.30755  )
       24     O   15.9994   tau(   24) = (    0.78817    0.25654    0.30755  )
       25     Si  47.8670   tau(   25) = (    0.38444    0.66586    0.36662  )
       26     Si  47.8670   tau(   26) = (    0.88444    0.66586    0.36662  )
       27     Si  47.8670   tau(   27) = (    0.13444    0.23284    0.36662  )
       28     Si  47.8670   tau(   28) = (    0.63444    0.23284    0.36662  )
       29     O   15.9994   tau(   29) = (    0.32799    0.81076    0.42572  )
       30     O   15.9994   tau(   30) = (    0.82799    0.81076    0.42572  )
       31     O   15.9994   tau(   31) = (    0.07799    0.37774    0.42572  )
       32     O   15.9994   tau(   32) = (    0.57799    0.37774    0.42572  )
       33     O   15.9994   tau(   33) = (    0.13384    0.12136    0.49089  )
       34     O   15.9994   tau(   34) = (    0.63384    0.12136    0.49089  )
       35     O   15.9994   tau(   35) = (    0.38384    0.55437    0.49089  )
       36     O   15.9994   tau(   36) = (    0.88384    0.55437    0.49089  )

     Computing dynamical matrix for 
                    q = (   0.0000000   0.0000000   0.0000000 )
 
      3 Sym.Ops. (with q -> -q+G )


     G cutoff = 2795.8806  (  12280 G-vectors)     FFT grid: (108, 96, 60)
     number of k points=     8
                       cart. coord. in units 2pi/alat
        k(    1) = (   0.2500000   0.1443376   0.2272895), wk =   0.2500000
        k(    2) = (   0.2500000   0.1443376   0.6818686), wk =   0.2500000
        k(    3) = (   0.2500000   0.4330127   0.2272895), wk =   0.2500000
        k(    4) = (   0.2500000   0.4330127   0.6818686), wk =   0.2500000
        k(    5) = (  -0.2500000   0.1443376  -0.2272895), wk =   0.2500000
        k(    6) = (  -0.2500000   0.1443376  -0.6818686), wk =   0.2500000
        k(    7) = (  -0.2500000   0.4330127  -0.2272895), wk =   0.2500000
        k(    8) = (  -0.2500000   0.4330127  -0.6818686), wk =   0.2500000

     PseudoPot. # 1 for Si read from file:
     ./Si.pbe-rrkj.UPF
     MD5 check sum: cf7ab5690cd9a85b22c4813f7e365554
     Pseudo is Norm-conserving, Zval =  4.0
     Generated by new atomic code, or converted to UPF format
     Using radial grid of  883 points,  3 beta functions with: 
                l(1) =   0
                l(2) =   0
                l(3) =   1

     PseudoPot. # 2 for O  read from file:
     ./O.pbe-mt.UPF
     MD5 check sum: 5a75cacf90515961bdd44329e9c96b05
     Pseudo is Norm-conserving, Zval =  6.0
     Generated using Fritz-Haber code, data in Abinit PP tables
     Using radial grid of  473 points,  3 beta functions with: 
                l(1) =   0
                l(2) =   1
                l(3) =   3

     Mode symmetry, C_2  (2)    point group:


     Electric field:
     Dielectric constant
     Born effective charges as d Force / d E


     Atomic displacements:
     There are  107 irreducible representations

     Representation     1      1 modes -  Not done in this run

     Representation     2      1 modes -  Not done in this run

     Representation     3      1 modes -  Not done in this run

     Representation     4      1 modes -  Not done in this run

     Representation     5      1 modes -  Not done in this run

     Representation     6      1 modes -  Not done in this run

     Representation     7      1 modes -  Not done in this run

     Representation     8      1 modes -  Not done in this run

     Representation     9      1 modes -  Not done in this run

     Representation    10      1 modes -  To be done

     Representation    11      1 modes -  Not done in this run

     Representation    12      1 modes -  Not done in this run

     Representation    13      1 modes -  Not done in this run

     Representation    14      1 modes -  Not done in this run

     Representation    15      1 modes -  Not done in this run

     Representation    16      1 modes -  Not done in this run

     Representation    17      1 modes -  Not done in this run

     Representation    18      1 modes -  Not done in this run

     Representation    19      1 modes -  Not done in this run

     Representation    20      1 modes -  Not done in this run

     Representation    21      1 modes -  Not done in this run

     Representation    22      1 modes -  Not done in this run

     Representation    23      1 modes -  Not done in this run

     Representation    24      1 modes -  Not done in this run

     Representation    25      1 modes -  Not done in this run

     Representation    26      1 modes -  Not done in this run

     Representation    27      1 modes -  Not done in this run

     Representation    28      1 modes -  Not done in this run

     Representation    29      1 modes -  Not done in this run

     Representation    30      1 modes -  Not done in this run

     Representation    31      1 modes -  Not done in this run

     Representation    32      1 modes -  Not done in this run

     Representation    33      1 modes -  Not done in this run

     Representation    34      1 modes -  Not done in this run

     Representation    35      1 modes -  Not done in this run

     Representation    36      1 modes -  Not done in this run

     Representation    37      1 modes -  Not done in this run

     Representation    38      1 modes -  Not done in this run

     Representation    39      1 modes -  Not done in this run

     Representation    40      1 modes -  Not done in this run

     Representation    41      1 modes -  Not done in this run

     Representation    42      1 modes -  Not done in this run

     Representation    43      1 modes -  Not done in this run

     Representation    44      1 modes -  Not done in this run

     Representation    45      1 modes -  Not done in this run

     Representation    46      1 modes -  Not done in this run

     Representation    47      1 modes -  Not done in this run

     Representation    48      1 modes -  Not done in this run

     Representation    49      1 modes -  Not done in this run

     Representation    50      1 modes -  Not done in this run

     Representation    51      1 modes -  Not done in this run

     Representation    52      1 modes -  Not done in this run

     Representation    53      1 modes -  Not done in this run

     Representation    54      1 modes -  Not done in this run

     Representation    55      1 modes -  Not done in this run

     Representation    56      1 modes -  Not done in this run

     Representation    57      1 modes -  Not done in this run

     Representation    58      1 modes -  Not done in this run

     Representation    59      1 modes -  Not done in this run

     Representation    60      1 modes -  Not done in this run

     Representation    61      1 modes -  Not done in this run

     Representation    62      1 modes -  Not done in this run

     Representation    63      1 modes -  Not done in this run

     Representation    64      1 modes -  Not done in this run

     Representation    65      1 modes -  Not done in this run

     Representation    66      1 modes -  Not done in this run

     Representation    67      1 modes -  Not done in this run

     Representation    68      1 modes -  Not done in this run

     Representation    69      1 modes -  Not done in this run

     Representation    70      1 modes -  Not done in this run

     Representation    71      1 modes -  Not done in this run

     Representation    72      1 modes -  Not done in this run

     Representation    73      1 modes -  Not done in this run

     Representation    74      1 modes -  Not done in this run

     Representation    75      1 modes -  Not done in this run

     Representation    76      1 modes -  Not done in this run

     Representation    77      1 modes -  Not done in this run

     Representation    78      1 modes -  Not done in this run

     Representation    79      1 modes -  Not done in this run

     Representation    80      2 modes -  Not done in this run

     Representation    81      1 modes -  Not done in this run

     Representation    82      1 modes -  Not done in this run

     Representation    83      1 modes -  Not done in this run

     Representation    84      1 modes -  Not done in this run

     Representation    85      1 modes -  Not done in this run

     Representation    86      1 modes -  Not done in this run

     Representation    87      1 modes -  Not done in this run

     Representation    88      1 modes -  Not done in this run

     Representation    89      1 modes -  Not done in this run

     Representation    90      1 modes -  Not done in this run

     Representation    91      1 modes -  Not done in this run

     Representation    92      1 modes -  Not done in this run

     Representation    93      1 modes -  Not done in this run

     Representation    94      1 modes -  Not done in this run

     Representation    95      1 modes -  Not done in this run

     Representation    96      1 modes -  Not done in this run

     Representation    97      1 modes -  Not done in this run

     Representation    98      1 modes -  Not done in this run

     Representation    99      1 modes -  Not done in this run

     Representation   100      1 modes -  Not done in this run

     Representation   101      1 modes -  Not done in this run

     Representation   102      1 modes -  Not done in this run

     Representation   103      1 modes -  Not done in this run

     Representation   104      1 modes -  Not done in this run

     Representation   105      1 modes -  Not done in this run

     Representation   106      1 modes -  Not done in this run

     Representation   107      1 modes -  Not done in this run

     Compute atoms:    11,   31,


     PHONON       :      1.55s CPU      2.82s WALL


     Electric Fields Calculation

      iter #   1 total cpu time :    71.8 secs   av.it.:   6.8
      thresh= 1.000E-02 alpha_mix =  0.700 |ddv_scf|^2 =  4.764E-09

      iter #   2 total cpu time :   104.5 secs   av.it.:  16.0
      thresh= 6.902E-06 alpha_mix =  0.700 |ddv_scf|^2 =  3.015E-09

      iter #   3 total cpu time :   134.9 secs   av.it.:  15.7
      thresh= 5.491E-06 alpha_mix =  0.700 |ddv_scf|^2 =  2.574E-10

      iter #   4 total cpu time :   165.1 secs   av.it.:  15.7
      thresh= 1.604E-06 alpha_mix =  0.700 |ddv_scf|^2 =  9.088E-12

      iter #   5 total cpu time :   194.9 secs   av.it.:  15.0
      thresh= 3.015E-07 alpha_mix =  0.700 |ddv_scf|^2 =  2.560E-12

      iter #   6 total cpu time :   224.9 secs   av.it.:  15.4
      thresh= 1.600E-07 alpha_mix =  0.700 |ddv_scf|^2 =  5.211E-14

      iter #   7 total cpu time :   254.7 secs   av.it.:  15.3
      thresh= 2.283E-08 alpha_mix =  0.700 |ddv_scf|^2 =  2.858E-15

     End of electric fields calculation

          Dielectric constant in cartesian axis 

          (       2.520218324       0.000000000       0.000000000 )
          (       0.000000000       2.520321251       0.000094647 )
          (       0.000000000       0.000094650       2.551894464 )

          Effective charges (d Force / dE) in cartesian axis without acoustic sum rule applied (asr)

           atom      1   Si Mean Z*:        3.35634
      Ex  (        3.00037        0.00000        0.00000 )
      Ey  (        0.00000        3.63218        0.36830 )
      Ez  (        0.00000       -0.31124        3.43647 )
           atom      2   Si Mean Z*:        3.35634
      Ex  (        3.00037        0.00000        0.00000 )
      Ey  (        0.00000        3.63218        0.36831 )
      Ez  (        0.00000       -0.31123        3.43646 )
           atom      3   Si Mean Z*:        3.35634
      Ex  (        3.00037        0.00000        0.00000 )
      Ey  (        0.00000        3.63218        0.36830 )
      Ez  (        0.00000       -0.31124        3.43647 )
           atom      4   Si Mean Z*:        3.35634
      Ex  (        3.00037        0.00000        0.00000 )
      Ey  (        0.00000        3.63218        0.36831 )
      Ez  (        0.00000       -0.31123        3.43647 )
           atom      5   O  Mean Z*:       -1.67602
      Ex  (       -1.30588       -0.50138        0.30988 )
      Ey  (       -0.44168       -2.00612        0.69181 )
      Ez  (        0.23767        0.73818       -1.71607 )
           atom      6   O  Mean Z*:       -1.67601
      Ex  (       -1.30588       -0.50138        0.30988 )
      Ey  (       -0.44169       -2.00610        0.69180 )
      Ez  (        0.23767        0.73818       -1.71606 )
           atom      7   O  Mean Z*:       -1.67601
      Ex  (       -1.30587       -0.50138        0.30987 )
      Ey  (       -0.44168       -2.00611        0.69180 )
      Ez  (        0.23767        0.73818       -1.71606 )
           atom      8   O  Mean Z*:       -1.67601
      Ex  (       -1.30587       -0.50138        0.30987 )
      Ey  (       -0.44168       -2.00610        0.69180 )
      Ez  (        0.23767        0.73818       -1.71605 )
           atom      9   O  Mean Z*:       -1.67661
      Ex  (       -1.42263       -0.50945       -0.44437 )
      Ey  (       -0.56843       -1.89128       -0.61432 )
      Ez  (       -0.52053       -0.57526       -1.71592 )
           atom     10   O  Mean Z*:       -1.67664
      Ex  (       -1.42265       -0.50946       -0.44437 )
      Ey  (       -0.56843       -1.89131       -0.61433 )
      Ez  (       -0.52053       -0.57526       -1.71595 )
           atom     11   O  Mean Z*:       -1.67662
      Ex  (       -1.42263       -0.50945       -0.44437 )
      Ey  (       -0.56843       -1.89129       -0.61433 )
      Ez  (       -0.52053       -0.57526       -1.71593 )
           atom     12   O  Mean Z*:       -1.67660
      Ex  (       -1.42261       -0.50945       -0.44437 )
      Ey  (       -0.56842       -1.89127       -0.61432 )
      Ez  (       -0.52053       -0.57525       -1.71591 )
           atom     13   Si Mean Z*:        3.35596
      Ex  (        3.47380        0.27238       -0.31845 )
      Ey  (        0.27330        3.15820       -0.18410 )
      Ez  (        0.26985        0.15587        3.43588 )
           atom     14   Si Mean Z*:        3.35596
      Ex  (        3.47380        0.27238       -0.31845 )
      Ey  (        0.27330        3.15820       -0.18410 )
      Ez  (        0.26986        0.15587        3.43588 )
           atom     15   Si Mean Z*:        3.35596
      Ex  (        3.47380        0.27237       -0.31845 )
      Ey  (        0.27330        3.15820       -0.18410 )
      Ez  (        0.26986        0.15586        3.43588 )
           atom     16   Si Mean Z*:        3.35596
      Ex  (        3.47380        0.27238       -0.31845 )
      Ey  (        0.27330        3.15820       -0.18410 )
      Ez  (        0.26986        0.15586        3.43589 )
           atom     17   O  Mean Z*:       -1.67648
      Ex  (       -2.24165       -0.09664       -0.75378 )
      Ey  (       -0.03731       -1.07275       -0.07754 )
      Ez  (       -0.75839       -0.16331       -1.71503 )
           atom     18   O  Mean Z*:       -1.67647
      Ex  (       -2.24165       -0.09664       -0.75378 )
      Ey  (       -0.03731       -1.07275       -0.07753 )
      Ez  (       -0.75839       -0.16331       -1.71502 )
           atom     19   O  Mean Z*:       -1.67647
      Ex  (       -2.24165       -0.09664       -0.75378 )
      Ey  (       -0.03731       -1.07275       -0.07754 )
      Ez  (       -0.75839       -0.16331       -1.71502 )
           atom     20   O  Mean Z*:       -1.67647
      Ex  (       -2.24164       -0.09664       -0.75378 )
      Ey  (       -0.03731       -1.07275       -0.07754 )
      Ez  (       -0.75839       -0.16331       -1.71502 )
           atom     21   O  Mean Z*:       -1.67648
      Ex  (       -2.24165        0.09664        0.75378 )
      Ey  (        0.03731       -1.07275       -0.07754 )
      Ez  (        0.75839       -0.16331       -1.71503 )
           atom     22   O  Mean Z*:       -1.67647
      Ex  (       -2.24165        0.09664        0.75378 )
      Ey  (        0.03731       -1.07275       -0.07753 )
      Ez  (        0.75839       -0.16331       -1.71502 )
           atom     23   O  Mean Z*:       -1.67647
      Ex  (       -2.24165        0.09664        0.75378 )
      Ey  (        0.03731       -1.07275       -0.07754 )
      Ez  (        0.75839       -0.16331       -1.71502 )
           atom     24   O  Mean Z*:       -1.67647
      Ex  (       -2.24164        0.09664        0.75378 )
      Ey  (        0.03731       -1.07275       -0.07754 )
      Ez  (        0.75839       -0.16331       -1.71502 )
           atom     25   Si Mean Z*:        3.35596
      Ex  (        3.47380       -0.27238        0.31845 )
      Ey  (       -0.27330        3.15820       -0.18410 )
      Ez  (       -0.26985        0.15587        3.43588 )
           atom     26   Si Mean Z*:        3.35596
      Ex  (        3.47380       -0.27238        0.31845 )
      Ey  (       -0.27330        3.15820       -0.18410 )
      Ez  (       -0.26986        0.15587        3.43588 )
           atom     27   Si Mean Z*:        3.35596
      Ex  (        3.47380       -0.27237        0.31845 )
      Ey  (       -0.27330        3.15820       -0.18410 )
      Ez  (       -0.26986        0.15586        3.43588 )
           atom     28   Si Mean Z*:        3.35596
      Ex  (        3.47380       -0.27238        0.31845 )
      Ey  (       -0.27330        3.15820       -0.18410 )
      Ez  (       -0.26986        0.15586        3.43589 )
           atom     29   O  Mean Z*:       -1.67661
      Ex  (       -1.42263        0.50945        0.44437 )
      Ey  (        0.56843       -1.89128       -0.61432 )
      Ez  (        0.52053       -0.57526       -1.71592 )
           atom     30   O  Mean Z*:       -1.67664
      Ex  (       -1.42265        0.50946        0.44437 )
      Ey  (        0.56843       -1.89131       -0.61433 )
      Ez  (        0.52053       -0.57526       -1.71595 )
           atom     31   O  Mean Z*:       -1.67662
      Ex  (       -1.42263        0.50945        0.44437 )
      Ey  (        0.56843       -1.89129       -0.61433 )
      Ez  (        0.52053       -0.57526       -1.71593 )
           atom     32   O  Mean Z*:       -1.67660
      Ex  (       -1.42261        0.50945        0.44437 )
      Ey  (        0.56842       -1.89127       -0.61432 )
      Ez  (        0.52053       -0.57525       -1.71591 )
           atom     33   O  Mean Z*:       -1.67602
      Ex  (       -1.30588        0.50138       -0.30988 )
      Ey  (        0.44168       -2.00612        0.69181 )
      Ez  (       -0.23767        0.73818       -1.71607 )
           atom     34   O  Mean Z*:       -1.67601
      Ex  (       -1.30588        0.50138       -0.30988 )
      Ey  (        0.44169       -2.00610        0.69180 )
      Ez  (       -0.23767        0.73818       -1.71606 )
           atom     35   O  Mean Z*:       -1.67601
      Ex  (       -1.30587        0.50138       -0.30987 )
      Ey  (        0.44168       -2.00611        0.69180 )
      Ez  (       -0.23767        0.73818       -1.71606 )
           atom     36   O  Mean Z*:       -1.67601
      Ex  (       -1.30587        0.50138       -0.30987 )
      Ey  (        0.44168       -2.00610        0.69180 )
      Ez  (       -0.23767        0.73818       -1.71605 )

          Effective charges Sum: Mean:        0.04022
              0.03067        0.00000       -0.00000
             -0.00000        0.03317       -0.00113
             -0.00000       -0.00006        0.05683

          Effective charges (d Force / dE) in cartesian axis with asr applied: 
           atom      1   Si Mean Z*:        3.35522
      E*x (        2.99952        0.00000        0.00000 )
      E*y (       -0.00000        3.63126        0.36830 )
      E*z (        0.00000       -0.31121        3.43489 )
           atom      2   Si Mean Z*:        3.35522
      E*x (        2.99952        0.00000        0.00000 )
      E*y (       -0.00000        3.63125        0.36831 )
      E*z (        0.00000       -0.31120        3.43488 )
           atom      3   Si Mean Z*:        3.35522
      E*x (        2.99952        0.00000        0.00000 )
      E*y (       -0.00000        3.63126        0.36831 )
      E*z (        0.00000       -0.31121        3.43489 )
           atom      4   Si Mean Z*:        3.35522
      E*x (        2.99952        0.00000        0.00000 )
      E*y (       -0.00000        3.63126        0.36831 )
      E*z (        0.00000       -0.31120        3.43489 )
           atom      5   O  Mean Z*:       -1.67714
      E*x (       -1.30673       -0.50138        0.30988 )
      E*y (       -0.44168       -2.00704        0.69181 )
      E*z (        0.23767        0.73821       -1.71765 )
           atom      6   O  Mean Z*:       -1.67713
      E*x (       -1.30673       -0.50138        0.30988 )
      E*y (       -0.44169       -2.00703        0.69181 )
      E*z (        0.23767        0.73821       -1.71764 )
           atom      7   O  Mean Z*:       -1.67713
      E*x (       -1.30672       -0.50138        0.30987 )
      E*y (       -0.44168       -2.00703        0.69181 )
      E*z (        0.23767        0.73821       -1.71764 )
           atom      8   O  Mean Z*:       -1.67713
      E*x (       -1.30672       -0.50138        0.30987 )
      E*y (       -0.44168       -2.00702        0.69180 )
      E*z (        0.23767        0.73821       -1.71763 )
           atom      9   O  Mean Z*:       -1.67773
      E*x (       -1.42348       -0.50945       -0.44437 )
      E*y (       -0.56843       -1.89220       -0.61432 )
      E*z (       -0.52053       -0.57523       -1.71750 )
           atom     10   O  Mean Z*:       -1.67775
      E*x (       -1.42350       -0.50946       -0.44437 )
      E*y (       -0.56843       -1.89223       -0.61433 )
      E*z (       -0.52053       -0.57523       -1.71753 )
           atom     11   O  Mean Z*:       -1.67773
      E*x (       -1.42348       -0.50945       -0.44437 )
      E*y (       -0.56843       -1.89221       -0.61432 )
      E*z (       -0.52053       -0.57523       -1.71751 )
           atom     12   O  Mean Z*:       -1.67772
      E*x (       -1.42347       -0.50945       -0.44437 )
      E*y (       -0.56842       -1.89219       -0.61432 )
      E*z (       -0.52053       -0.57522       -1.71749 )
           atom     13   Si Mean Z*:        3.35484
      E*x (        3.47295        0.27238       -0.31845 )
      E*y (        0.27330        3.15728       -0.18410 )
      E*z (        0.26985        0.15590        3.43430 )
           atom     14   Si Mean Z*:        3.35484
      E*x (        3.47294        0.27238       -0.31845 )
      E*y (        0.27330        3.15728       -0.18410 )
      E*z (        0.26986        0.15590        3.43430 )
           atom     15   Si Mean Z*:        3.35484
      E*x (        3.47294        0.27237       -0.31845 )
      E*y (        0.27330        3.15728       -0.18410 )
      E*z (        0.26986        0.15590        3.43430 )
           atom     16   Si Mean Z*:        3.35484
      E*x (        3.47295        0.27238       -0.31845 )
      E*y (        0.27330        3.15728       -0.18410 )
      E*z (        0.26986        0.15589        3.43431 )
           atom     17   O  Mean Z*:       -1.67759
      E*x (       -2.24250       -0.09664       -0.75378 )
      E*y (       -0.03731       -1.07367       -0.07754 )
      E*z (       -0.75839       -0.16328       -1.71660 )
           atom     18   O  Mean Z*:       -1.67759
      E*x (       -2.24250       -0.09664       -0.75378 )
      E*y (       -0.03731       -1.07367       -0.07753 )
      E*z (       -0.75839       -0.16328       -1.71660 )
           atom     19   O  Mean Z*:       -1.67759
      E*x (       -2.24250       -0.09664       -0.75378 )
      E*y (       -0.03731       -1.07367       -0.07753 )
      E*z (       -0.75839       -0.16328       -1.71660 )
           atom     20   O  Mean Z*:       -1.67758
      E*x (       -2.24249       -0.09664       -0.75378 )
      E*y (       -0.03731       -1.07367       -0.07754 )
      E*z (       -0.75839       -0.16328       -1.71659 )
           atom     21   O  Mean Z*:       -1.67759
      E*x (       -2.24250        0.09664        0.75378 )
      E*y (        0.03731       -1.07367       -0.07754 )
      E*z (        0.75839       -0.16328       -1.71660 )
           atom     22   O  Mean Z*:       -1.67759
      E*x (       -2.24250        0.09664        0.75378 )
      E*y (        0.03731       -1.07367       -0.07753 )
      E*z (        0.75839       -0.16328       -1.71660 )
           atom     23   O  Mean Z*:       -1.67759
      E*x (       -2.24250        0.09664        0.75378 )
      E*y (        0.03731       -1.07367       -0.07753 )
      E*z (        0.75839       -0.16328       -1.71660 )
           atom     24   O  Mean Z*:       -1.67758
      E*x (       -2.24249        0.09664        0.75378 )
      E*y (        0.03731       -1.07367       -0.07754 )
      E*z (        0.75839       -0.16328       -1.71659 )
           atom     25   Si Mean Z*:        3.35484
      E*x (        3.47295       -0.27238        0.31845 )
      E*y (       -0.27330        3.15728       -0.18410 )
      E*z (       -0.26985        0.15590        3.43430 )
           atom     26   Si Mean Z*:        3.35484
      E*x (        3.47294       -0.27238        0.31845 )
      E*y (       -0.27330        3.15728       -0.18410 )
      E*z (       -0.26986        0.15590        3.43430 )
           atom     27   Si Mean Z*:        3.35484
      E*x (        3.47294       -0.27237        0.31845 )
      E*y (       -0.27330        3.15728       -0.18410 )
      E*z (       -0.26986        0.15590        3.43430 )
           atom     28   Si Mean Z*:        3.35484
      E*x (        3.47295       -0.27238        0.31845 )
      E*y (       -0.27330        3.15728       -0.18410 )
      E*z (       -0.26986        0.15589        3.43431 )
           atom     29   O  Mean Z*:       -1.67773
      E*x (       -1.42348        0.50945        0.44437 )
      E*y (        0.56843       -1.89220       -0.61432 )
      E*z (        0.52053       -0.57523       -1.71750 )
           atom     30   O  Mean Z*:       -1.67775
      E*x (       -1.42350        0.50946        0.44437 )
      E*y (        0.56843       -1.89223       -0.61433 )
      E*z (        0.52053       -0.57523       -1.71753 )
           atom     31   O  Mean Z*:       -1.67773
      E*x (       -1.42348        0.50945        0.44437 )
      E*y (        0.56843       -1.89221       -0.61432 )
      E*z (        0.52053       -0.57523       -1.71751 )
           atom     32   O  Mean Z*:       -1.67772
      E*x (       -1.42347        0.50945        0.44437 )
      E*y (        0.56842       -1.89219       -0.61432 )
      E*z (        0.52053       -0.57522       -1.71749 )
           atom     33   O  Mean Z*:       -1.67714
      E*x (       -1.30673        0.50138       -0.30988 )
      E*y (        0.44168       -2.00704        0.69181 )
      E*z (       -0.23767        0.73821       -1.71765 )
           atom     34   O  Mean Z*:       -1.67713
      E*x (       -1.30673        0.50138       -0.30988 )
      E*y (        0.44169       -2.00703        0.69181 )
      E*z (       -0.23767        0.73821       -1.71764 )
           atom     35   O  Mean Z*:       -1.67713
      E*x (       -1.30672        0.50138       -0.30987 )
      E*y (        0.44168       -2.00703        0.69181 )
      E*z (       -0.23767        0.73821       -1.71764 )
           atom     36   O  Mean Z*:       -1.67713
      E*x (       -1.30672        0.50138       -0.30987 )
      E*y (        0.44168       -2.00702        0.69180 )
      E*z (       -0.23767        0.73821       -1.71763 )


     Representation #  10 mode #  10

     Self-consistent Calculation

      iter #   1 total cpu time :   314.7 secs   av.it.:   6.0
      thresh= 1.000E-02 alpha_mix =  0.700 |ddv_scf|^2 =  1.541E-07

      iter #   2 total cpu time :   324.5 secs   av.it.:  14.5
      thresh= 3.926E-05 alpha_mix =  0.700 |ddv_scf|^2 =  6.260E-08

      iter #   3 total cpu time :   333.5 secs   av.it.:  13.4
      thresh= 2.502E-05 alpha_mix =  0.700 |ddv_scf|^2 =  1.588E-09

      iter #   4 total cpu time :   343.1 secs   av.it.:  14.4
      thresh= 3.985E-06 alpha_mix =  0.700 |ddv_scf|^2 =  1.984E-10

      iter #   5 total cpu time :   352.4 secs   av.it.:  14.0
      thresh= 1.408E-06 alpha_mix =  0.700 |ddv_scf|^2 =  3.983E-12

      iter #   6 total cpu time :   362.0 secs   av.it.:  14.2
      thresh= 1.996E-07 alpha_mix =  0.700 |ddv_scf|^2 =  5.803E-13

      iter #   7 total cpu time :   371.9 secs   av.it.:  15.0
      thresh= 7.618E-08 alpha_mix =  0.700 |ddv_scf|^2 =  1.133E-13

      iter #   8 total cpu time :   381.6 secs   av.it.:  14.6
      thresh= 3.366E-08 alpha_mix =  0.700 |ddv_scf|^2 =  9.920E-15

     End of self-consistent calculation

     Convergence has been achieved 

     Stopping because representation    0 is not done
 
     PHONON       :  12m 4.55s CPU   6m23.09s WALL

     INITIALIZATION: 
     phq_setup    :      0.05s CPU      0.04s WALL (       1 calls)
     phq_init     :      0.55s CPU      0.30s WALL (       1 calls)
 
     phq_init     :      0.55s CPU      0.30s WALL (       1 calls)
     init_vloc    :      0.06s CPU      0.03s WALL (       1 calls)
     init_us_1    :      0.02s CPU      0.01s WALL (       1 calls)
     init_us_2    :      0.74s CPU      0.61s WALL (     176 calls)
 
     DIELECTRIC CONSTANT AND EFFECTIVE CHARGES:
     solve_e      :    480.72s CPU    251.94s WALL (       1 calls)
     dielec       :      0.03s CPU      0.26s WALL (       1 calls)
     zstar_eu     :    103.40s CPU     54.22s WALL (       1 calls)
 
     DYNAMICAL MATRIX:
     phqscf       :    138.56s CPU     72.97s WALL (       1 calls)
     dynmatrix    :      0.28s CPU      0.78s WALL (       1 calls)
 
     phqscf       :    138.56s CPU     72.97s WALL (       1 calls)
     solve_linter :    137.74s CPU     72.28s WALL (       1 calls)
     drhodv       :      0.80s CPU      0.65s WALL (       1 calls)
 
 
 
     phqscf       :    138.56s CPU     72.97s WALL (       1 calls)
     solve_linter :    137.74s CPU     72.28s WALL (       1 calls)
 
     solve_linter :    137.74s CPU     72.28s WALL (       1 calls)
     dvqpsi_us    :    100.16s CPU     51.58s WALL (     872 calls)
     sth_kernel   :    509.38s CPU    265.73s WALL (      15 calls)
     apply_dpot_b :     16.69s CPU      8.90s WALL (     200 calls)
     ortho        :      2.31s CPU      1.82s WALL (     256 calls)
     cgsolve      :    567.17s CPU    293.47s WALL (     256 calls)
     incdrhoscf   :     22.06s CPU     11.53s WALL (     232 calls)
     dv_of_drho   :      0.58s CPU      0.54s WALL (      29 calls)
     mix_pot      :      0.46s CPU      0.57s WALL (      15 calls)
     psymdvscf    :      0.97s CPU      0.78s WALL (       8 calls)
 
     dvqpsi_us    :    100.16s CPU     51.58s WALL (     872 calls)
     dvqpsi_us_on :     26.99s CPU     13.96s WALL (     872 calls)
 
     cgsolve      :    567.17s CPU    293.47s WALL (     256 calls)
     ch_psi       :    531.05s CPU    274.47s WALL (    5372 calls)
 
     ch_psi       :    531.05s CPU    274.47s WALL (    5372 calls)
     h_psi        :    400.48s CPU    207.17s WALL (    5372 calls)
     last         :    117.57s CPU     60.21s WALL (    5372 calls)
 
     h_psi        :    400.48s CPU    207.17s WALL (    5372 calls)
     add_vuspsi   :     40.11s CPU     21.60s WALL (    5372 calls)
 
     incdrhoscf   :     22.06s CPU     11.53s WALL (     232 calls)
 
 
      General routines
     calbec       :     93.55s CPU     47.97s WALL (   10832 calls)
     fft          :      0.30s CPU      0.56s WALL (     332 calls)
     ffts         :      2.12s CPU      1.14s WALL (     980 calls)
     fftw         :    352.09s CPU    182.75s WALL ( 1038846 calls)
     davcio       :      3.58s CPU      3.76s WALL (    3680 calls)
     write_rec    :      0.26s CPU      0.29s WALL (      16 calls)
 
 
     PHONON       :  12m 4.56s CPU   6m23.12s WALL

 
   This run was terminated on:  14:29:21  31Jan2023            

=------------------------------------------------------------------------------=
   JOB DONE.
=------------------------------------------------------------------------------=
