
     Program PWSCF v.6.5 starts on 20Sep2020 at 11:34:32 

     This program is part of the open-source Quantum ESPRESSO suite
     for quantum simulation of materials; please cite
         "P. Giannozzi et al., J. Phys.:Condens. Matter 21 395502 (2009);
         "P. Giannozzi et al., J. Phys.:Condens. Matter 29 465901 (2017);
         "P. Giannozzi et al., J. Chem. Phys. 152 154105 (2020);
          URL http://www.quantum-espresso.org", 
     in publications or presentations arising from this work. More details at
     http://www.quantum-espresso.org/quote

     Parallel version (MPI & OpenMP), running on       1 processor cores
     Number of MPI processes:                 1
     Threads/MPI process:                     1

     MPI processes distributed on     1 nodes
     Fft bands division:     nmany     =       1
     Reading input from cluster3.in

     Current dimensions of program PWSCF are:
     Max number of different atomic species (ntypx) = 10
     Max number of k-points (npk) =  40000
     Max angular momentum in pseudopotentials (lmaxx) =  3
     file O.pbe-mt.UPF: wavefunction(s)  4f renormalized
     file H.pbe-vbc.UPF: wavefunction(s)  0S renormalized

     gamma-point specific algorithms are used

     Subspace diagonalization in iterative solution of the eigenvalue problem:
     a serial algorithm will be used

 
     G-vector sticks info
     --------------------
     sticks:   dense  smooth     PW     G-vecs:    dense   smooth      PW
     Sum        1369    1369    349                38401    38401    4801
 
     Using Slab Decomposition
 


     bravais-lattice index     =            1
     lattice parameter (alat)  =      12.0000  a.u.
     unit-cell volume          =    1728.0000 (a.u.)^3
     number of atoms/cell      =            3
     number of atomic types    =            2
     number of electrons       =         8.00
     number of Kohn-Sham states=            8
     kinetic-energy cutoff     =      30.0000  Ry
     charge density cutoff     =     120.0000  Ry
     convergence threshold     =      1.0E-15
     mixing beta               =       0.7000
     number of iterations used =            8  plain     mixing
     Exchange-correlation= SLA  PW   PBE  PBE
                           (   1   4   3   4   0   0   0)

     GPU acceleration is ACTIVE.


     GPU used by master process:

        Device Number: 0
        Device name: Tesla K80
        Compute capability : 37
        Ratio of single to double precision performance  : 3
        Memory Clock Rate (KHz): 2505000
        Memory Bus Width (bits): 384
        Peak Memory Bandwidth (GB/s): 240.48
     Assuming isolated system, Martyna-Tuckerman method


     celldm(1)=  12.000000  celldm(2)=   0.000000  celldm(3)=   0.000000
     celldm(4)=   0.000000  celldm(5)=   0.000000  celldm(6)=   0.000000

     crystal axes: (cart. coord. in units of alat)
               a(1) = (   1.000000   0.000000   0.000000 )  
               a(2) = (   0.000000   1.000000   0.000000 )  
               a(3) = (   0.000000   0.000000   1.000000 )  

     reciprocal axes: (cart. coord. in units 2 pi/alat)
               b(1) = (  1.000000  0.000000  0.000000 )  
               b(2) = (  0.000000  1.000000  0.000000 )  
               b(3) = (  0.000000  0.000000  1.000000 )  


     PseudoPot. # 1 for O  read from file:
     /galileo/home/userexternal/icarnime/pseudo/O.pbe-mt.UPF
     MD5 check sum: 5a75cacf90515961bdd44329e9c96b05
     Pseudo is Norm-conserving, Zval =  6.0
     Generated using Fritz-Haber code, data in Abinit PP tables
     Using radial grid of  473 points,  3 beta functions with: 
                l(1) =   0
                l(2) =   1
                l(3) =   3

     PseudoPot. # 2 for H  read from file:
     /galileo/home/userexternal/icarnime/pseudo/H.pbe-vbc.UPF
     MD5 check sum: 0ad67d0772b4eb71cad78a7d32695431
     Pseudo is Norm-conserving, Zval =  1.0
     Generated by new atomic code, or converted to UPF format
     Using radial grid of  325 points,  0 beta functions with: 

     atomic species   valence    mass     pseudopotential
        O              6.00     1.00000     O ( 1.00)
        H              1.00     1.00000     H ( 1.00)

      4 Sym. Ops. (no inversion) found


                                    s                        frac. trans.

      isym =  1     identity                                     

 cryst.   s( 1) = (     1          0          0      )
                  (     0          1          0      )
                  (     0          0          1      )

 cart.    s( 1) = (  1.0000000  0.0000000  0.0000000 )
                  (  0.0000000  1.0000000  0.0000000 )
                  (  0.0000000  0.0000000  1.0000000 )


      isym =  2     180 deg rotation - cart. axis [0,0,1]        

 cryst.   s( 2) = (    -1          0          0      )
                  (     0         -1          0      )
                  (     0          0          1      )

 cart.    s( 2) = ( -1.0000000  0.0000000  0.0000000 )
                  (  0.0000000 -1.0000000  0.0000000 )
                  (  0.0000000  0.0000000  1.0000000 )


      isym =  3     inv. 180 deg rotation - cart. axis [1,1,0]   

 cryst.   s( 3) = (     0         -1          0      )
                  (    -1          0          0      )
                  (     0          0          1      )

 cart.    s( 3) = (  0.0000000 -1.0000000  0.0000000 )
                  ( -1.0000000  0.0000000  0.0000000 )
                  (  0.0000000  0.0000000  1.0000000 )


      isym =  4     inv. 180 deg rotation - cart. axis [1,-1,0]  

 cryst.   s( 4) = (     0          1          0      )
                  (     1          0          0      )
                  (     0          0          1      )

 cart.    s( 4) = (  0.0000000  1.0000000  0.0000000 )
                  (  1.0000000  0.0000000  0.0000000 )
                  (  0.0000000  0.0000000  1.0000000 )


     point group C_2v (mm2) 
     there are  4 classes
     the character table:

       E     C2    s_v   s_v' 
A_1    1.00  1.00  1.00  1.00
A_2    1.00  1.00 -1.00 -1.00
B_1    1.00 -1.00  1.00 -1.00
B_2    1.00 -1.00 -1.00  1.00

     the symmetry operations in each class and the name of the first element:

     E        1
          identity                                               
     C2       2
          180 deg rotation - cart. axis [0,0,1]                  
     s_v      3
          inv. 180 deg rotation - cart. axis [1,1,0]             
     s_v'     4
          inv. 180 deg rotation - cart. axis [1,-1,0]            

   Cartesian axes

     site n.     atom                  positions (alat units)
         1           O   tau(   1) = (   0.0000000   0.0000000   0.0000000  )
         2           H   tau(   2) = (   0.0833333   0.0833333   0.0833333  )
         3           H   tau(   3) = (  -0.0833333  -0.0833333   0.0833333  )

   Crystallographic axes

     site n.     atom                  positions (cryst. coord.)
         1           O   tau(   1) = (  0.0000000  0.0000000  0.0000000  )
         2           H   tau(   2) = (  0.0833333  0.0833333  0.0833333  )
         3           H   tau(   3) = ( -0.0833333 -0.0833333  0.0833333  )

     number of k points=     1
                       cart. coord. in units 2pi/alat
        k(    1) = (   0.0000000   0.0000000   0.0000000), wk =   2.0000000

                       cryst. coord.
        k(    1) = (   0.0000000   0.0000000   0.0000000), wk =   2.0000000

     Dense  grid:    19201 G-vectors     FFT dimensions: (  45,  45,  45)

     Dynamical RAM for                 wfc:       0.29 MB

     Dynamical RAM for     wfc (w. buffer):       0.29 MB

     Dynamical RAM for           str. fact:       0.59 MB

     Dynamical RAM for           local pot:       0.00 MB

     Dynamical RAM for          nlocal pot:       0.40 MB

     Dynamical RAM for                qrad:       0.70 MB

     Dynamical RAM for          rho,v,vnew:       2.96 MB

     Dynamical RAM for               rhoin:       0.99 MB

     Dynamical RAM for            rho*nmix:       4.69 MB

     Dynamical RAM for           G-vectors:       1.25 MB

     Dynamical RAM for          h,s,v(r/c):       0.00 MB

     Dynamical RAM for          <psi|beta>:       0.00 MB

     Dynamical RAM for      wfcinit/wfcrot:       1.32 MB

     Estimated static dynamical RAM per process >      16.23 MB

     Estimated max dynamical RAM per process >      17.55 MB
 Really copied psic H->D
 Really copied mill H->D
 Really copied g H->D
 Really copied gg H->D
 Really copied wg H->D
 Really copied eigts1 H->D
 Really copied eigts2 H->D
 Really copied eigts3 H->D

     Initial potential from superposition of free atoms

     starting charge    7.99997, renormalised to    8.00000

     negative rho (up, down):  2.917E-02 0.000E+00
     Starting wfcs are   18 randomized atomic wfcs
 Really copied tab H->D
 Really copied vrs H->D

     total cpu time spent up to now is        1.2 secs

     Self-consistent Calculation
[tb_dev] Currently allocated     2.29E+01 Mbytes, locked:    0 /   8
[tb_pin] Currently allocated     0.00E+00 Mbytes, locked:    0 /   0

     iteration #  1     ecut=    30.00 Ry     beta= 0.70
 Really copied evc D->H
     ParO style diagonalization
 Really copied g2kin D->H
 Really copied et D->H
 @@chk paro_gamma_new
     ethr =  1.00E-02,  avg # of iterations =  9.4
 Really copied wg H->D
 Really copied evc H->D

     negative rho (up, down):  7.494E-03 0.000E+00

     total cpu time spent up to now is        1.4 secs

     total energy              =     -33.53513445 Ry
     estimated scf accuracy    <       0.18879878 Ry
[tb_dev] Currently allocated     2.29E+01 Mbytes, locked:    0 /   8
[tb_pin] Currently allocated     0.00E+00 Mbytes, locked:    0 /   0

     iteration #  2     ecut=    30.00 Ry     beta= 0.70
     ParO style diagonalization
 Really copied g2kin D->H
 @@chk paro_gamma_new
     ethr =  2.36E-03,  avg # of iterations =  6.6
 Really copied wg H->D
 Really copied evc H->D

     negative rho (up, down):  2.935E-03 0.000E+00

     total cpu time spent up to now is        1.5 secs

     total energy              =     -33.55367948 Ry
     estimated scf accuracy    <       0.05709330 Ry
[tb_dev] Currently allocated     2.29E+01 Mbytes, locked:    0 /   8
[tb_pin] Currently allocated     0.00E+00 Mbytes, locked:    0 /   0

     iteration #  3     ecut=    30.00 Ry     beta= 0.70
     ParO style diagonalization
 Really copied g2kin D->H
 @@chk paro_gamma_new
     ethr =  7.14E-04,  avg # of iterations =  5.1
 Really copied wg H->D
 Really copied evc H->D

     negative rho (up, down):  5.099E-05 0.000E+00

     total cpu time spent up to now is        1.6 secs

     total energy              =     -33.56769655 Ry
     estimated scf accuracy    <       0.00649535 Ry
[tb_dev] Currently allocated     2.29E+01 Mbytes, locked:    0 /   8
[tb_pin] Currently allocated     0.00E+00 Mbytes, locked:    0 /   0

     iteration #  4     ecut=    30.00 Ry     beta= 0.70
     ParO style diagonalization
 Really copied g2kin D->H
 @@chk paro_gamma_new
     ethr =  8.12E-05,  avg # of iterations =  8.8
 Really copied wg H->D
 Really copied evc H->D

     negative rho (up, down):  1.397E-06 0.000E+00

     total cpu time spent up to now is        1.8 secs

     total energy              =     -33.56882310 Ry
     estimated scf accuracy    <       0.00001248 Ry
[tb_dev] Currently allocated     2.29E+01 Mbytes, locked:    0 /   8
[tb_pin] Currently allocated     0.00E+00 Mbytes, locked:    0 /   0

     iteration #  5     ecut=    30.00 Ry     beta= 0.70
     ParO style diagonalization
 Really copied g2kin D->H
 @@chk paro_gamma_new
     ethr =  1.56E-07,  avg # of iterations = 32.1
 Really copied wg H->D
 Really copied evc H->D

     total cpu time spent up to now is        2.2 secs

     total energy              =     -33.56882597 Ry
     estimated scf accuracy    <       0.00000095 Ry
[tb_dev] Currently allocated     2.29E+01 Mbytes, locked:    0 /   8
[tb_pin] Currently allocated     0.00E+00 Mbytes, locked:    0 /   0

     iteration #  6     ecut=    30.00 Ry     beta= 0.70
     ParO style diagonalization
 Really copied g2kin D->H
 @@chk paro_gamma_new
     ethr =  1.19E-08,  avg # of iterations = 11.0
 Really copied wg H->D
 Really copied evc H->D

     total cpu time spent up to now is        2.4 secs

     total energy              =     -33.56882611 Ry
     estimated scf accuracy    <          7.4E-09 Ry
[tb_dev] Currently allocated     2.29E+01 Mbytes, locked:    0 /   8
[tb_pin] Currently allocated     0.00E+00 Mbytes, locked:    0 /   0

     iteration #  7     ecut=    30.00 Ry     beta= 0.70
     ParO style diagonalization
 Really copied g2kin D->H
 @@chk paro_gamma_new
     ethr =  9.20E-11,  avg # of iterations =  7.9
 Really copied wg H->D
 Really copied evc H->D

     total cpu time spent up to now is        2.6 secs

     total energy              =     -33.56882610 Ry
     estimated scf accuracy    <          1.5E-09 Ry
[tb_dev] Currently allocated     2.29E+01 Mbytes, locked:    0 /   8
[tb_pin] Currently allocated     0.00E+00 Mbytes, locked:    0 /   0

     iteration #  8     ecut=    30.00 Ry     beta= 0.70
     ParO style diagonalization
 Really copied g2kin D->H
 @@chk paro_gamma_new
     ethr =  1.87E-11,  avg # of iterations =  8.9
 Really copied wg H->D
 Really copied evc H->D

     total cpu time spent up to now is        2.7 secs

     total energy              =     -33.56882610 Ry
     estimated scf accuracy    <          1.5E-11 Ry
[tb_dev] Currently allocated     2.29E+01 Mbytes, locked:    0 /   8
[tb_pin] Currently allocated     0.00E+00 Mbytes, locked:    0 /   0

     iteration #  9     ecut=    30.00 Ry     beta= 0.70
     ParO style diagonalization
 Really copied g2kin D->H
 @@chk paro_gamma_new
     ethr =  1.81E-13,  avg # of iterations = 14.1
 Really copied wg H->D
 Really copied evc H->D

     total cpu time spent up to now is        3.0 secs

     total energy              =     -33.56882610 Ry
     estimated scf accuracy    <          7.3E-14 Ry
[tb_dev] Currently allocated     2.29E+01 Mbytes, locked:    0 /   8
[tb_pin] Currently allocated     0.00E+00 Mbytes, locked:    0 /   0

     iteration # 10     ecut=    30.00 Ry     beta= 0.70
     ParO style diagonalization
 Really copied g2kin D->H
 @@chk paro_gamma_new
     ethr =  1.00E-13,  avg # of iterations =  5.1
 Really copied wg H->D
 Really copied evc H->D

     total cpu time spent up to now is        3.1 secs

     total energy              =     -33.56882610 Ry
     estimated scf accuracy    <          1.2E-15 Ry
[tb_dev] Currently allocated     2.29E+01 Mbytes, locked:    0 /   8
[tb_pin] Currently allocated     0.00E+00 Mbytes, locked:    0 /   0

     iteration # 11     ecut=    30.00 Ry     beta= 0.70
     ParO style diagonalization
 Really copied g2kin D->H
 @@chk paro_gamma_new
     ethr =  1.00E-13,  avg # of iterations =  4.3
 Really copied wg H->D
 Really copied evc H->D

     total cpu time spent up to now is        3.2 secs

     End of self-consistent calculation

          k = 0.0000 0.0000 0.0000 (  2401 PWs)   bands (ev):

   -27.4905 -13.7570  -9.2692  -7.0865  -1.2366   2.1819   2.4701   2.8689

     occupation numbers 
     1.0000   1.0000   1.0000   1.0000   0.0000   0.0000   0.0000   0.0000

     highest occupied, lowest unoccupied level (ev):    -7.0865   -1.2366

!    total energy              =     -33.56882610 Ry
     estimated scf accuracy    <          1.1E-16 Ry

     The total energy is the sum of the following terms:
     one-electron contribution =     -81.92549390 Ry
     hartree contribution      =      42.14101079 Ry
     xc contribution           =      -8.34785619 Ry
     ewald contribution        =      14.56351319 Ry

     convergence has been achieved in  11 iterations

     Writing output data file ./pwscf.save/
 
     init_run     :      0.56s CPU      0.78s WALL (       1 calls)
     electrons    :      1.91s CPU      2.00s WALL (       1 calls)

     Called by init_run:
     wfcinit      :      0.40s CPU      0.60s WALL (       1 calls)
                                        0.60s GPU  (       1 calls)
     wfcinit:atom :      0.00s CPU      0.00s WALL (       1 calls)
                                        0.00s GPU  (       1 calls)
     wfcinit:wfcr :      0.39s CPU      0.60s WALL (       1 calls)
                                        0.60s GPU  (       1 calls)
     potinit      :      0.05s CPU      0.06s WALL (       1 calls)
     hinit0       :      0.10s CPU      0.10s WALL (       1 calls)

     Called by electrons:
     c_bands      :      1.40s CPU      1.42s WALL (      11 calls)
     sum_band     :      0.05s CPU      0.07s WALL (      11 calls)
                                        0.07s GPU  (      11 calls)
     v_of_rho     :      0.43s CPU      0.48s WALL (      12 calls)
     v_h          :      0.05s CPU      0.05s WALL (      12 calls)
     v_xc         :      0.38s CPU      0.43s WALL (      12 calls)
     mix_rho      :      0.06s CPU      0.06s WALL (      11 calls)

     Called by c_bands:
     init_us_2    :      0.00s CPU      0.01s WALL (      23 calls)
                                        0.01s GPU  (      23 calls)
     paro_gamma   :      1.39s CPU      1.41s WALL (      11 calls)

     Called by sum_band:
     sum_band:wei :      0.00s CPU      0.00s WALL (      11 calls)
                                        0.00s GPU  (      11 calls)
     sum_band:loo :      0.01s CPU      0.03s WALL (      11 calls)
                                        0.03s GPU  (      11 calls)
     sum_band:buf :      0.00s CPU      0.00s WALL (      11 calls)
                                        0.00s GPU  (      11 calls)
     sum_band:ini :      0.00s CPU      0.00s WALL (      11 calls)
                                        0.00s GPU  (      11 calls)

     Called by paro_*:
     paro:init    :      0.12s CPU      0.12s WALL (      11 calls)
     paro:pack    :      0.01s CPU      0.01s WALL (      66 calls)
     paro:mp_bar  :      0.00s CPU      0.00s WALL (      66 calls)
     paro:mp_sum  :      0.00s CPU      0.00s WALL (      66 calls)
     pcg          :      1.22s CPU      1.23s WALL (      66 calls)
     pcg:hs_1psi  :      1.11s CPU      1.11s WALL (     287 calls)
     pcg:ortho    :      0.02s CPU      0.02s WALL (     353 calls)
     pcg:move     :      0.01s CPU      0.01s WALL (     312 calls)
     rotHSw       :      0.04s CPU      0.04s WALL (      77 calls)
     rotHSw:hc    :      0.01s CPU      0.01s WALL (      77 calls)
     rotHSw:diag  :      0.00s CPU      0.00s WALL (      77 calls)
     rotHSw:evc   :      0.02s CPU      0.02s WALL (      77 calls)
     rotHSw:hc:s1 :      0.00s CPU      0.00s WALL (      77 calls)
     rotHSw:hc:s2 :      0.00s CPU      0.00s WALL (      77 calls)
     rotHSw:hc:s3 :      0.00s CPU      0.00s WALL (      77 calls)
     rotHSw:hc:s4 :      0.00s CPU      0.00s WALL (      77 calls)
     rotHSw:ev:s5 :      0.00s CPU      0.00s WALL (      77 calls)
     rotHSw:ev:s6 :      0.00s CPU      0.00s WALL (      77 calls)
     h_psi        :      1.47s CPU      1.59s WALL (     299 calls)
                                        0.37s GPU  (       1 calls)
     g_psi        :      0.05s CPU      0.05s WALL (     932 calls)

     Called by h_psi:
     h_psi:calbec :      0.12s CPU      0.19s WALL (     299 calls)
                                        0.18s GPU  (       1 calls)
     vloc_psi     :      1.33s CPU      1.38s WALL (     299 calls)
                                        0.19s GPU  (       1 calls)
     add_vuspsi   :      0.01s CPU      0.01s WALL (     299 calls)
                                        0.00s GPU  (       1 calls)

     General routines
     calbec       :      0.12s CPU      0.19s WALL (     299 calls)
     fft          :      0.11s CPU      0.11s WALL (      96 calls)
     ffts         :      0.01s CPU      0.01s WALL (      11 calls)
     fftw         :      1.14s CPU      1.19s WALL (     954 calls)
                                        0.19s GPU  (      46 calls)
 
     Parallel routines
 
     PWSCF        :      2.83s CPU      3.22s WALL

 
   This run was terminated on:  11:34:35  20Sep2020            

=------------------------------------------------------------------------------=
   JOB DONE.
=------------------------------------------------------------------------------=
