 768 reduced
 periodic   40.9852070000000        40.985207000000        40.985207000000     
U  0.5    0.5    0.5
U  0.5    0.375    0.375
U  0.375    0.375    0.5
U  0.375    0.5    0.375
O  0.5625    0.43749997    0.5625
O  0.43749997    0.43749997    0.43749997
O  0.5625    0.5625    0.43749997
O  0.5625    0.43749997    0.43749997
O  0.5625    0.5625    0.5625
O  0.43749997    0.5625    0.43749997
O  0.43749997    0.43749997    0.5625
O  0.43749997    0.5625    0.5625
U  0.625    0.375    0.5
U  0.625    0.5    0.375
O  0.3125    0.43749997    0.5625
O  0.3125    0.5625    0.43749997
O  0.3125    0.43749997    0.43749997
O  0.3125    0.5625    0.5625
O  0.6875    0.43749997    0.43749997
O  0.6875    0.5625    0.43749997
O  0.6875    0.43749997    0.5625
O  0.6875    0.5625    0.5625
U  0.24999999    0.5    0.5
U  0.24999999    0.375    0.375
U  0.5    0.625    0.375
U  0.375    0.625    0.5
U  0.625    0.625    0.5
U  0.24999999    0.625    0.375
O  0.5625    0.3125    0.43749997
O  0.5625    0.3125    0.5625
O  0.43749997    0.3125    0.43749997
O  0.43749997    0.3125    0.5625
O  0.3125    0.3125    0.43749997
O  0.3125    0.3125    0.5625
O  0.6875    0.3125    0.43749997
O  0.6875    0.3125    0.5625
O  0.5625    0.6875    0.5625
O  0.43749997    0.6875    0.43749997
O  0.5625    0.6875    0.43749997
O  0.43749997    0.6875    0.5625
O  0.3125    0.6875    0.5625
O  0.3125    0.6875    0.43749997
O  0.6875    0.6875    0.43749997
O  0.6875    0.6875    0.5625
U  0.5    0.24999999    0.5
U  0.375    0.24999999    0.375
U  0.625    0.24999999    0.375
U  0.24999999    0.24999999    0.5
U  0.5    0.375    0.625
U  0.375    0.5    0.625
U  0.625    0.5    0.625
U  0.24999999    0.375    0.625
U  0.5    0.625    0.625
U  0.24999999    0.625    0.625
U  0.375    0.24999999    0.625
U  0.625    0.24999999    0.625
O  0.5625    0.43749997    0.3125
O  0.5625    0.5625    0.3125
O  0.43749997    0.43749997    0.3125
O  0.43749997    0.5625    0.3125
O  0.3125    0.43749997    0.3125
O  0.3125    0.5625    0.3125
O  0.6875    0.43749997    0.3125
O  0.6875    0.5625    0.3125
O  0.5625    0.3125    0.3125
O  0.43749997    0.3125    0.3125
O  0.3125    0.3125    0.3125
O  0.6875    0.3125    0.3125
O  0.5625    0.6875    0.3125
O  0.43749997    0.6875    0.3125
O  0.3125    0.6875    0.3125
O  0.6875    0.6875    0.3125
O  0.43749997    0.43749997    0.6875
O  0.5625    0.5625    0.6875
O  0.5625    0.43749997    0.6875
O  0.43749997    0.5625    0.6875
O  0.3125    0.5625    0.6875
O  0.3125    0.43749997    0.6875
O  0.6875    0.43749997    0.6875
O  0.6875    0.5625    0.6875
O  0.5625    0.3125    0.6875
O  0.43749997    0.3125    0.6875
O  0.3125    0.3125    0.6875
O  0.6875    0.3125    0.6875
O  0.43749997    0.6875    0.6875
O  0.5625    0.6875    0.6875
O  0.3125    0.6875    0.6875
O  0.6875    0.6875    0.6875
U  0.5    0.5    0.24999999
U  0.375    0.375    0.24999999
U  0.625    0.375    0.24999999
U  0.24999999    0.5    0.24999999
U  0.375    0.625    0.24999999
U  0.625    0.625    0.24999999
U  0.5    0.24999999    0.24999999
U  0.24999999    0.24999999    0.24999999
U  0.75    0.5    0.5
U  0.75    0.375    0.375
U  0.75    0.625    0.375
U  0.75    0.24999999    0.5
U  0.75    0.375    0.625
U  0.75    0.625    0.625
U  0.75    0.5    0.24999999
U  0.75    0.24999999    0.24999999
O  0.1875    0.43749997    0.43749997
O  0.1875    0.5625    0.43749997
O  0.1875    0.43749997    0.5625
O  0.1875    0.5625    0.5625
O  0.1875    0.3125    0.43749997
O  0.1875    0.3125    0.5625
O  0.1875    0.6875    0.43749997
O  0.1875    0.6875    0.5625
O  0.1875    0.43749997    0.3125
O  0.1875    0.5625    0.3125
O  0.1875    0.3125    0.3125
O  0.1875    0.6875    0.3125
O  0.1875    0.43749997    0.6875
O  0.1875    0.5625    0.6875
O  0.1875    0.3125    0.6875
O  0.1875    0.6875    0.6875
U  0.5    0.75    0.5
U  0.375    0.75    0.375
U  0.625    0.75    0.375
U  0.24999999    0.75    0.5
U  0.375    0.75    0.625
U  0.625    0.75    0.625
U  0.5    0.75    0.24999999
U  0.24999999    0.75    0.24999999
U  0.75    0.75    0.5
U  0.75    0.75    0.24999999
O  0.5625    0.1875    0.5625
O  0.43749997    0.1875    0.43749997
O  0.5625    0.1875    0.43749997
O  0.43749997    0.1875    0.5625
O  0.3125    0.1875    0.5625
O  0.3125    0.1875    0.43749997
O  0.6875    0.1875    0.43749997
O  0.6875    0.1875    0.5625
O  0.5625    0.1875    0.3125
O  0.43749997    0.1875    0.3125
O  0.3125    0.1875    0.3125
O  0.6875    0.1875    0.3125
O  0.43749997    0.1875    0.6875
O  0.5625    0.1875    0.6875
O  0.3125    0.1875    0.6875
O  0.6875    0.1875    0.6875
O  0.1875    0.1875    0.43749997
O  0.1875    0.1875    0.5625
O  0.1875    0.1875    0.3125
O  0.1875    0.1875    0.6875
U  0.5    0.5    0.75
U  0.375    0.375    0.75
U  0.625    0.375    0.75
U  0.24999999    0.5    0.75
U  0.375    0.625    0.75
U  0.625    0.625    0.75
U  0.5    0.24999999    0.75
U  0.24999999    0.24999999    0.75
U  0.75    0.5    0.75
U  0.75    0.24999999    0.75
U  0.5    0.75    0.75
U  0.24999999    0.75    0.75
U  0.75    0.75    0.75
O  0.43749997    0.43749997    0.1875
O  0.5625    0.5625    0.1875
O  0.5625    0.43749997    0.1875
O  0.43749997    0.5625    0.1875
O  0.3125    0.5625    0.1875
O  0.3125    0.43749997    0.1875
O  0.6875    0.43749997    0.1875
O  0.6875    0.5625    0.1875
O  0.5625    0.3125    0.1875
O  0.43749997    0.3125    0.1875
O  0.3125    0.3125    0.1875
O  0.6875    0.3125    0.1875
O  0.43749997    0.6875    0.1875
O  0.5625    0.6875    0.1875
O  0.3125    0.6875    0.1875
O  0.6875    0.6875    0.1875
O  0.1875    0.43749997    0.1875
O  0.1875    0.5625    0.1875
O  0.1875    0.3125    0.1875
O  0.1875    0.6875    0.1875
O  0.43749997    0.1875    0.1875
O  0.5625    0.1875    0.1875
O  0.3125    0.1875    0.1875
O  0.6875    0.1875    0.1875
O  0.1875    0.1875    0.1875
O  0.8125    0.43749997    0.5625
O  0.8125    0.5625    0.43749997
O  0.8125    0.43749997    0.43749997
O  0.8125    0.5625    0.5625
O  0.8125    0.3125    0.43749997
O  0.8125    0.3125    0.5625
O  0.8125    0.6875    0.5625
O  0.8125    0.6875    0.43749997
O  0.8125    0.43749997    0.3125
O  0.8125    0.5625    0.3125
O  0.8125    0.3125    0.3125
O  0.8125    0.6875    0.3125
O  0.8125    0.5625    0.6875
O  0.8125    0.43749997    0.6875
O  0.8125    0.3125    0.6875
O  0.8125    0.6875    0.6875
O  0.8125    0.1875    0.5625
O  0.8125    0.1875    0.43749997
O  0.8125    0.1875    0.3125
O  0.8125    0.1875    0.6875
O  0.8125    0.5625    0.1875
O  0.8125    0.43749997    0.1875
O  0.8125    0.3125    0.1875
O  0.8125    0.6875    0.1875
O  0.8125    0.1875    0.1875
U  0.12499999    0.375    0.5
U  0.12499999    0.5    0.375
U  0.12499999    0.625    0.5
U  0.12499999    0.24999999    0.375
U  0.12499999    0.5    0.625
U  0.12499999    0.24999999    0.625
U  0.12499999    0.375    0.24999999
U  0.12499999    0.625    0.24999999
U  0.12499999    0.75    0.375
U  0.12499999    0.75    0.625
U  0.12499999    0.375    0.75
U  0.12499999    0.625    0.75
O  0.5625    0.8125    0.43749997
O  0.5625    0.8125    0.5625
O  0.43749997    0.8125    0.43749997
O  0.43749997    0.8125    0.5625
O  0.3125    0.8125    0.43749997
O  0.3125    0.8125    0.5625
O  0.6875    0.8125    0.43749997
O  0.6875    0.8125    0.5625
O  0.5625    0.8125    0.3125
O  0.43749997    0.8125    0.3125
O  0.3125    0.8125    0.3125
O  0.6875    0.8125    0.3125
O  0.5625    0.8125    0.6875
O  0.43749997    0.8125    0.6875
O  0.3125    0.8125    0.6875
O  0.6875    0.8125    0.6875
O  0.1875    0.8125    0.43749997
O  0.1875    0.8125    0.5625
O  0.1875    0.8125    0.3125
O  0.1875    0.8125    0.6875
O  0.5625    0.8125    0.1875
O  0.43749997    0.8125    0.1875
O  0.3125    0.8125    0.1875
O  0.6875    0.8125    0.1875
O  0.1875    0.8125    0.1875
O  0.8125    0.8125    0.43749997
O  0.8125    0.8125    0.5625
O  0.8125    0.8125    0.3125
O  0.8125    0.8125    0.6875
O  0.8125    0.8125    0.1875
U  0.5    0.12499999    0.375
U  0.375    0.12499999    0.5
U  0.625    0.12499999    0.5
U  0.24999999    0.12499999    0.375
U  0.5    0.12499999    0.625
U  0.24999999    0.12499999    0.625
U  0.375    0.12499999    0.24999999
U  0.625    0.12499999    0.24999999
U  0.75    0.12499999    0.375
U  0.75    0.12499999    0.625
U  0.375    0.12499999    0.75
U  0.625    0.12499999    0.75
U  0.12499999    0.12499999    0.5
U  0.12499999    0.12499999    0.24999999
U  0.12499999    0.12499999    0.75
O  0.5625    0.43749997    0.8125
O  0.5625    0.5625    0.8125
O  0.43749997    0.43749997    0.8125
O  0.43749997    0.5625    0.8125
O  0.3125    0.43749997    0.8125
O  0.3125    0.5625    0.8125
O  0.6875    0.43749997    0.8125
O  0.6875    0.5625    0.8125
O  0.5625    0.3125    0.8125
O  0.43749997    0.3125    0.8125
O  0.3125    0.3125    0.8125
O  0.6875    0.3125    0.8125
O  0.5625    0.6875    0.8125
O  0.43749997    0.6875    0.8125
O  0.3125    0.6875    0.8125
O  0.6875    0.6875    0.8125
O  0.1875    0.43749997    0.8125
O  0.1875    0.5625    0.8125
O  0.1875    0.3125    0.8125
O  0.1875    0.6875    0.8125
O  0.5625    0.1875    0.8125
O  0.43749997    0.1875    0.8125
O  0.3125    0.1875    0.8125
O  0.6875    0.1875    0.8125
O  0.1875    0.1875    0.8125
O  0.8125    0.43749997    0.8125
O  0.8125    0.5625    0.8125
O  0.8125    0.3125    0.8125
O  0.8125    0.6875    0.8125
O  0.8125    0.1875    0.8125
O  0.5625    0.8125    0.8125
O  0.43749997    0.8125    0.8125
O  0.3125    0.8125    0.8125
O  0.6875    0.8125    0.8125
O  0.1875    0.8125    0.8125
O  0.8125    0.8125    0.8125
U  0.5    0.375    0.12499999
U  0.375    0.5    0.12499999
U  0.625    0.5    0.12499999
U  0.24999999    0.375    0.12499999
U  0.5    0.625    0.12499999
U  0.24999999    0.625    0.12499999
U  0.375    0.24999999    0.12499999
U  0.625    0.24999999    0.12499999
U  0.75    0.375    0.12499999
U  0.75    0.625    0.12499999
U  0.375    0.75    0.12499999
U  0.625    0.75    0.12499999
U  0.12499999    0.5    0.12499999
U  0.12499999    0.24999999    0.12499999
U  0.12499999    0.75    0.12499999
U  0.5    0.12499999    0.12499999
U  0.24999999    0.12499999    0.12499999
U  0.75    0.12499999    0.12499999
U  0.87500006    0.375    0.5
U  0.87500006    0.5    0.375
U  0.87500006    0.625    0.5
U  0.87500006    0.24999999    0.375
U  0.87500006    0.5    0.625
U  0.87500006    0.24999999    0.625
U  0.87500006    0.375    0.24999999
U  0.87500006    0.625    0.24999999
U  0.87500006    0.75    0.375
U  0.87500006    0.75    0.625
U  0.87500006    0.375    0.75
U  0.87500006    0.625    0.75
U  0.87500006    0.12499999    0.5
U  0.87500006    0.12499999    0.24999999
U  0.87500006    0.12499999    0.75
U  0.87500006    0.5    0.12499999
U  0.87500006    0.24999999    0.12499999
U  0.87500006    0.75    0.12499999
O  0.062499985    0.43749997    0.5625
O  0.062499985    0.5625    0.43749997
O  0.062499985    0.43749997    0.43749997
O  0.062499985    0.5625    0.5625
O  0.062499985    0.3125    0.43749997
O  0.062499985    0.3125    0.5625
O  0.062499985    0.6875    0.5625
O  0.062499985    0.6875    0.43749997
O  0.062499985    0.43749997    0.3125
O  0.062499985    0.5625    0.3125
O  0.062499985    0.3125    0.3125
O  0.062499985    0.6875    0.3125
O  0.062499985    0.5625    0.6875
O  0.062499985    0.43749997    0.6875
O  0.062499985    0.3125    0.6875
O  0.062499985    0.6875    0.6875
O  0.062499985    0.1875    0.5625
O  0.062499985    0.1875    0.43749997
O  0.062499985    0.1875    0.3125
O  0.062499985    0.1875    0.6875
O  0.062499985    0.5625    0.1875
O  0.062499985    0.43749997    0.1875
O  0.062499985    0.3125    0.1875
O  0.062499985    0.6875    0.1875
O  0.062499985    0.1875    0.1875
O  0.062499985    0.8125    0.43749997
O  0.062499985    0.8125    0.5625
O  0.062499985    0.8125    0.3125
O  0.062499985    0.8125    0.6875
O  0.062499985    0.8125    0.1875
O  0.062499985    0.43749997    0.8125
O  0.062499985    0.5625    0.8125
O  0.062499985    0.3125    0.8125
O  0.062499985    0.6875    0.8125
O  0.062499985    0.1875    0.8125
O  0.062499985    0.8125    0.8125
U  0.5    0.87500006    0.375
U  0.375    0.87500006    0.5
U  0.625    0.87500006    0.5
U  0.24999999    0.87500006    0.375
U  0.5    0.87500006    0.625
U  0.24999999    0.87500006    0.625
U  0.375    0.87500006    0.24999999
U  0.625    0.87500006    0.24999999
U  0.75    0.87500006    0.375
U  0.75    0.87500006    0.625
U  0.375    0.87500006    0.75
U  0.625    0.87500006    0.75
U  0.12499999    0.87500006    0.5
U  0.12499999    0.87500006    0.24999999
U  0.12499999    0.87500006    0.75
U  0.5    0.87500006    0.12499999
U  0.24999999    0.87500006    0.12499999
U  0.75    0.87500006    0.12499999
U  0.87500006    0.87500006    0.5
U  0.87500006    0.87500006    0.24999999
U  0.87500006    0.87500006    0.75
O  0.5625    0.062499985    0.43749997
O  0.5625    0.062499985    0.5625
O  0.43749997    0.062499985    0.43749997
O  0.43749997    0.062499985    0.5625
O  0.3125    0.062499985    0.43749997
O  0.3125    0.062499985    0.5625
O  0.6875    0.062499985    0.43749997
O  0.6875    0.062499985    0.5625
O  0.5625    0.062499985    0.3125
O  0.43749997    0.062499985    0.3125
O  0.3125    0.062499985    0.3125
O  0.6875    0.062499985    0.3125
O  0.5625    0.062499985    0.6875
O  0.43749997    0.062499985    0.6875
O  0.3125    0.062499985    0.6875
O  0.6875    0.062499985    0.6875
O  0.1875    0.062499985    0.43749997
O  0.1875    0.062499985    0.5625
O  0.1875    0.062499985    0.3125
O  0.1875    0.062499985    0.6875
O  0.5625    0.062499985    0.1875
O  0.43749997    0.062499985    0.1875
O  0.3125    0.062499985    0.1875
O  0.6875    0.062499985    0.1875
O  0.1875    0.062499985    0.1875
O  0.8125    0.062499985    0.43749997
O  0.8125    0.062499985    0.5625
O  0.8125    0.062499985    0.3125
O  0.8125    0.062499985    0.6875
O  0.8125    0.062499985    0.1875
O  0.5625    0.062499985    0.8125
O  0.43749997    0.062499985    0.8125
O  0.3125    0.062499985    0.8125
O  0.6875    0.062499985    0.8125
O  0.1875    0.062499985    0.8125
O  0.8125    0.062499985    0.8125
O  0.062499985    0.062499985    0.43749997
O  0.062499985    0.062499985    0.5625
O  0.062499985    0.062499985    0.3125
O  0.062499985    0.062499985    0.6875
O  0.062499985    0.062499985    0.1875
O  0.062499985    0.062499985    0.8125
U  0.5    0.375    0.87500006
U  0.375    0.5    0.87500006
U  0.625    0.5    0.87500006
U  0.24999999    0.375    0.87500006
U  0.5    0.625    0.87500006
U  0.24999999    0.625    0.87500006
U  0.375    0.24999999    0.87500006
U  0.625    0.24999999    0.87500006
U  0.75    0.375    0.87500006
U  0.75    0.625    0.87500006
U  0.375    0.75    0.87500006
U  0.625    0.75    0.87500006
U  0.12499999    0.5    0.87500006
U  0.12499999    0.24999999    0.87500006
U  0.12499999    0.75    0.87500006
U  0.5    0.12499999    0.87500006
U  0.24999999    0.12499999    0.87500006
U  0.75    0.12499999    0.87500006
U  0.87500006    0.5    0.87500006
U  0.87500006    0.24999999    0.87500006
U  0.87500006    0.75    0.87500006
U  0.5    0.87500006    0.87500006
U  0.24999999    0.87500006    0.87500006
U  0.75    0.87500006    0.87500006
O  0.5625    0.43749997    0.062499985
O  0.5625    0.5625    0.062499985
O  0.43749997    0.43749997    0.062499985
O  0.43749997    0.5625    0.062499985
O  0.3125    0.43749997    0.062499985
O  0.3125    0.5625    0.062499985
O  0.6875    0.43749997    0.062499985
O  0.6875    0.5625    0.062499985
O  0.5625    0.3125    0.062499985
O  0.43749997    0.3125    0.062499985
O  0.3125    0.3125    0.062499985
O  0.6875    0.3125    0.062499985
O  0.5625    0.6875    0.062499985
O  0.43749997    0.6875    0.062499985
O  0.3125    0.6875    0.062499985
O  0.6875    0.6875    0.062499985
O  0.1875    0.43749997    0.062499985
O  0.1875    0.5625    0.062499985
O  0.1875    0.3125    0.062499985
O  0.1875    0.6875    0.062499985
O  0.5625    0.1875    0.062499985
O  0.43749997    0.1875    0.062499985
O  0.3125    0.1875    0.062499985
O  0.6875    0.1875    0.062499985
O  0.1875    0.1875    0.062499985
O  0.8125    0.43749997    0.062499985
O  0.8125    0.5625    0.062499985
O  0.8125    0.3125    0.062499985
O  0.8125    0.6875    0.062499985
O  0.8125    0.1875    0.062499985
O  0.5625    0.8125    0.062499985
O  0.43749997    0.8125    0.062499985
O  0.3125    0.8125    0.062499985
O  0.6875    0.8125    0.062499985
O  0.1875    0.8125    0.062499985
O  0.8125    0.8125    0.062499985
O  0.062499985    0.43749997    0.062499985
O  0.062499985    0.5625    0.062499985
O  0.062499985    0.3125    0.062499985
O  0.062499985    0.6875    0.062499985
O  0.062499985    0.1875    0.062499985
O  0.062499985    0.8125    0.062499985
O  0.5625    0.062499985    0.062499985
O  0.43749997    0.062499985    0.062499985
O  0.3125    0.062499985    0.062499985
O  0.6875    0.062499985    0.062499985
O  0.1875    0.062499985    0.062499985
O  0.8125    0.062499985    0.062499985
O  0.062499985    0.062499985    0.062499985
O  0.9375    0.43749997    0.43749997
O  0.9375    0.5625    0.43749997
O  0.9375    0.43749997    0.5625
O  0.9375    0.5625    0.5625
O  0.9375    0.3125    0.43749997
O  0.9375    0.3125    0.5625
O  0.9375    0.6875    0.43749997
O  0.9375    0.6875    0.5625
O  0.9375    0.43749997    0.3125
O  0.9375    0.5625    0.3125
O  0.9375    0.3125    0.3125
O  0.9375    0.6875    0.3125
O  0.9375    0.43749997    0.6875
O  0.9375    0.5625    0.6875
O  0.9375    0.3125    0.6875
O  0.9375    0.6875    0.6875
O  0.9375    0.1875    0.43749997
O  0.9375    0.1875    0.5625
O  0.9375    0.1875    0.3125
O  0.9375    0.1875    0.6875
O  0.9375    0.43749997    0.1875
O  0.9375    0.5625    0.1875
O  0.9375    0.3125    0.1875
O  0.9375    0.6875    0.1875
O  0.9375    0.1875    0.1875
O  0.9375    0.8125    0.43749997
O  0.9375    0.8125    0.5625
O  0.9375    0.8125    0.3125
O  0.9375    0.8125    0.6875
O  0.9375    0.8125    0.1875
O  0.9375    0.43749997    0.8125
O  0.9375    0.5625    0.8125
O  0.9375    0.3125    0.8125
O  0.9375    0.6875    0.8125
O  0.9375    0.1875    0.8125
O  0.9375    0.8125    0.8125
O  0.9375    0.062499985    0.43749997
O  0.9375    0.062499985    0.5625
O  0.9375    0.062499985    0.3125
O  0.9375    0.062499985    0.6875
O  0.9375    0.062499985    0.1875
O  0.9375    0.062499985    0.8125
O  0.9375    0.43749997    0.062499985
O  0.9375    0.5625    0.062499985
O  0.9375    0.3125    0.062499985
O  0.9375    0.6875    0.062499985
O  0.9375    0.1875    0.062499985
O  0.9375    0.8125    0.062499985
O  0.9375    0.062499985    0.062499985
U  0    0.5    0.5
U  0    0.375    0.375
U  0    0.625    0.375
U  0    0.24999999    0.5
U  0    0.375    0.625
U  0    0.625    0.625
U  0    0.5    0.24999999
U  0    0.24999999    0.24999999
U  0    0.75    0.5
U  0    0.75    0.24999999
U  0    0.5    0.75
U  0    0.24999999    0.75
U  0    0.75    0.75
U  0    0.12499999    0.375
U  0    0.12499999    0.625
U  0    0.375    0.12499999
U  0    0.625    0.12499999
U  0    0.12499999    0.12499999
U  0    0.87500006    0.375
U  0    0.87500006    0.625
U  0    0.87500006    0.12499999
U  0    0.375    0.87500006
U  0    0.625    0.87500006
U  0    0.12499999    0.87500006
U  0    0.87500006    0.87500006
O  0.5625    0.9375    0.5625
O  0.43749997    0.9375    0.43749997
O  0.5625    0.9375    0.43749997
O  0.43749997    0.9375    0.5625
O  0.3125    0.9375    0.5625
O  0.3125    0.9375    0.43749997
O  0.6875    0.9375    0.43749997
O  0.6875    0.9375    0.5625
O  0.5625    0.9375    0.3125
O  0.43749997    0.9375    0.3125
O  0.3125    0.9375    0.3125
O  0.6875    0.9375    0.3125
O  0.43749997    0.9375    0.6875
O  0.5625    0.9375    0.6875
O  0.3125    0.9375    0.6875
O  0.6875    0.9375    0.6875
O  0.1875    0.9375    0.43749997
O  0.1875    0.9375    0.5625
O  0.1875    0.9375    0.3125
O  0.1875    0.9375    0.6875
O  0.43749997    0.9375    0.1875
O  0.5625    0.9375    0.1875
O  0.3125    0.9375    0.1875
O  0.6875    0.9375    0.1875
O  0.1875    0.9375    0.1875
O  0.8125    0.9375    0.5625
O  0.8125    0.9375    0.43749997
O  0.8125    0.9375    0.3125
O  0.8125    0.9375    0.6875
O  0.8125    0.9375    0.1875
O  0.5625    0.9375    0.8125
O  0.43749997    0.9375    0.8125
O  0.3125    0.9375    0.8125
O  0.6875    0.9375    0.8125
O  0.1875    0.9375    0.8125
O  0.8125    0.9375    0.8125
O  0.062499985    0.9375    0.5625
O  0.062499985    0.9375    0.43749997
O  0.062499985    0.9375    0.3125
O  0.062499985    0.9375    0.6875
O  0.062499985    0.9375    0.1875
O  0.062499985    0.9375    0.8125
O  0.5625    0.9375    0.062499985
O  0.43749997    0.9375    0.062499985
O  0.3125    0.9375    0.062499985
O  0.6875    0.9375    0.062499985
O  0.1875    0.9375    0.062499985
O  0.8125    0.9375    0.062499985
O  0.062499985    0.9375    0.062499985
O  0.9375    0.9375    0.43749997
O  0.9375    0.9375    0.5625
O  0.9375    0.9375    0.3125
O  0.9375    0.9375    0.6875
O  0.9375    0.9375    0.1875
O  0.9375    0.9375    0.8125
O  0.9375    0.9375    0.062499985
U  0.5    0    0.5
U  0.375    0    0.375
U  0.625    0    0.375
U  0.24999999    0    0.5
U  0.375    0    0.625
U  0.625    0    0.625
U  0.5    0    0.24999999
U  0.24999999    0    0.24999999
U  0.75    0    0.5
U  0.75    0    0.24999999
U  0.5    0    0.75
U  0.24999999    0    0.75
U  0.75    0    0.75
U  0.12499999    0    0.375
U  0.12499999    0    0.625
U  0.375    0    0.12499999
U  0.625    0    0.12499999
U  0.12499999    0    0.12499999
U  0.87500006    0    0.375
U  0.87500006    0    0.625
U  0.87500006    0    0.12499999
U  0.375    0    0.87500006
U  0.625    0    0.87500006
U  0.12499999    0    0.87500006
U  0.87500006    0    0.87500006
U  0    0    0.5
U  0    0    0.24999999
U  0    0    0.75
O  0.43749997    0.43749997    0.9375
O  0.5625    0.5625    0.9375
O  0.5625    0.43749997    0.9375
O  0.43749997    0.5625    0.9375
O  0.3125    0.5625    0.9375
O  0.3125    0.43749997    0.9375
O  0.6875    0.43749997    0.9375
O  0.6875    0.5625    0.9375
O  0.5625    0.3125    0.9375
O  0.43749997    0.3125    0.9375
O  0.3125    0.3125    0.9375
O  0.6875    0.3125    0.9375
O  0.43749997    0.6875    0.9375
O  0.5625    0.6875    0.9375
O  0.3125    0.6875    0.9375
O  0.6875    0.6875    0.9375
O  0.1875    0.43749997    0.9375
O  0.1875    0.5625    0.9375
O  0.1875    0.3125    0.9375
O  0.1875    0.6875    0.9375
O  0.43749997    0.1875    0.9375
O  0.5625    0.1875    0.9375
O  0.3125    0.1875    0.9375
O  0.6875    0.1875    0.9375
O  0.1875    0.1875    0.9375
O  0.8125    0.5625    0.9375
O  0.8125    0.43749997    0.9375
O  0.8125    0.3125    0.9375
O  0.8125    0.6875    0.9375
O  0.8125    0.1875    0.9375
O  0.5625    0.8125    0.9375
O  0.43749997    0.8125    0.9375
O  0.3125    0.8125    0.9375
O  0.6875    0.8125    0.9375
O  0.1875    0.8125    0.9375
O  0.8125    0.8125    0.9375
O  0.062499985    0.5625    0.9375
O  0.062499985    0.43749997    0.9375
O  0.062499985    0.3125    0.9375
O  0.062499985    0.6875    0.9375
O  0.062499985    0.1875    0.9375
O  0.062499985    0.8125    0.9375
O  0.5625    0.062499985    0.9375
O  0.43749997    0.062499985    0.9375
O  0.3125    0.062499985    0.9375
O  0.6875    0.062499985    0.9375
O  0.1875    0.062499985    0.9375
O  0.8125    0.062499985    0.9375
O  0.062499985    0.062499985    0.9375
O  0.9375    0.43749997    0.9375
O  0.9375    0.5625    0.9375
O  0.9375    0.3125    0.9375
O  0.9375    0.6875    0.9375
O  0.9375    0.1875    0.9375
O  0.9375    0.8125    0.9375
O  0.9375    0.062499985    0.9375
O  0.43749997    0.9375    0.9375
O  0.5625    0.9375    0.9375
O  0.3125    0.9375    0.9375
O  0.6875    0.9375    0.9375
O  0.1875    0.9375    0.9375
O  0.8125    0.9375    0.9375
O  0.062499985    0.9375    0.9375
O  0.9375    0.9375    0.9375
U  0.5    0.5    0
U  0.375    0.375    0
U  0.625    0.375    0
U  0.24999999    0.5    0
U  0.375    0.625    0
U  0.625    0.625    0
U  0.5    0.24999999    0
U  0.24999999    0.24999999    0
U  0.75    0.5    0
U  0.75    0.24999999    0
U  0.5    0.75    0
U  0.24999999    0.75    0
U  0.75    0.75    0
U  0.12499999    0.375    0
U  0.12499999    0.625    0
U  0.375    0.12499999    0
U  0.625    0.12499999    0
U  0.12499999    0.12499999    0
U  0.87500006    0.375    0
U  0.87500006    0.625    0
U  0.87500006    0.12499999    0
U  0.375    0.87500006    0
U  0.625    0.87500006    0
U  0.12499999    0.87500006    0
U  0.87500006    0.87500006    0
U  0    0.5    0
U  0    0.24999999    0
U  0    0.75    0
U  0.5    0    0
U  0.24999999    0    0
U  0.75    0    0
U  0    0    0
