	mpi	thrs	thr_tot	nodes	nodes_io	mpi/gpu	Time-Profile	io_ATMPROJ_pwscf	io_KB_abinit	io_BS	io_Double_Grid	io_COL_CUT	GW(REDUX)	HF(REDUX)	PP_uspp_init	io_HF	IO_and_Messaging_switch	io_QINDX	scatter_Gamp_gpu	io_QP_and_GF	io_GROT	io_X	MATRIX transfer (X_G_finite_q_X_redux_1_2)	MATRIX transfer (X_G_finite_q_X_redux_2_1)	MATRIX transfer (X_G_finite_q_X_redux_2_2)	MATRIX transfer (X_G_finite_q_X_redux_1_1)	io_KB_pwscf	FFT_setup	SERIAL_lin_system_gpu	LINEAR ALGEBRA	X (REDUX)	X	Xo (REDUX)	io_DIPOLES	RIM	io_fragment	XC_potential_driver	XCo_local	io_WF	WF_load_FFT	HF	GW(ppa)	Xo	DIPOLE_transverse	Dipoles	gpu	Self energy	Other	node_h
0	40	8	320	10	1	1	260.0	0.0001	0.0001	0.0002	0.0002	0.0004	0.7331	0.432	0.0007	0.0143	0.0006	0.0167	0.0064	0.022	0.0797	0.655	0.1044	0.1124	0.1082	0.1084	0.3762	0.1703	0.209	0.2092	0.5916	0.6375	25.1912	0.7053	0.6946	1.8523	3.9315	3.9565	6.8253	7.8115	7.1692	27.5571	71.1475	137.134	138.8592	40	34.726299999999995	14.629500000000021	0.7222222222222222
3	48	8	384	12	1	1	269.0	0.0001	0.0001	0.0002	0.0002	0.0008	0.2488	0.5907	0.0006	0.0135	0.0006	0.0163	0.0064	0.0223	0.06	0.954	0.1046	0.1029	0.1009	0.1103	0.395	0.1645	0.2103	0.2104	0.5955	0.6395	27.0944	1.1229	0.6817	1.8137	3.8233	3.8446	6.0956	7.0615	6.2645	22.9736	76.0379	145.8225	148.1209	48	29.238100000000003	14.9636	0.8966666666666666
1	60	8	480	15	1	1	281.0	0.0001	0.0001	0.0002	0.0002	0.0008	1.6219	0.3063	0.0006	0.0134	0.0006	0.0264	0.0064	0.02	0.0636	0.669	0.1026	0.1034	0.101	0.1141	0.55	0.1721	0.2315	0.2316	0.606	0.6808	29.2714	1.211	0.681	2.2526	3.7479	3.8113	7.2435	8.0785	5.1394	19.0075	82.0612	154.0406	156.4965	60	24.146900000000002	17.614600000000003	1.1708333333333334
2	72	8	576	18	1	1	280.0	0.0001	0.0001	0.0001	0.0002	0.0003	0.3586	0.4725	0.0007	0.0131	0.0006	0.0159	0.0064	0.0221	0.0509	0.6316	0.1011	0.1033	0.1029	0.1071	0.3759	0.1691	0.2129	0.213	0.591	0.6667	30.0235	0.7974	0.6827	1.7968	3.7349	3.7357	5.1761	5.9734	4.5324	15.2676	85.0317	157.6874	160.6569	72	19.8	13.844699999999992	1.4
4	80	8	640	20	1	1	287.0	0.0001	0.0001	0.0002	0.0008	0.0003	0.2024	0.3477	0.0007	0.0166	0.0006	0.0153	0.0064	0.0215	0.0919	0.7167	0.0997	0.1058	0.1032	0.1079	0.5209	0.1801	0.2139	0.214	0.6006	0.6693	31.1167	1.3692	0.6886	2.3738	3.6352	3.6677	6.2317	7.0765	4.107	13.9285	87.2773	161.6126	165.0108	80	18.0355	16.007100000000015	1.5944444444444446
