	mpi	thrs	thr_tot	nodes	nodes_io	mpi/gpu	Time-Profile	io_ATMPROJ_pwscf	io_KB_abinit	io_BS	HF(REDUX)	GW(REDUX)	io_COL_CUT	scatter_Gamp_gpu	io_HF	io_Double_Grid	IO_and_Messaging_switch	PP_uspp_init	io_QINDX	io_GROT	HF	io_QP_and_GF	io_DIPOLES	io_KB_pwscf	io_X	FFT_setup	io_fragment	io_WF	MATRIX transfer (X_G_finite_q_X_redux_1_2)	MATRIX transfer (X_G_finite_q_X_redux_2_2)	MATRIX transfer (X_G_finite_q_X_redux_2_1)	MATRIX transfer (X_G_finite_q_X_redux_1_1)	Coulomb Cutoff	SERIAL_lin_system_gpu	LINEAR ALGEBRA	Xo (REDUX)	XC_potential_driver	XCo_local	X (REDUX)	WF_load_FFT	X	GW(ppa)	DIPOLE_transverse	Dipoles	Xo	gpu	Self energy	Other	node_h
0	36	8	288	9	1	1	68.0	0.0001	0.0001	0.0003	0.044	0.3195	0.0145	0.0005	0.0146	0.0021	0.0013	0.0015	0.0066	0.0108	0.0415	0.0215	1.1505	0.0813	1.0038	0.1427	1.5744	0.2188	0.2447	0.247	0.3087	0.3107	0.2524	0.2734	0.2737	28.7532	0.7129	0.7162	1.2692	0.9403	1.4247	2.4839	6.8141	8.3054	49.6019	36	2.5254000000000003	6.142600000000001	0.17
3	72	8	576	18	1	1	84.0	0.0001	0.0002	0.0003	0.1441	0.3256	0.0122	0.0005	0.0147	0.0002	0.0014	0.0017	0.0305	0.1351	0.0349	0.0205	2.2822	0.424	1.0517	0.144	4.9843	2.345	0.244	0.2471	0.3106	0.3082	0.1671	1.2587	1.259	32.1958	0.6868	0.6905	2.3162	3.07	2.3956	2.4925	9.0622	11.0075	58.0982	72	2.5274	9.971300000000008	0.42
1	108	8	864	27	1	1	82.0	0.0002	0.0003	0.0006	0.1959	0.5226	0.0879	0.0002	0.0176	0.0002	0.0014	0.0017	0.0084	0.0142	0.0264	0.0207	2.5708	0.1131	1.0344	0.1435	3.2045	0.7828	0.2448	0.2528	0.3089	0.3116	0.1987	0.3798	0.38	32.9815	0.6164	0.6196	1.4539	1.5365	1.5838	1.34	7.5211	9.9955	58.87	108	1.3664	10.18430000000001	0.615
2	144	8	1152	36	1	1	84.0	0.0001	0.0001	0.0003	0.1929	0.5543	0.018	0.0003	0.0162	0.0002	0.002	0.003	0.0089	0.0157	0.025	0.0194	2.6403	0.1241	1.0352	0.1624	3.5543	1.6321	0.2461	0.2537	0.3085	0.3082	0.1148	0.3677	0.3679	32.6913	0.628	0.6325	1.4833	2.411	1.5718	1.3107	7.7436	10.9176	58.8013	144	1.3356999999999999	11.37360000000001	0.84
