
     Program PWSCF v.6.5 starts on 28May2020 at 17:15:29 

     This program is part of the open-source Quantum ESPRESSO suite
     for quantum simulation of materials; please cite
         "P. Giannozzi et al., J. Phys.:Condens. Matter 21 395502 (2009);
         "P. Giannozzi et al., J. Phys.:Condens. Matter 29 465901 (2017);
          URL http://www.quantum-espresso.org", 
     in publications or presentations arising from this work. More details at
     http://www.quantum-espresso.org/quote

     Parallel version (MPI), running on     8 processors

     MPI processes distributed on     1 nodes
     R & G space division:  proc/nbgrp/npool/nimage =       8
     Fft bands division:     nmany     =       1
     Reading input from scf.in
Warning: card &IONS ignored
Warning: card / ignored
Warning: card &CELL ignored
Warning: card / ignored

     Current dimensions of program PWSCF are:
     Max number of different atomic species (ntypx) = 10
     Max number of k-points (npk) =  40000
     Max angular momentum in pseudopotentials (lmaxx) =  3

     IMPORTANT: XC functional enforced from input :
     Exchange-correlation= BLYP
                           (   1   3   1   3   0   0   0)
     Any further DFT definition will be discarded
     Please, verify this is what you really want


     Subspace diagonalization in iterative solution of the eigenvalue problem:
     one sub-group per band group will be used
     scalapack distributed-memory algorithm (size of sub-group:  2*  2 procs)

     Message from routine setup:
     using ibrav=0 with symmetry is DISCOURAGED, use correct ibrav instead
 
     Parallelization info
     --------------------
     sticks:   dense  smooth     PW     G-vecs:    dense   smooth      PW
     Min         118     118     38                 1797     1797     326
     Max         119     119     39                 1798     1798     327
     Sum         951     951    305                14383    14383    2613
 


     bravais-lattice index     =            0
     lattice parameter (alat)  =       5.2968  a.u.
     unit-cell volume          =     229.4434 (a.u.)^3
     number of atoms/cell      =           24
     number of atomic types    =            1
     number of electrons       =        24.00
     number of Kohn-Sham states=           16
     kinetic-energy cutoff     =      60.0000  Ry
     charge density cutoff     =     240.0000  Ry
     convergence threshold     =      1.0E-12
     mixing beta               =       0.7000
     number of iterations used =            8  plain     mixing
     Exchange-correlation= BLYP
                           (   1   3   1   3   0   0   0)

     celldm(1)=   5.296788  celldm(2)=   0.000000  celldm(3)=   0.000000
     celldm(4)=   0.000000  celldm(5)=   0.000000  celldm(6)=   0.000000

     crystal axes: (cart. coord. in units of alat)
               a(1) = (   0.500712   0.011658  -0.865535 )  
               a(2) = (  -0.036342   1.780445   0.000000 )  
               a(3) = (   0.500712   0.011658   0.865535 )  

     reciprocal axes: (cart. coord. in units 2 pi/alat)
               b(1) = (  0.998104  0.020373 -0.577677 )  
               b(2) = ( -0.013070  0.561391  0.000000 )  
               b(3) = (  0.998104  0.020373  0.577677 )  


     PseudoPot. # 1 for H  read from file:
     ../pseudo/H.blyp-vbc.UPF
     MD5 check sum: 1a3a213f4d5cd54e5c4bfa2599a500cd
     Pseudo is Norm-conserving, Zval =  1.0
     Generated by new atomic code, or converted to UPF format
     Using radial grid of  243 points,  0 beta functions with: 

     atomic species   valence    mass     pseudopotential
        H              1.00     1.00800     H ( 1.00)

      4 Sym. Ops., with inversion, found ( 2 have fractional translation)


                                    s                        frac. trans.

      isym =  1     identity                                     

 cryst.   s( 1) = (     1          0          0      )
                  (     0          1          0      )
                  (     0          0          1      )

 cart.    s( 1) = (  1.0000000  0.0000000  0.0000000 )
                  ( -0.0000000  1.0000000  0.0000000 )
                  (  0.0000000  0.0000000  1.0000000 )


      isym =  2     180 deg rotation - cart. axis [0,0,1]        

 cryst.   s( 2) = (     0          0         -1      )    f =(  0.0000000 )
                  (     0         -1          0      )       ( -0.5000000 )
                  (    -1          0          0      )       (  0.0000000 )

 cart.    s( 2) = ( -1.0000000 -0.0000000  0.0000000 )    f =(  0.0181711 )
                  (  0.0000000 -1.0000000  0.0000000 )       ( -0.8902223 )
                  (  0.0000000  0.0000000  1.0000000 )       ( -0.0000000 )


      isym =  3     inversion                                    

 cryst.   s( 3) = (    -1          0          0      )
                  (     0         -1          0      )
                  (     0          0         -1      )

 cart.    s( 3) = ( -1.0000000 -0.0000000  0.0000000 )
                  (  0.0000000 -1.0000000  0.0000000 )
                  (  0.0000000 -0.0000000 -1.0000000 )


      isym =  4     inv. 180 deg rotation - cart. axis [0,0,1]   

 cryst.   s( 4) = (     0          0          1      )    f =(  0.0000000 )
                  (     0          1          0      )       ( -0.5000000 )
                  (     1          0          0      )       (  0.0000000 )

 cart.    s( 4) = (  1.0000000  0.0000000 -0.0000000 )    f =(  0.0181711 )
                  ( -0.0000000  1.0000000  0.0000000 )       ( -0.8902223 )
                  ( -0.0000000 -0.0000000 -1.0000000 )       ( -0.0000000 )


   Cartesian axes

     site n.     atom                  positions (alat units)
         1           H   tau(   1) = (   0.5620780   0.2358635  -0.1671688  )
         2           H   tau(   2) = (   0.4211750   0.6776740  -0.1671688  )
         3           H   tau(   3) = (   0.4030039   1.5678963   0.1671688  )
         4           H   tau(   4) = (   0.5439069   1.1260857   0.1671688  )
         5           H   tau(   5) = (   0.7114032   0.2402592   0.0462121  )
         6           H   tau(   6) = (   0.2718498   0.6732782   0.0462121  )
         7           H   tau(   7) = (   0.2536787   1.5635005  -0.0462121  )
         8           H   tau(   8) = (   0.6932321   1.1304815  -0.0462121  )
         9           H   tau(   9) = (   0.6794521   0.2113508   0.5157488  )
        10           H   tau(  10) = (   0.3038009   0.7021866   0.5157488  )
        11           H   tau(  11) = (   0.2856298   1.5924089  -0.5157488  )
        12           H   tau(  12) = (   0.6612810   1.1015731  -0.5157488  )
        13           H   tau(  13) = (   0.0629119   0.2181514  -0.1165128  )
        14           H   tau(  14) = (   0.9203411   0.6953861  -0.1165128  )
        15           H   tau(  15) = (   0.9021700   1.5856084   0.1165128  )
        16           H   tau(  16) = (   0.0447408   1.1083736   0.1165128  )
        17           H   tau(  17) = (   1.1046018   0.2761740   0.3074891  )
        18           H   tau(  18) = (  -0.1213488   0.6373635   0.3074891  )
        19           H   tau(  19) = (  -0.1395199   1.5275858  -0.3074891  )
        20           H   tau(  20) = (   1.0864307   1.1663962  -0.3074891  )
        21           H   tau(  21) = (   0.3626381   0.2354684   0.2824843  )
        22           H   tau(  22) = (   0.6206148   0.6780691   0.2824843  )
        23           H   tau(  23) = (   0.6024437   1.5682914  -0.2824843  )
        24           H   tau(  24) = (   0.3444670   1.1256906  -0.2824843  )

   Crystallographic axes

     site n.     atom                  positions (cryst. coord.)
         1           H   tau(   1) = (  0.6623870  0.1250650  0.4692478  )
         2           H   tau(   2) = (  0.5307522  0.3749350  0.3376130  )
         3           H   tau(   3) = (  0.3376130  0.8749350  0.5307522  )
         4           H   tau(   4) = (  0.4692478  0.6250650  0.6623870  )
         5           H   tau(   5) = (  0.6882533  0.1255810  0.7416446  )
         6           H   tau(   6) = (  0.2583554  0.3744190  0.3117467  )
         7           H   tau(   7) = (  0.3117467  0.8744190  0.2583554  )
         8           H   tau(   8) = (  0.7416446  0.6255810  0.6882533  )
         9           H   tau(   9) = (  0.3845332  0.1097697  0.9804058  )
        10           H   tau(  10) = (  0.0195942  0.3902303  0.6154668  )
        11           H   tau(  11) = (  0.6154668  0.8902303  0.0195942  )
        12           H   tau(  12) = (  0.9804058  0.6097697  0.3845332  )
        13           H   tau(  13) = (  0.1345438  0.1216459 -0.0000698  )
        14           H   tau(  14) = (  1.0000698  0.3783541  0.8654562  )
        15           H   tau(  15) = (  0.8654562  0.8783541  1.0000698  )
        16           H   tau(  16) = ( -0.0000698  0.6216459  0.1345438  )
        17           H   tau(  17) = (  0.9305042  0.1406040  1.2857630  )
        18           H   tau(  18) = ( -0.2857630  0.3593960  0.0694958  )
        19           H   tau(  19) = (  0.0694958  0.8593960 -0.2857630  )
        20           H   tau(  20) = (  1.2857630  0.6406040  0.9305042  )
        21           H   tau(  21) = (  0.2035629  0.1274499  0.5299324  )
        22           H   tau(  22) = (  0.4700676  0.3725501  0.7964371  )
        23           H   tau(  23) = (  0.7964371  0.8725501  0.4700676  )
        24           H   tau(  24) = (  0.5299324  0.6274499  0.2035629  )

     number of k points=   128  Marzari-Vanderbilt smearing, width (Ry)=  0.0300
                       cart. coord. in units 2pi/alat
        k(    1) = (   0.1863275   0.0389069   0.0361048), wk =   0.0156250
        k(    2) = (   0.4358535   0.0440002   0.1805241), wk =   0.0156250
        k(    3) = (  -0.3127243   0.0287203  -0.2527337), wk =   0.0156250
        k(    4) = (  -0.0631984   0.0338136  -0.1083145), wk =   0.0156250
        k(    5) = (   0.1846937   0.1090807   0.0361048), wk =   0.0156250
        k(    6) = (   0.4342197   0.1141740   0.1805241), wk =   0.0156250
        k(    7) = (  -0.3143581   0.0988941  -0.2527337), wk =   0.0156250
        k(    8) = (  -0.0648322   0.1039874  -0.1083145), wk =   0.0156250
        k(    9) = (   0.1830600   0.1792546   0.0361048), wk =   0.0156250
        k(   10) = (   0.4325859   0.1843478   0.1805241), wk =   0.0156250
        k(   11) = (  -0.3159919   0.1690680  -0.2527337), wk =   0.0156250
        k(   12) = (  -0.0664660   0.1741613  -0.1083145), wk =   0.0156250
        k(   13) = (   0.1814262   0.2494284   0.0361048), wk =   0.0156250
        k(   14) = (   0.4309521   0.2545217   0.1805241), wk =   0.0156250
        k(   15) = (  -0.3176257   0.2392418  -0.2527337), wk =   0.0156250
        k(   16) = (  -0.0680998   0.2443351  -0.1083145), wk =   0.0156250
        k(   17) = (   0.1928627  -0.2417885   0.0361048), wk =   0.0156250
        k(   18) = (   0.4423886  -0.2366952   0.1805241), wk =   0.0156250
        k(   19) = (  -0.3061891  -0.2519750  -0.2527337), wk =   0.0156250
        k(   20) = (  -0.0566632  -0.2468818  -0.1083145), wk =   0.0156250
        k(   21) = (   0.1912289  -0.1716146   0.0361048), wk =   0.0156250
        k(   22) = (   0.4407548  -0.1665213   0.1805241), wk =   0.0156250
        k(   23) = (  -0.3078229  -0.1818012  -0.2527337), wk =   0.0156250
        k(   24) = (  -0.0582970  -0.1767079  -0.1083145), wk =   0.0156250
        k(   25) = (   0.1895951  -0.1014408   0.0361048), wk =   0.0156250
        k(   26) = (   0.4391210  -0.0963475   0.1805241), wk =   0.0156250
        k(   27) = (  -0.3094567  -0.1116274  -0.2527337), wk =   0.0156250
        k(   28) = (  -0.0599308  -0.1065341  -0.1083145), wk =   0.0156250
        k(   29) = (   0.1879613  -0.0312670   0.0361048), wk =   0.0156250
        k(   30) = (   0.4374872  -0.0261737   0.1805241), wk =   0.0156250
        k(   31) = (  -0.3110905  -0.0414535  -0.2527337), wk =   0.0156250
        k(   32) = (  -0.0615646  -0.0363602  -0.1083145), wk =   0.0156250
        k(   33) = (   0.3110905   0.0414535  -0.0361048), wk =   0.0156250
        k(   34) = (   0.5606164   0.0465468   0.1083145), wk =   0.0156250
        k(   35) = (  -0.1879613   0.0312670  -0.3249434), wk =   0.0156250
        k(   36) = (   0.0615646   0.0363602  -0.1805241), wk =   0.0156250
        k(   37) = (   0.3094567   0.1116274  -0.0361048), wk =   0.0156250
        k(   38) = (   0.5589826   0.1167207   0.1083145), wk =   0.0156250
        k(   39) = (  -0.1895951   0.1014408  -0.3249434), wk =   0.0156250
        k(   40) = (   0.0599308   0.1065341  -0.1805241), wk =   0.0156250
        k(   41) = (   0.3078229   0.1818012  -0.0361048), wk =   0.0156250
        k(   42) = (   0.5573488   0.1868945   0.1083145), wk =   0.0156250
        k(   43) = (  -0.1912289   0.1716146  -0.3249434), wk =   0.0156250
        k(   44) = (   0.0582970   0.1767079  -0.1805241), wk =   0.0156250
        k(   45) = (   0.3061891   0.2519750  -0.0361048), wk =   0.0156250
        k(   46) = (   0.5557150   0.2570683   0.1083145), wk =   0.0156250
        k(   47) = (  -0.1928627   0.2417885  -0.3249434), wk =   0.0156250
        k(   48) = (   0.0566632   0.2468818  -0.1805241), wk =   0.0156250
        k(   49) = (   0.3176257  -0.2392418  -0.0361048), wk =   0.0156250
        k(   50) = (   0.5671516  -0.2341485   0.1083145), wk =   0.0156250
        k(   51) = (  -0.1814262  -0.2494284  -0.3249434), wk =   0.0156250
        k(   52) = (   0.0680998  -0.2443351  -0.1805241), wk =   0.0156250
        k(   53) = (   0.3159919  -0.1690680  -0.0361048), wk =   0.0156250
        k(   54) = (   0.5655178  -0.1639747   0.1083145), wk =   0.0156250
        k(   55) = (  -0.1830600  -0.1792546  -0.3249434), wk =   0.0156250
        k(   56) = (   0.0664660  -0.1741613  -0.1805241), wk =   0.0156250
        k(   57) = (   0.3143581  -0.0988941  -0.0361048), wk =   0.0156250
        k(   58) = (   0.5638840  -0.0938009   0.1083145), wk =   0.0156250
        k(   59) = (  -0.1846937  -0.1090807  -0.3249434), wk =   0.0156250
        k(   60) = (   0.0648322  -0.1039874  -0.1805241), wk =   0.0156250
        k(   61) = (   0.3127243  -0.0287203  -0.0361048), wk =   0.0156250
        k(   62) = (   0.5622502  -0.0236270   0.1083145), wk =   0.0156250
        k(   63) = (  -0.1863275  -0.0389069  -0.3249434), wk =   0.0156250
        k(   64) = (   0.0631984  -0.0338136  -0.1805241), wk =   0.0156250
        k(   65) = (   0.4358535   0.0440002  -0.1083145), wk =   0.0156250
        k(   66) = (   0.6853794   0.0490935   0.0361048), wk =   0.0156250
        k(   67) = (  -0.0631984   0.0338136  -0.3971530), wk =   0.0156250
        k(   68) = (   0.1863275   0.0389069  -0.2527337), wk =   0.0156250
        k(   69) = (   0.4342197   0.1141740  -0.1083145), wk =   0.0156250
        k(   70) = (   0.6837456   0.1192673   0.0361048), wk =   0.0156250
        k(   71) = (  -0.0648322   0.1039874  -0.3971530), wk =   0.0156250
        k(   72) = (   0.1846937   0.1090807  -0.2527337), wk =   0.0156250
        k(   73) = (   0.4325859   0.1843478  -0.1083145), wk =   0.0156250
        k(   74) = (   0.6821118   0.1894411   0.0361048), wk =   0.0156250
        k(   75) = (  -0.0664660   0.1741613  -0.3971530), wk =   0.0156250
        k(   76) = (   0.1830600   0.1792546  -0.2527337), wk =   0.0156250
        k(   77) = (   0.4309521   0.2545217  -0.1083145), wk =   0.0156250
        k(   78) = (   0.6804780   0.2596150   0.0361048), wk =   0.0156250
        k(   79) = (  -0.0680998   0.2443351  -0.3971530), wk =   0.0156250
        k(   80) = (   0.1814262   0.2494284  -0.2527337), wk =   0.0156250
        k(   81) = (   0.4423886  -0.2366952  -0.1083145), wk =   0.0156250
        k(   82) = (   0.6919145  -0.2316019   0.0361048), wk =   0.0156250
        k(   83) = (  -0.0566632  -0.2468818  -0.3971530), wk =   0.0156250
        k(   84) = (   0.1928627  -0.2417885  -0.2527337), wk =   0.0156250
        k(   85) = (   0.4407548  -0.1665213  -0.1083145), wk =   0.0156250
        k(   86) = (   0.6902807  -0.1614281   0.0361048), wk =   0.0156250
        k(   87) = (  -0.0582970  -0.1767079  -0.3971530), wk =   0.0156250
        k(   88) = (   0.1912289  -0.1716146  -0.2527337), wk =   0.0156250
        k(   89) = (   0.4391210  -0.0963475  -0.1083145), wk =   0.0156250
        k(   90) = (   0.6886470  -0.0912542   0.0361048), wk =   0.0156250
        k(   91) = (  -0.0599308  -0.1065341  -0.3971530), wk =   0.0156250
        k(   92) = (   0.1895951  -0.1014408  -0.2527337), wk =   0.0156250
        k(   93) = (   0.4374872  -0.0261737  -0.1083145), wk =   0.0156250
        k(   94) = (   0.6870132  -0.0210804   0.0361048), wk =   0.0156250
        k(   95) = (  -0.0615646  -0.0363602  -0.3971530), wk =   0.0156250
        k(   96) = (   0.1879613  -0.0312670  -0.2527337), wk =   0.0156250
        k(   97) = (   0.5606164   0.0465468  -0.1805241), wk =   0.0156250
        k(   98) = (   0.8101423   0.0516401  -0.0361048), wk =   0.0156250
        k(   99) = (   0.0615646   0.0363602  -0.4693626), wk =   0.0156250
        k(  100) = (   0.3110905   0.0414535  -0.3249434), wk =   0.0156250
        k(  101) = (   0.5589826   0.1167207  -0.1805241), wk =   0.0156250
        k(  102) = (   0.8085085   0.1218139  -0.0361048), wk =   0.0156250
        k(  103) = (   0.0599308   0.1065341  -0.4693626), wk =   0.0156250
        k(  104) = (   0.3094567   0.1116274  -0.3249434), wk =   0.0156250
        k(  105) = (   0.5573488   0.1868945  -0.1805241), wk =   0.0156250
        k(  106) = (   0.8068747   0.1919878  -0.0361048), wk =   0.0156250
        k(  107) = (   0.0582970   0.1767079  -0.4693626), wk =   0.0156250
        k(  108) = (   0.3078229   0.1818012  -0.3249434), wk =   0.0156250
        k(  109) = (   0.5557150   0.2570683  -0.1805241), wk =   0.0156250
        k(  110) = (   0.8052409   0.2621616  -0.0361048), wk =   0.0156250
        k(  111) = (   0.0566632   0.2468818  -0.4693626), wk =   0.0156250
        k(  112) = (   0.3061891   0.2519750  -0.3249434), wk =   0.0156250
        k(  113) = (   0.5671516  -0.2341485  -0.1805241), wk =   0.0156250
        k(  114) = (   0.8166775  -0.2290552  -0.0361048), wk =   0.0156250
        k(  115) = (   0.0680998  -0.2443351  -0.4693626), wk =   0.0156250
        k(  116) = (   0.3176257  -0.2392418  -0.3249434), wk =   0.0156250
        k(  117) = (   0.5655178  -0.1639747  -0.1805241), wk =   0.0156250
        k(  118) = (   0.8150437  -0.1588814  -0.0361048), wk =   0.0156250
        k(  119) = (   0.0664660  -0.1741613  -0.4693626), wk =   0.0156250
        k(  120) = (   0.3159919  -0.1690680  -0.3249434), wk =   0.0156250
        k(  121) = (   0.5638840  -0.0938009  -0.1805241), wk =   0.0156250
        k(  122) = (   0.8134099  -0.0887076  -0.0361048), wk =   0.0156250
        k(  123) = (   0.0648322  -0.1039874  -0.4693626), wk =   0.0156250
        k(  124) = (   0.3143581  -0.0988941  -0.3249434), wk =   0.0156250
        k(  125) = (   0.5622502  -0.0236270  -0.1805241), wk =   0.0156250
        k(  126) = (   0.8117761  -0.0185337  -0.0361048), wk =   0.0156250
        k(  127) = (   0.0631984  -0.0338136  -0.4693626), wk =   0.0156250
        k(  128) = (   0.3127243  -0.0287203  -0.3249434), wk =   0.0156250

                       cryst. coord.
        k(    1) = (   0.0625000   0.0625000   0.1250000), wk =   0.0156250
        k(    2) = (   0.0625000   0.0625000   0.3750000), wk =   0.0156250
        k(    3) = (   0.0625000   0.0625000  -0.3750000), wk =   0.0156250
        k(    4) = (   0.0625000   0.0625000  -0.1250000), wk =   0.0156250
        k(    5) = (   0.0625000   0.1875000   0.1250000), wk =   0.0156250
        k(    6) = (   0.0625000   0.1875000   0.3750000), wk =   0.0156250
        k(    7) = (   0.0625000   0.1875000  -0.3750000), wk =   0.0156250
        k(    8) = (   0.0625000   0.1875000  -0.1250000), wk =   0.0156250
        k(    9) = (   0.0625000   0.3125000   0.1250000), wk =   0.0156250
        k(   10) = (   0.0625000   0.3125000   0.3750000), wk =   0.0156250
        k(   11) = (   0.0625000   0.3125000  -0.3750000), wk =   0.0156250
        k(   12) = (   0.0625000   0.3125000  -0.1250000), wk =   0.0156250
        k(   13) = (   0.0625000   0.4375000   0.1250000), wk =   0.0156250
        k(   14) = (   0.0625000   0.4375000   0.3750000), wk =   0.0156250
        k(   15) = (   0.0625000   0.4375000  -0.3750000), wk =   0.0156250
        k(   16) = (   0.0625000   0.4375000  -0.1250000), wk =   0.0156250
        k(   17) = (   0.0625000  -0.4375000   0.1250000), wk =   0.0156250
        k(   18) = (   0.0625000  -0.4375000   0.3750000), wk =   0.0156250
        k(   19) = (   0.0625000  -0.4375000  -0.3750000), wk =   0.0156250
        k(   20) = (   0.0625000  -0.4375000  -0.1250000), wk =   0.0156250
        k(   21) = (   0.0625000  -0.3125000   0.1250000), wk =   0.0156250
        k(   22) = (   0.0625000  -0.3125000   0.3750000), wk =   0.0156250
        k(   23) = (   0.0625000  -0.3125000  -0.3750000), wk =   0.0156250
        k(   24) = (   0.0625000  -0.3125000  -0.1250000), wk =   0.0156250
        k(   25) = (   0.0625000  -0.1875000   0.1250000), wk =   0.0156250
        k(   26) = (   0.0625000  -0.1875000   0.3750000), wk =   0.0156250
        k(   27) = (   0.0625000  -0.1875000  -0.3750000), wk =   0.0156250
        k(   28) = (   0.0625000  -0.1875000  -0.1250000), wk =   0.0156250
        k(   29) = (   0.0625000  -0.0625000   0.1250000), wk =   0.0156250
        k(   30) = (   0.0625000  -0.0625000   0.3750000), wk =   0.0156250
        k(   31) = (   0.0625000  -0.0625000  -0.3750000), wk =   0.0156250
        k(   32) = (   0.0625000  -0.0625000  -0.1250000), wk =   0.0156250
        k(   33) = (   0.1875000   0.0625000   0.1250000), wk =   0.0156250
        k(   34) = (   0.1875000   0.0625000   0.3750000), wk =   0.0156250
        k(   35) = (   0.1875000   0.0625000  -0.3750000), wk =   0.0156250
        k(   36) = (   0.1875000   0.0625000  -0.1250000), wk =   0.0156250
        k(   37) = (   0.1875000   0.1875000   0.1250000), wk =   0.0156250
        k(   38) = (   0.1875000   0.1875000   0.3750000), wk =   0.0156250
        k(   39) = (   0.1875000   0.1875000  -0.3750000), wk =   0.0156250
        k(   40) = (   0.1875000   0.1875000  -0.1250000), wk =   0.0156250
        k(   41) = (   0.1875000   0.3125000   0.1250000), wk =   0.0156250
        k(   42) = (   0.1875000   0.3125000   0.3750000), wk =   0.0156250
        k(   43) = (   0.1875000   0.3125000  -0.3750000), wk =   0.0156250
        k(   44) = (   0.1875000   0.3125000  -0.1250000), wk =   0.0156250
        k(   45) = (   0.1875000   0.4375000   0.1250000), wk =   0.0156250
        k(   46) = (   0.1875000   0.4375000   0.3750000), wk =   0.0156250
        k(   47) = (   0.1875000   0.4375000  -0.3750000), wk =   0.0156250
        k(   48) = (   0.1875000   0.4375000  -0.1250000), wk =   0.0156250
        k(   49) = (   0.1875000  -0.4375000   0.1250000), wk =   0.0156250
        k(   50) = (   0.1875000  -0.4375000   0.3750000), wk =   0.0156250
        k(   51) = (   0.1875000  -0.4375000  -0.3750000), wk =   0.0156250
        k(   52) = (   0.1875000  -0.4375000  -0.1250000), wk =   0.0156250
        k(   53) = (   0.1875000  -0.3125000   0.1250000), wk =   0.0156250
        k(   54) = (   0.1875000  -0.3125000   0.3750000), wk =   0.0156250
        k(   55) = (   0.1875000  -0.3125000  -0.3750000), wk =   0.0156250
        k(   56) = (   0.1875000  -0.3125000  -0.1250000), wk =   0.0156250
        k(   57) = (   0.1875000  -0.1875000   0.1250000), wk =   0.0156250
        k(   58) = (   0.1875000  -0.1875000   0.3750000), wk =   0.0156250
        k(   59) = (   0.1875000  -0.1875000  -0.3750000), wk =   0.0156250
        k(   60) = (   0.1875000  -0.1875000  -0.1250000), wk =   0.0156250
        k(   61) = (   0.1875000  -0.0625000   0.1250000), wk =   0.0156250
        k(   62) = (   0.1875000  -0.0625000   0.3750000), wk =   0.0156250
        k(   63) = (   0.1875000  -0.0625000  -0.3750000), wk =   0.0156250
        k(   64) = (   0.1875000  -0.0625000  -0.1250000), wk =   0.0156250
        k(   65) = (   0.3125000   0.0625000   0.1250000), wk =   0.0156250
        k(   66) = (   0.3125000   0.0625000   0.3750000), wk =   0.0156250
        k(   67) = (   0.3125000   0.0625000  -0.3750000), wk =   0.0156250
        k(   68) = (   0.3125000   0.0625000  -0.1250000), wk =   0.0156250
        k(   69) = (   0.3125000   0.1875000   0.1250000), wk =   0.0156250
        k(   70) = (   0.3125000   0.1875000   0.3750000), wk =   0.0156250
        k(   71) = (   0.3125000   0.1875000  -0.3750000), wk =   0.0156250
        k(   72) = (   0.3125000   0.1875000  -0.1250000), wk =   0.0156250
        k(   73) = (   0.3125000   0.3125000   0.1250000), wk =   0.0156250
        k(   74) = (   0.3125000   0.3125000   0.3750000), wk =   0.0156250
        k(   75) = (   0.3125000   0.3125000  -0.3750000), wk =   0.0156250
        k(   76) = (   0.3125000   0.3125000  -0.1250000), wk =   0.0156250
        k(   77) = (   0.3125000   0.4375000   0.1250000), wk =   0.0156250
        k(   78) = (   0.3125000   0.4375000   0.3750000), wk =   0.0156250
        k(   79) = (   0.3125000   0.4375000  -0.3750000), wk =   0.0156250
        k(   80) = (   0.3125000   0.4375000  -0.1250000), wk =   0.0156250
        k(   81) = (   0.3125000  -0.4375000   0.1250000), wk =   0.0156250
        k(   82) = (   0.3125000  -0.4375000   0.3750000), wk =   0.0156250
        k(   83) = (   0.3125000  -0.4375000  -0.3750000), wk =   0.0156250
        k(   84) = (   0.3125000  -0.4375000  -0.1250000), wk =   0.0156250
        k(   85) = (   0.3125000  -0.3125000   0.1250000), wk =   0.0156250
        k(   86) = (   0.3125000  -0.3125000   0.3750000), wk =   0.0156250
        k(   87) = (   0.3125000  -0.3125000  -0.3750000), wk =   0.0156250
        k(   88) = (   0.3125000  -0.3125000  -0.1250000), wk =   0.0156250
        k(   89) = (   0.3125000  -0.1875000   0.1250000), wk =   0.0156250
        k(   90) = (   0.3125000  -0.1875000   0.3750000), wk =   0.0156250
        k(   91) = (   0.3125000  -0.1875000  -0.3750000), wk =   0.0156250
        k(   92) = (   0.3125000  -0.1875000  -0.1250000), wk =   0.0156250
        k(   93) = (   0.3125000  -0.0625000   0.1250000), wk =   0.0156250
        k(   94) = (   0.3125000  -0.0625000   0.3750000), wk =   0.0156250
        k(   95) = (   0.3125000  -0.0625000  -0.3750000), wk =   0.0156250
        k(   96) = (   0.3125000  -0.0625000  -0.1250000), wk =   0.0156250
        k(   97) = (   0.4375000   0.0625000   0.1250000), wk =   0.0156250
        k(   98) = (   0.4375000   0.0625000   0.3750000), wk =   0.0156250
        k(   99) = (   0.4375000   0.0625000  -0.3750000), wk =   0.0156250
        k(  100) = (   0.4375000   0.0625000  -0.1250000), wk =   0.0156250
        k(  101) = (   0.4375000   0.1875000   0.1250000), wk =   0.0156250
        k(  102) = (   0.4375000   0.1875000   0.3750000), wk =   0.0156250
        k(  103) = (   0.4375000   0.1875000  -0.3750000), wk =   0.0156250
        k(  104) = (   0.4375000   0.1875000  -0.1250000), wk =   0.0156250
        k(  105) = (   0.4375000   0.3125000   0.1250000), wk =   0.0156250
        k(  106) = (   0.4375000   0.3125000   0.3750000), wk =   0.0156250
        k(  107) = (   0.4375000   0.3125000  -0.3750000), wk =   0.0156250
        k(  108) = (   0.4375000   0.3125000  -0.1250000), wk =   0.0156250
        k(  109) = (   0.4375000   0.4375000   0.1250000), wk =   0.0156250
        k(  110) = (   0.4375000   0.4375000   0.3750000), wk =   0.0156250
        k(  111) = (   0.4375000   0.4375000  -0.3750000), wk =   0.0156250
        k(  112) = (   0.4375000   0.4375000  -0.1250000), wk =   0.0156250
        k(  113) = (   0.4375000  -0.4375000   0.1250000), wk =   0.0156250
        k(  114) = (   0.4375000  -0.4375000   0.3750000), wk =   0.0156250
        k(  115) = (   0.4375000  -0.4375000  -0.3750000), wk =   0.0156250
        k(  116) = (   0.4375000  -0.4375000  -0.1250000), wk =   0.0156250
        k(  117) = (   0.4375000  -0.3125000   0.1250000), wk =   0.0156250
        k(  118) = (   0.4375000  -0.3125000   0.3750000), wk =   0.0156250
        k(  119) = (   0.4375000  -0.3125000  -0.3750000), wk =   0.0156250
        k(  120) = (   0.4375000  -0.3125000  -0.1250000), wk =   0.0156250
        k(  121) = (   0.4375000  -0.1875000   0.1250000), wk =   0.0156250
        k(  122) = (   0.4375000  -0.1875000   0.3750000), wk =   0.0156250
        k(  123) = (   0.4375000  -0.1875000  -0.3750000), wk =   0.0156250
        k(  124) = (   0.4375000  -0.1875000  -0.1250000), wk =   0.0156250
        k(  125) = (   0.4375000  -0.0625000   0.1250000), wk =   0.0156250
        k(  126) = (   0.4375000  -0.0625000   0.3750000), wk =   0.0156250
        k(  127) = (   0.4375000  -0.0625000  -0.3750000), wk =   0.0156250
        k(  128) = (   0.4375000  -0.0625000  -0.1250000), wk =   0.0156250

     Dense  grid:    14383 G-vectors     FFT dimensions: (  27,  48,  27)

     Dynamical RAM for                 wfc:       0.05 MB

     Dynamical RAM for     wfc (w. buffer):       7.09 MB

     Dynamical RAM for           str. fact:       0.03 MB

     Dynamical RAM for           local pot:       0.00 MB

     Dynamical RAM for          nlocal pot:       0.00 MB

     Dynamical RAM for          rho,v,vnew:       0.20 MB

     Dynamical RAM for               rhoin:       0.07 MB

     Dynamical RAM for            rho*nmix:       0.44 MB

     Dynamical RAM for           G-vectors:       0.12 MB

     Dynamical RAM for          h,s,v(r/c):       0.05 MB

     Dynamical RAM for          <psi|beta>:       0.00 MB

     Dynamical RAM for                 psi:       0.22 MB

     Dynamical RAM for                hpsi:       0.22 MB

     Dynamical RAM for      wfcinit/wfcrot:       0.18 MB

     Estimated static dynamical RAM per process >       8.19 MB

     Estimated max dynamical RAM per process >       8.68 MB

     Estimated total dynamical RAM >      69.41 MB

     Initial potential from superposition of free atoms

     starting charge   23.99974, renormalised to   24.00000
     Starting wfcs are   24 randomized atomic wfcs

     total cpu time spent up to now is        0.6 secs

     Self-consistent Calculation

     iteration #  1     ecut=    60.00 Ry     beta= 0.70
     Davidson diagonalization with overlap
     ethr =  1.00E-02,  avg # of iterations =  3.2

     total cpu time spent up to now is        2.1 secs

     total energy              =     -24.53084345 Ry
     estimated scf accuracy    <       0.45039581 Ry

     iteration #  2     ecut=    60.00 Ry     beta= 0.70
     Davidson diagonalization with overlap
     ethr =  1.88E-03,  avg # of iterations =  1.0

     total cpu time spent up to now is        2.9 secs

     total energy              =     -24.53390713 Ry
     estimated scf accuracy    <       0.03439972 Ry

     iteration #  3     ecut=    60.00 Ry     beta= 0.70
     Davidson diagonalization with overlap
     ethr =  1.43E-04,  avg # of iterations =  2.6

     total cpu time spent up to now is        4.0 secs

     total energy              =     -24.53450941 Ry
     estimated scf accuracy    <       0.00005655 Ry

     iteration #  4     ecut=    60.00 Ry     beta= 0.70
     Davidson diagonalization with overlap
     ethr =  2.36E-07,  avg # of iterations =  4.2

     total cpu time spent up to now is        5.8 secs

     total energy              =     -24.53453878 Ry
     estimated scf accuracy    <       0.00000475 Ry

     iteration #  5     ecut=    60.00 Ry     beta= 0.70
     Davidson diagonalization with overlap
     ethr =  1.98E-08,  avg # of iterations =  1.4

     total cpu time spent up to now is        6.7 secs

     total energy              =     -24.53453925 Ry
     estimated scf accuracy    <       0.00000021 Ry

     iteration #  6     ecut=    60.00 Ry     beta= 0.70
     Davidson diagonalization with overlap
     ethr =  8.63E-10,  avg # of iterations =  1.9

     total cpu time spent up to now is        7.7 secs

     total energy              =     -24.53453927 Ry
     estimated scf accuracy    <          2.1E-09 Ry

     iteration #  7     ecut=    60.00 Ry     beta= 0.70
     Davidson diagonalization with overlap
     ethr =  8.93E-12,  avg # of iterations =  2.0

     total cpu time spent up to now is        8.8 secs

     total energy              =     -24.53453927 Ry
     estimated scf accuracy    <          9.0E-12 Ry

     iteration #  8     ecut=    60.00 Ry     beta= 0.70
     Davidson diagonalization with overlap
     ethr =  1.00E-13,  avg # of iterations =  2.0

     total cpu time spent up to now is        9.9 secs

     End of self-consistent calculation

          k = 0.1863 0.0389 0.0361 (  1815 PWs)   bands (ev):

   -14.6735  -9.6921  -8.3442   1.9946   2.8688   3.4183   6.0388   6.9749
     7.1554   7.8097   8.1762   9.7868  15.0399  15.6139  16.2255  16.6510

     occupation numbers 
     1.0000   1.0000   1.0000   1.0000   1.0000   1.0000   1.0000   1.0000
     1.0000   1.0000   1.0000   1.0770   0.0000   0.0000   0.0000   0.0000

          k = 0.4359 0.0440 0.1805 (  1796 PWs)   bands (ev):

   -11.1978  -6.6402  -6.1611  -4.9640  -1.8582  -0.3389   0.9409   4.7322
     5.1514   5.9018   6.2445   9.4102  13.0207  14.2273  19.3330  20.2768

     occupation numbers 
     1.0000   1.0000   1.0000   1.0000   1.0000   1.0000   1.0000   1.0000
     1.0000   1.0000   1.0000   1.0100   0.0000   0.0000   0.0000   0.0000

          k =-0.3127 0.0287-0.2527 (  1800 PWs)   bands (ev):

   -12.3462  -7.4484  -6.0083  -4.6774   0.1486   1.1629   1.3527   4.9784
     5.2798   5.4873   6.3530  10.3721  13.3243  14.7567  19.0204  19.4300

     occupation numbers 
     1.0000   1.0000   1.0000   1.0000   1.0000   1.0000   1.0000   1.0000
     1.0000   1.0000   1.0000   0.5126   0.0000   0.0000   0.0000   0.0000

          k =-0.0632 0.0338-0.1083 (  1819 PWs)   bands (ev):

   -15.0582 -10.1006  -8.6958   2.5290   4.4025   4.4803   7.5175   7.8979
     8.3148   8.6566   8.8647   9.0734  14.1243  14.1851  15.6737  15.9538

     occupation numbers 
     1.0000   1.0000   1.0000   1.0000   1.0000   1.0000   1.0000   1.0000
     1.0000   1.0000   1.0000   1.0003   0.0000   0.0000   0.0000   0.0000

          k = 0.1847 0.1091 0.0361 (  1814 PWs)   bands (ev):

   -14.4967 -10.9225  -6.8075   1.9167   2.1799   3.5921   5.1075   6.2141
     7.3858   8.4751   8.6807   9.9734  14.9029  15.7026  16.0521  17.0984

     occupation numbers 
     1.0000   1.0000   1.0000   1.0000   1.0000   1.0000   1.0000   1.0000
     1.0000   1.0000   1.0000   1.0593   0.0000   0.0000   0.0000   0.0000

          k = 0.4342 0.1142 0.1805 (  1797 PWs)   bands (ev):

   -11.0259  -7.4660  -6.3752  -3.4592  -3.0235   0.9739   1.2838   3.8975
     5.2635   5.3041   6.4265   8.7095  12.8211  15.1834  18.4804  21.3263

     occupation numbers 
     1.0000   1.0000   1.0000   1.0000   1.0000   1.0000   1.0000   1.0000
     1.0000   1.0000   1.0000   1.0000   0.0000   0.0000   0.0000   0.0000

          k =-0.3144 0.0989-0.2527 (  1802 PWs)   bands (ev):

   -12.1639  -8.6627  -4.6689  -4.3202  -1.0128   1.4785   2.3724   4.2415
     4.4931   5.5949   6.8088  10.0314  13.0837  15.4771  18.7180  20.0711

     occupation numbers 
     1.0000   1.0000   1.0000   1.0000   1.0000   1.0000   1.0000   1.0000
     1.0000   1.0000   1.0000   1.0241   0.0000   0.0000   0.0000   0.0000

          k =-0.0648 0.1040-0.1083 (  1817 PWs)   bands (ev):

   -14.8781 -11.3280  -7.1514   1.5289   4.5248   4.6171   7.1415   7.6231
     7.8326   8.6590   9.3382   9.4239  14.1687  14.3144  15.1614  15.6114

     occupation numbers 
     1.0000   1.0000   1.0000   1.0000   1.0000   1.0000   1.0000   1.0000
     1.0000   1.0000   1.0053   1.0112   0.0000   0.0000   0.0000   0.0000

          k = 0.1831 0.1793 0.0361 (  1808 PWs)   bands (ev):

   -14.1411 -11.9848  -5.1356   0.3611   2.5185   3.8506   4.3249   5.4733
     7.5876   8.4571   9.5086  10.1645  14.9687  15.4937  16.1264  16.9579

     occupation numbers 
     1.0000   1.0000   1.0000   1.0000   1.0000   1.0000   1.0000   1.0000
     1.0000   1.0000   1.0210   0.8744   0.0000   0.0000   0.0000   0.0000

          k = 0.4326 0.1843 0.1805 (  1792 PWs)   bands (ev):

   -10.6762  -8.5112  -6.0276  -4.0373  -1.8335   1.4123   2.7477   3.0517
     3.8396   5.4925   6.5201   7.5040  13.2836  16.4009  17.1745  20.6425

     occupation numbers 
     1.0000   1.0000   1.0000   1.0000   1.0000   1.0000   1.0000   1.0000
     1.0000   1.0000   1.0000   1.0000   0.0000   0.0000   0.0000   0.0000

          k =-0.3160 0.1691-0.2527 (  1799 PWs)   bands (ev):

   -11.8034  -9.7113  -4.2236  -2.7640  -2.0370   1.8014   2.1715   3.5356
     4.5677   5.8142   6.8813   9.0997  13.4979  16.4222  17.5277  20.3723

     occupation numbers 
     1.0000   1.0000   1.0000   1.0000   1.0000   1.0000   1.0000   1.0000
     1.0000   1.0000   1.0000   1.0004   0.0000   0.0000   0.0000   0.0000

          k =-0.0665 0.1742-0.1083 (  1815 PWs)   bands (ev):

   -14.5189 -12.3870  -5.4712  -0.0519   4.7855   4.8927   6.5022   6.8663
     7.8587   8.8217   9.5364   9.8352  14.1420  14.3780  14.8999  15.4051

     occupation numbers 
     1.0000   1.0000   1.0000   1.0000   1.0000   1.0000   1.0000   1.0000
     1.0000   1.0000   1.0253   1.0826   0.0000   0.0000   0.0000   0.0000

          k = 0.1814 0.2494 0.0361 (  1803 PWs)   bands (ev):

   -13.6072 -12.8746  -3.3568  -1.4409   3.0084   3.4440   4.4742   4.8208
     7.8269   8.2394  10.0551  10.1465  15.1115  15.1851  16.4731  16.8516

     occupation numbers 
     1.0000   1.0000   1.0000   1.0000   1.0000   1.0000   1.0000   1.0000
     1.0000   1.0000   1.0044   0.9000   0.0000   0.0000   0.0000   0.0000

          k = 0.4310 0.2545 0.1805 (  1798 PWs)   bands (ev):

   -10.1506  -9.3960  -5.4980  -4.8900  -0.1328   1.8352   1.9173   2.5129
     4.4456   5.7932   6.0153   6.2933  14.3384  15.7119  17.8350  19.2169

     occupation numbers 
     1.0000   1.0000   1.0000   1.0000   1.0000   1.0000   1.0000   1.0000
     1.0000   1.0000   1.0000   1.0000   0.0000   0.0000   0.0000   0.0000

          k =-0.3176 0.2392-0.2527 (  1806 PWs)   bands (ev):

   -11.2665 -10.5901  -3.7090  -2.9057  -1.0013   0.5912   2.2832   2.8081
     5.8730   6.1617   6.6317   7.7449  14.5012  16.1557  17.5149  19.5497

     occupation numbers 
     1.0000   1.0000   1.0000   1.0000   1.0000   1.0000   1.0000   1.0000
     1.0000   1.0000   1.0000   1.0000   0.0000   0.0000   0.0000   0.0000

          k =-0.0681 0.2443-0.1083 (  1807 PWs)   bands (ev):

   -13.9816 -13.2745  -3.6819  -1.8603   5.1750   5.2615   5.8777   6.2140
     7.8936   8.9821   9.5717  10.0865  14.1041  14.3838  14.8252  15.3589

     occupation numbers 
     1.0000   1.0000   1.0000   1.0000   1.0000   1.0000   1.0000   1.0000
     1.0000   1.0001   1.0315   0.9736   0.0000   0.0000   0.0000   0.0000

          k = 0.1929-0.2418 0.0361 (  1805 PWs)   bands (ev):

   -13.5899 -12.8967  -3.2861  -1.5212   2.8564   3.6238   4.2986   5.0840
     7.9525   8.0567   9.7750  10.2859  14.8602  15.3847  16.5579  16.8382

     occupation numbers 
     1.0000   1.0000   1.0000   1.0000   1.0000   1.0000   1.0000   1.0000
     1.0000   1.0000   1.0751   0.6710   0.0000   0.0000   0.0000   0.0000

          k = 0.4424-0.2367 0.1805 (  1793 PWs)   bands (ev):

   -10.1094  -9.4494  -5.5746  -4.7926   0.1059   1.5102   1.8363   2.5509
     4.5057   5.8973   6.0148   6.2433  14.3912  15.7521  17.6900  19.3189

     occupation numbers 
     1.0000   1.0000   1.0000   1.0000   1.0000   1.0000   1.0000   1.0000
     1.0000   1.0000   1.0000   1.0000   0.0000   0.0000   0.0000   0.0000

          k =-0.3062-0.2520-0.2527 (  1804 PWs)   bands (ev):

   -11.2953 -10.5519  -3.6063  -3.0328  -1.1716   0.8138   2.1989   2.9141
     6.0762   6.3586   6.4188   7.3958  14.8958  15.8579  18.0690  18.7016

     occupation numbers 
     1.0000   1.0000   1.0000   1.0000   1.0000   1.0000   1.0000   1.0000
     1.0000   1.0000   1.0000   1.0000   0.0000   0.0000   0.0000   0.0000

          k =-0.0567-0.2469-0.1083 (  1808 PWs)   bands (ev):

   -13.9874 -13.2670  -3.7052  -1.8339   5.2813   5.3601   5.7141   6.0859
     7.9046   8.9404   9.6659  10.1521  14.0708  14.3366  14.8878  15.4673

     occupation numbers 
     1.0000   1.0000   1.0000   1.0000   1.0000   1.0000   1.0000   1.0000
     1.0000   1.0000   1.0516   0.8922   0.0000   0.0000   0.0000   0.0000

          k = 0.1912-0.1716 0.0361 (  1810 PWs)   bands (ev):

   -14.1282 -12.0116  -5.0738   0.2750   2.4091   3.7581   4.5295   5.8133
     7.6740   8.1875   9.1305  10.1939  14.7115  15.7417  16.2856  16.8526

     occupation numbers 
     1.0000   1.0000   1.0000   1.0000   1.0000   1.0000   1.0000   1.0000
     1.0000   1.0000   1.0006   0.8297   0.0000   0.0000   0.0000   0.0000

          k = 0.4408-0.1665 0.1805 (  1788 PWs)   bands (ev):

   -10.6462  -8.5757  -6.0901  -3.9176  -1.6423   1.3505   2.1068   3.3156
     4.0005   5.5777   6.3216   7.6489  13.4669  16.1936  17.2643  20.7255

     occupation numbers 
     1.0000   1.0000   1.0000   1.0000   1.0000   1.0000   1.0000   1.0000
     1.0000   1.0000   1.0000   1.0000   0.0000   0.0000   0.0000   0.0000

          k =-0.3078-0.1818-0.2527 (  1797 PWs)   bands (ev):

   -11.8242  -9.6645  -4.1368  -2.9107  -2.1940   1.7285   2.5664   3.6825
     4.5718   5.9481   6.6093   8.6603  14.0529  16.6351  17.2914  19.6276

     occupation numbers 
     1.0000   1.0000   1.0000   1.0000   1.0000   1.0000   1.0000   1.0000
     1.0000   1.0000   1.0000   1.0000   0.0000   0.0000   0.0000   0.0000

          k =-0.0583-0.1767-0.1083 (  1812 PWs)   bands (ev):

   -14.5229 -12.3785  -5.4913  -0.0229   4.8760   4.9719   6.3031   6.6354
     7.8999   8.7444   9.7617  10.0210  14.0373  14.2409  15.0893  15.7177

     occupation numbers 
     1.0000   1.0000   1.0000   1.0000   1.0000   1.0000   1.0000   1.0000
     1.0000   1.0000   1.0727   1.0317   0.0000   0.0000   0.0000   0.0000

          k = 0.1896-0.1014 0.0361 (  1812 PWs)   bands (ev):

   -14.4890 -10.9547  -6.7545   1.8417   2.1121   3.5127   5.3959   6.6216
     7.4345   8.0762   8.3190   9.9610  14.8223  15.8276  16.3110  16.7702

     occupation numbers 
     1.0000   1.0000   1.0000   1.0000   1.0000   1.0000   1.0000   1.0000
     1.0000   1.0000   1.0000   1.0646   0.0000   0.0000   0.0000   0.0000

          k = 0.4391-0.0963 0.1805 (  1795 PWs)   bands (ev):

   -11.0080  -7.5337  -6.4333  -3.3007  -2.8757   0.7834   1.1262   4.1763
     5.0695   5.3231   6.3040   8.8217  13.1626  14.8679  18.5885  21.4808

     occupation numbers 
     1.0000   1.0000   1.0000   1.0000   1.0000   1.0000   1.0000   1.0000
     1.0000   1.0000   1.0000   1.0000   0.0000   0.0000   0.0000   0.0000

          k =-0.3095-0.1116-0.2527 (  1798 PWs)   bands (ev):

   -12.1763  -8.6064  -4.5654  -4.4863  -1.2012   1.4023   3.0021   4.0422
     4.6208   5.6856   6.5096   9.5921  13.8021  15.3175  18.5149  20.0287

     occupation numbers 
     1.0000   1.0000   1.0000   1.0000   1.0000   1.0000   1.0000   1.0000
     1.0000   1.0000   1.0000   1.0355   0.0000   0.0000   0.0000   0.0000

          k =-0.0599-0.1065-0.1083 (  1816 PWs)   bands (ev):

   -14.8806 -11.3176  -7.1689   1.5555   4.5808   4.6634   6.9304   7.3006
     7.9383   8.5524   9.6324   9.6891  14.0262  14.1611  15.4133  16.0797

     occupation numbers 
     1.0000   1.0000   1.0000   1.0000   1.0000   1.0000   1.0000   1.0000
     1.0000   1.0000   1.0440   1.0569   0.0000   0.0000   0.0000   0.0000

          k = 0.1880-0.0313 0.0361 (  1822 PWs)   bands (ev):

   -14.6711  -9.7309  -8.2996   1.9729   2.8347   3.3914   6.3216   7.0311
     7.3601   7.6570   7.7654   9.7868  15.2075  15.3927  16.4269  16.6073

     occupation numbers 
     1.0000   1.0000   1.0000   1.0000   1.0000   1.0000   1.0000   1.0000
     1.0000   1.0000   1.0000   1.0770   0.0000   0.0000   0.0000   0.0000

          k = 0.4375-0.0262 0.1805 (  1796 PWs)   bands (ev):

   -11.1919  -6.6076  -6.3249  -4.8228  -1.6797  -0.5601   0.9254   5.0371
     5.2167   5.3770   6.3683   9.4475  13.4258  13.8473  19.3896  20.2914

     occupation numbers 
     1.0000   1.0000   1.0000   1.0000   1.0000   1.0000   1.0000   1.0000
     1.0000   1.0000   1.0000   1.0134   0.0000   0.0000   0.0000   0.0000

          k =-0.3111-0.0415-0.2527 (  1801 PWs)   bands (ev):

   -12.3504  -7.3837  -6.0763  -4.6759  -0.0676   1.1440   1.6652   4.9200
     5.4218   5.6437   6.0597  10.1735  13.8760  14.4207  18.9996  19.4477

     occupation numbers 
     1.0000   1.0000   1.0000   1.0000   1.0000   1.0000   1.0000   1.0000
     1.0000   1.0000   1.0000   0.8612   0.0000   0.0000   0.0000   0.0000

          k =-0.0616-0.0364-0.1083 (  1815 PWs)   bands (ev):

   -15.0589 -10.0877  -8.7104   2.5406   4.4218   4.4955   7.4139   7.8086
     8.2465   8.4394   9.1919   9.2464  14.0405  14.1398  15.8271  16.3486

     occupation numbers 
     1.0000   1.0000   1.0000   1.0000   1.0000   1.0000   1.0000   1.0000
     1.0000   1.0000   1.0012   1.0022   0.0000   0.0000   0.0000   0.0000

          k = 0.3111 0.0415-0.0361 (  1808 PWs)   bands (ev):

   -13.5136  -8.5300  -7.2176  -1.3011   0.1849   2.9299   3.9032   4.6130
     4.8370   5.8495   8.2224  10.1136  15.6980  17.2973  17.3978  18.0102

     occupation numbers 
     1.0000   1.0000   1.0000   1.0000   1.0000   1.0000   1.0000   1.0000
     1.0000   1.0000   1.0000   0.9427   0.0000   0.0000   0.0000   0.0000

          k = 0.5606 0.0465 0.1083 (  1797 PWs)   bands (ev):

    -9.2805  -7.7317  -4.3267  -3.2036  -3.1117  -2.8775  -1.4388   1.3934
     2.8260   7.8145   8.6843   8.8927  16.4074  17.0145  17.5992  21.8204

     occupation numbers 
     1.0000   1.0000   1.0000   1.0000   1.0000   1.0000   1.0000   1.0000
     1.0000   1.0000   1.0000   1.0000   0.0000   0.0000   0.0000   0.0000

          k =-0.1880 0.0313-0.3249 (  1804 PWs)   bands (ev):

   -12.7299  -7.8128  -6.3894  -2.0817  -2.0096   2.4955   2.7329   3.3041
     3.8257   5.1869   9.3823   9.7795  17.1710  17.4839  17.6129  17.9764

     occupation numbers 
     1.0000   1.0000   1.0000   1.0000   1.0000   1.0000   1.0000   1.0000
     1.0000   1.0000   1.0079   1.0759   0.0000   0.0000   0.0000   0.0000

          k = 0.0616 0.0364-0.1805 (  1818 PWs)   bands (ev):

   -14.6703  -9.7026  -8.3270   2.0250   2.8707   3.3979   6.2656   6.8148
     7.0606   7.7849   8.2975   9.6890  14.9254  15.4457  16.0247  16.7406

     occupation numbers 
     1.0000   1.0000   1.0000   1.0000   1.0000   1.0000   1.0000   1.0000
     1.0000   1.0000   1.0000   1.0569   0.0000   0.0000   0.0000   0.0000

          k = 0.3095 0.1116-0.0361 (  1807 PWs)   bands (ev):

   -13.3388  -9.7589  -5.6900  -1.1184   0.3624   1.9609   2.9444   3.6782
     5.9319   6.9233   8.2697   9.9834  15.1078  17.0670  17.4297  17.7448

     occupation numbers 
     1.0000   1.0000   1.0000   1.0000   1.0000   1.0000   1.0000   1.0000
     1.0000   1.0000   1.0000   1.0545   0.0000   0.0000   0.0000   0.0000

          k = 0.5590 0.1167 0.1083 (  1796 PWs)   bands (ev):

    -9.1107  -7.5533  -5.5252  -4.1338  -2.9555  -1.6401   0.0514   0.2896
     4.1490   6.9438   8.0706   8.6013  15.4486  16.2758  18.6382  21.9154

     occupation numbers 
     1.0000   1.0000   1.0000   1.0000   1.0000   1.0000   1.0000   1.0000
     1.0000   1.0000   1.0000   1.0000   0.0000   0.0000   0.0000   0.0000

          k =-0.1896 0.1014-0.3249 (  1807 PWs)   bands (ev):

   -12.5490  -9.0307  -4.8595  -1.9212  -1.8395   1.4082   1.5950   3.3349
     5.0821   5.5116   9.2890   9.7090  16.4037  16.7467  16.9457  17.5845

     occupation numbers 
     1.0000   1.0000   1.0000   1.0000   1.0000   1.0000   1.0000   1.0000
     1.0000   1.0000   1.0033   1.0615   0.0000   0.0000   0.0000   0.0000

          k = 0.0599 0.1065-0.1805 (  1816 PWs)   bands (ev):

   -14.4919 -10.9307  -6.7875   1.9018   2.1853   3.5654   5.3410   6.1497
     7.2256   8.5151   8.7703   9.8248  14.6993  15.4758  15.9178  17.4092

     occupation numbers 
     1.0000   1.0000   1.0000   1.0000   1.0000   1.0000   1.0000   1.0000
     1.0000   1.0000   1.0000   1.0818   0.0000   0.0000   0.0000   0.0000

          k = 0.3078 0.1818-0.0361 (  1806 PWs)   bands (ev):

   -12.9856 -10.8206  -4.0314  -0.7673   0.6635   1.0193   1.5934   2.6018
     7.2028   7.8053   8.3624   9.6918  14.8077  16.5072  16.8131  16.9508

     occupation numbers 
     1.0000   1.0000   1.0000   1.0000   1.0000   1.0000   1.0000   1.0000
     1.0000   1.0000   1.0000   1.0576   0.0000   0.0000   0.0000   0.0000

          k = 0.5573 0.1869 0.1083 (  1796 PWs)   bands (ev):

    -8.7654  -7.2194  -6.5502  -5.1520  -2.6140  -0.6834  -0.0620   1.6589
     5.3193   5.5782   6.8654   8.3042  14.7370  15.3181  19.5640  22.0660

     occupation numbers 
     1.0000   1.0000   1.0000   1.0000   1.0000   1.0000   1.0000   1.0000
     1.0000   1.0000   1.0000   1.0000   0.0000   0.0000   0.0000   0.0000

          k =-0.1912 0.1716-0.3249 (  1804 PWs)   bands (ev):

   -12.1899 -10.0823  -3.2061  -1.5894  -1.4980   0.4410   0.6005   2.0275
     6.3266   6.6348   9.0242   9.4660  15.7023  15.9037  16.0701  17.1439

     occupation numbers 
     1.0000   1.0000   1.0000   1.0000   1.0000   1.0000   1.0000   1.0000
     1.0000   1.0000   1.0002   1.0155   0.0000   0.0000   0.0000   0.0000

          k = 0.0583 0.1767-0.1805 (  1806 PWs)   bands (ev):

   -14.1344 -11.9911  -5.1125   0.3379   2.5037   3.8158   4.5447   5.4178
     7.4007   8.8410   9.3183   9.9771  14.9159  15.4629  15.6114  17.3006

     occupation numbers 
     1.0000   1.0000   1.0000   1.0000   1.0000   1.0000   1.0000   1.0000
     1.0000   1.0000   1.0044   1.0576   0.0000   0.0000   0.0000   0.0000

          k = 0.3062 0.2520-0.0361 (  1804 PWs)   bands (ev):

   -12.4555 -11.7107  -2.2713  -0.3816  -0.2523   0.3448   1.2656   1.7840
     8.1211   8.2897   8.6320   9.1453  15.0197  15.7270  16.4405  16.5212

     occupation numbers 
     1.0000   1.0000   1.0000   1.0000   1.0000   1.0000   1.0000   1.0000
     1.0000   1.0000   1.0000   1.0007   0.0000   0.0000   0.0000   0.0000

          k = 0.5557 0.2571 0.1083 (  1793 PWs)   bands (ev):

    -8.2447  -7.4985  -6.6211  -6.0107  -2.0970  -1.5075   1.5280   3.2966
     3.8225   5.0572   6.9599   7.7267  14.3929  14.6326  20.3697  21.5567

     occupation numbers 
     1.0000   1.0000   1.0000   1.0000   1.0000   1.0000   1.0000   1.0000
     1.0000   1.0000   1.0000   1.0000   0.0000   0.0000   0.0000   0.0000

          k =-0.1929 0.2418-0.3249 (  1805 PWs)   bands (ev):

   -11.6537 -10.9640  -1.5270  -1.0825  -0.9560  -0.3887  -0.2108   0.3239
     7.4634   7.8157   8.4908   8.8968  15.1963  15.3437  15.5682  16.8800

     occupation numbers 
     1.0000   1.0000   1.0000   1.0000   1.0000   1.0000   1.0000   1.0000
     1.0000   1.0000   1.0000   1.0000   0.0000   0.0000   0.0000   0.0000

          k = 0.0567 0.2469-0.1805 (  1804 PWs)   bands (ev):

   -13.5994 -12.8798  -3.3304  -1.4638   2.9769   3.5489   4.5248   4.7655
     7.5973   8.6349   9.8599  10.0326  15.2359  15.3917  15.5069  17.1470

     occupation numbers 
     1.0000   1.0000   1.0000   1.0000   1.0000   1.0000   1.0000   1.0000
     1.0000   1.0000   1.0833   1.0231   0.0000   0.0000   0.0000   0.0000

          k = 0.3176-0.2392-0.0361 (  1806 PWs)   bands (ev):

   -12.4263 -11.7485  -2.1595  -0.4639  -0.3382   0.4079   1.1616   1.9172
     8.0277   8.1387   8.5737   9.3586  15.1597  15.7868  16.3807  16.5824

     occupation numbers 
     1.0000   1.0000   1.0000   1.0000   1.0000   1.0000   1.0000   1.0000
     1.0000   1.0000   1.0000   1.0064   0.0000   0.0000   0.0000   0.0000

          k = 0.5672-0.2341 0.1083 (  1795 PWs)   bands (ev):

    -8.1939  -7.5510  -6.7014  -5.9318  -2.1745  -1.4125   1.9835   2.4779
     4.1330   5.0336   6.8879   7.8773  14.4396  14.5617  20.7170  21.1138

     occupation numbers 
     1.0000   1.0000   1.0000   1.0000   1.0000   1.0000   1.0000   1.0000
     1.0000   1.0000   1.0000   1.0000   0.0000   0.0000   0.0000   0.0000

          k =-0.1814-0.2494-0.3249 (  1805 PWs)   bands (ev):

   -11.6712 -10.9407  -1.5295  -1.0503  -0.9821  -0.5046  -0.2777   0.5024
     7.5339   7.9251   8.4201   8.7898  15.1320  15.2929  15.6250  16.8945

     occupation numbers 
     1.0000   1.0000   1.0000   1.0000   1.0000   1.0000   1.0000   1.0000
     1.0000   1.0000   1.0000   1.0000   0.0000   0.0000   0.0000   0.0000

          k = 0.0681-0.2443-0.1805 (  1806 PWs)   bands (ev):

   -13.5933 -12.8870  -3.3069  -1.4909   2.9710   3.5944   4.2034   5.1132
     7.7784   8.3207   9.7622  10.1515  14.9731  15.4829  15.9188  16.8920

     occupation numbers 
     1.0000   1.0000   1.0000   1.0000   1.0000   1.0000   1.0000   1.0000
     1.0000   1.0000   1.0727   0.8930   0.0000   0.0000   0.0000   0.0000

          k = 0.3160-0.1691-0.0361 (  1813 PWs)   bands (ev):

   -12.9651 -10.8678  -3.9292  -0.8328   0.6069   1.2710   1.3352   2.7278
     7.0070   7.5570   8.4457   9.8414  15.0973  16.5279  16.9257  17.0551

     occupation numbers 
     1.0000   1.0000   1.0000   1.0000   1.0000   1.0000   1.0000   1.0000
     1.0000   1.0000   1.0000   1.0829   0.0000   0.0000   0.0000   0.0000

          k = 0.5655-0.1640 0.1083 (  1795 PWs)   bands (ev):

    -8.7278  -7.2215  -6.6848  -5.0598  -2.6773  -0.5673   0.2528   1.3542
     4.6467   6.0555   6.8931   8.4503  14.7585  15.2510  19.8008  21.7276

     occupation numbers 
     1.0000   1.0000   1.0000   1.0000   1.0000   1.0000   1.0000   1.0000
     1.0000   1.0000   1.0000   1.0000   0.0000   0.0000   0.0000   0.0000

          k =-0.1831-0.1793-0.3249 (  1803 PWs)   bands (ev):

   -12.2024 -10.0534  -3.2603  -1.5516  -1.4898   0.3192   0.5294   2.2395
     6.4037   6.6840   8.9657   9.3886  15.5579  15.7696  16.1770  17.1887

     occupation numbers 
     1.0000   1.0000   1.0000   1.0000   1.0000   1.0000   1.0000   1.0000
     1.0000   1.0000   1.0001   1.0083   0.0000   0.0000   0.0000   0.0000

          k = 0.0665-0.1742-0.1805 (  1812 PWs)   bands (ev):

   -14.1302 -12.0003  -5.0919   0.3086   2.5045   3.7774   4.3532   5.8442
     7.8094   8.0959   9.2179  10.0764  14.8491  15.7111  16.1744  16.5388

     occupation numbers 
     1.0000   1.0000   1.0000   1.0000   1.0000   1.0000   1.0000   1.0000
     1.0000   1.0000   1.0016   0.9841   0.0000   0.0000   0.0000   0.0000

          k = 0.3144-0.0989-0.0361 (  1805 PWs)   bands (ev):

   -13.3262  -9.8150  -5.6001  -1.1580   0.3159   2.2822   2.7487   3.6739
     5.7956   6.7266   8.3244  10.0655  15.4605  16.9512  17.5282  18.0424

     occupation numbers 
     1.0000   1.0000   1.0000   1.0000   1.0000   1.0000   1.0000   1.0000
     1.0000   1.0000   1.0000   0.9948   0.0000   0.0000   0.0000   0.0000

          k = 0.5639-0.0938 0.1083 (  1797 PWs)   bands (ev):

    -9.0884  -7.5662  -5.6538  -4.0250  -3.0137  -1.3849  -0.1545   0.4351
     3.8218   7.0234   8.1174   8.6977  15.4649  16.2367  18.7257  22.1704

     occupation numbers 
     1.0000   1.0000   1.0000   1.0000   1.0000   1.0000   1.0000   1.0000
     1.0000   1.0000   1.0000   1.0000   0.0000   0.0000   0.0000   0.0000

          k =-0.1847-0.1091-0.3249 (  1807 PWs)   bands (ev):

   -12.5565  -8.9961  -4.9125  -1.8959  -1.8338   1.2649   1.5041   3.6989
     5.2167   5.3406   9.2499   9.6693  16.2794  16.5404  17.0057  17.6635

     occupation numbers 
     1.0000   1.0000   1.0000   1.0000   1.0000   1.0000   1.0000   1.0000
     1.0000   1.0000   1.0022   1.0524   0.0000   0.0000   0.0000   0.0000

          k = 0.0648-0.1040-0.1805 (  1814 PWs)   bands (ev):

   -14.4895 -10.9421  -6.7694   1.8756   2.1861   3.5023   5.2086   6.6692
     7.6351   7.9748   8.3878   9.8411  14.9601  15.9988  16.2237  16.2329

     occupation numbers 
     1.0000   1.0000   1.0000   1.0000   1.0000   1.0000   1.0000   1.0000
     1.0000   1.0000   1.0000   1.0829   0.0000   0.0000   0.0000   0.0000

          k = 0.3127-0.0287-0.0361 (  1809 PWs)   bands (ev):

   -13.5095  -8.5962  -7.1401  -1.3145   0.1696   3.3861   3.4618   4.6916
     4.7375   5.7821   8.2401  10.1392  16.0167  16.8292  17.4864  18.1809

     occupation numbers 
     1.0000   1.0000   1.0000   1.0000   1.0000   1.0000   1.0000   1.0000
     1.0000   1.0000   1.0000   0.9100   0.0000   0.0000   0.0000   0.0000

          k = 0.5623-0.0236 0.1083 (  1798 PWs)   bands (ev):

    -9.2727  -7.7363  -4.4617  -3.2880  -2.8975  -2.7191  -1.5996   1.5725
     2.5970   7.8198   8.7138   8.9179  16.4436  16.9980  17.5821  22.0009

     occupation numbers 
     1.0000   1.0000   1.0000   1.0000   1.0000   1.0000   1.0000   1.0000
     1.0000   1.0000   1.0000   1.0000   0.0000   0.0000   0.0000   0.0000

          k =-0.1863-0.0389-0.3249 (  1804 PWs)   bands (ev):

   -12.7325  -7.7724  -6.4363  -2.0729  -2.0075   2.3089   2.6130   3.6247
     3.9905   5.0398   9.3677   9.7681  17.1235  17.2254  17.6440  17.9940

     occupation numbers 
     1.0000   1.0000   1.0000   1.0000   1.0000   1.0000   1.0000   1.0000
     1.0000   1.0000   1.0069   1.0738   0.0000   0.0000   0.0000   0.0000

          k = 0.0632-0.0338-0.1805 (  1819 PWs)   bands (ev):

   -14.6695  -9.7155  -8.3119   2.0248   2.8594   3.3747   6.0987   7.3599
     7.4870   7.5495   7.6849   9.6765  15.2371  15.4793  16.1048  16.4692

     occupation numbers 
     1.0000   1.0000   1.0000   1.0000   1.0000   1.0000   1.0000   1.0000
     1.0000   1.0000   1.0000   1.0540   0.0000   0.0000   0.0000   0.0000

          k = 0.4359 0.0440-0.1083 (  1795 PWs)   bands (ev):

   -11.5846  -6.6236  -5.4238  -5.3352  -1.0015  -0.6774   0.7844   3.3394
     4.7695   5.9380   7.3218  10.0544  14.6991  16.1099  18.0908  19.7710

     occupation numbers 
     1.0000   1.0000   1.0000   1.0000   1.0000   1.0000   1.0000   1.0000
     1.0000   1.0000   1.0000   1.0051   0.0000   0.0000   0.0000   0.0000

          k = 0.6854 0.0491 0.0361 (  1789 PWs)   bands (ev):

    -8.1104  -6.6169  -6.5696  -3.2866  -1.8461  -1.8060  -1.6423  -0.5839
    -0.3518   8.5868   9.4097   9.4714  17.8102  18.0681  19.8095  22.1272

     occupation numbers 
     1.0000   1.0000   1.0000   1.0000   1.0000   1.0000   1.0000   1.0000
     1.0000   1.0000   1.0099   1.0161   0.0000   0.0000   0.0000   0.0000

          k =-0.0632 0.0338-0.3972 (  1798 PWs)   bands (ev):

   -12.3410  -7.4155  -6.0254  -4.6461   0.0791   1.0795   1.5560   4.9494
     5.5093   5.5175   6.0193  10.1125  13.8852  14.3325  19.0002  19.2764

     occupation numbers 
     1.0000   1.0000   1.0000   1.0000   1.0000   1.0000   1.0000   1.0000
     1.0000   1.0000   1.0000   0.9440   0.0000   0.0000   0.0000   0.0000

          k = 0.1863 0.0389-0.2527 (  1808 PWs)   bands (ev):

   -13.5081  -8.5386  -7.1975  -1.3070   0.1952   2.9048   4.0330   4.6269
     4.8410   5.7145   8.2844  10.0014  16.1620  16.7270  17.5354  17.8467

     occupation numbers 
     1.0000   1.0000   1.0000   1.0000   1.0000   1.0000   1.0000   1.0000
     1.0000   1.0000   1.0000   1.0445   0.0000   0.0000   0.0000   0.0000

          k = 0.4342 0.1142-0.1083 (  1799 PWs)   bands (ev):

   -11.4122  -7.8374  -5.2455  -3.8329  -1.9237  -0.7231   2.2350   2.3409
     4.9479   5.8922   7.3646   9.4326  13.9438  17.0853  17.3432  20.2151

     occupation numbers 
     1.0000   1.0000   1.0000   1.0000   1.0000   1.0000   1.0000   1.0000
     1.0000   1.0000   1.0000   1.0120   0.0000   0.0000   0.0000   0.0000

          k = 0.6837 0.1193 0.0361 (  1791 PWs)   bands (ev):

    -7.9297  -6.4499  -6.3942  -4.4733  -2.9795  -2.8509  -0.3427   0.8266
     1.1131   7.7893   8.7530   8.8312  17.3579  17.8476  19.2448  21.6090

     occupation numbers 
     1.0000   1.0000   1.0000   1.0000   1.0000   1.0000   1.0000   1.0000
     1.0000   1.0000   1.0000   1.0000   0.0000   0.0000   0.0000   0.0000

          k =-0.0648 0.1040-0.3972 (  1799 PWs)   bands (ev):

   -12.1619  -8.6334  -4.5965  -4.3744  -1.0781   1.3379   2.7367   4.2135
     4.6174   5.6710   6.4265   9.5900  13.9132  15.0739  18.4930  20.1355

     occupation numbers 
     1.0000   1.0000   1.0000   1.0000   1.0000   1.0000   1.0000   1.0000
     1.0000   1.0000   1.0000   1.0351   0.0000   0.0000   0.0000   0.0000

          k = 0.1847 0.1091-0.2527 (  1807 PWs)   bands (ev):

   -13.3316  -9.7657  -5.6671  -1.1227   0.3591   1.9230   3.0432   3.6982
     6.0150   6.6988   8.3892   9.8071  15.6278  16.8501  17.3320  17.4525

     occupation numbers 
     1.0000   1.0000   1.0000   1.0000   1.0000   1.0000   1.0000   1.0000
     1.0000   1.0000   1.0000   1.0799   0.0000   0.0000   0.0000   0.0000

          k = 0.4326 0.1843-0.1083 (  1800 PWs)   bands (ev):

   -11.0624  -8.8931  -4.8904  -2.9194  -2.2008  -0.3840   1.4213   3.3543
     3.8579   6.8091   7.4326   8.3434  13.6054  16.0309  18.1949  20.4476

     occupation numbers 
     1.0000   1.0000   1.0000   1.0000   1.0000   1.0000   1.0000   1.0000
     1.0000   1.0000   1.0000   1.0000   0.0000   0.0000   0.0000   0.0000

          k = 0.6821 0.1894 0.0361 (  1797 PWs)   bands (ev):

    -7.5748  -6.1120  -6.0567  -5.4895  -3.9989  -3.8863   1.2596   2.2703
     2.6730   6.4999   7.6268   7.6408  16.9233  17.7791  18.7293  21.0307

     occupation numbers 
     1.0000   1.0000   1.0000   1.0000   1.0000   1.0000   1.0000   1.0000
     1.0000   1.0000   1.0000   1.0000   0.0000   0.0000   0.0000   0.0000

          k =-0.0665 0.1742-0.3972 (  1798 PWs)   bands (ev):

   -11.8046  -9.6861  -4.1444  -2.8205  -2.0881   1.6513   2.3774   3.7174
     4.6102   5.9507   6.5203   8.7217  14.0205  16.4591  17.2637  19.6833

     occupation numbers 
     1.0000   1.0000   1.0000   1.0000   1.0000   1.0000   1.0000   1.0000
     1.0000   1.0000   1.0000   1.0000   0.0000   0.0000   0.0000   0.0000

          k = 0.1831 0.1793-0.2527 (  1810 PWs)   bands (ev):

   -12.9769 -10.8253  -4.0054  -0.7706   0.6805   0.9537   1.5839   2.7120
     7.3253   7.5345   8.5250   9.5035  15.2663  16.2744  16.5088  16.9566

     occupation numbers 
     1.0000   1.0000   1.0000   1.0000   1.0000   1.0000   1.0000   1.0000
     1.0000   1.0000   1.0000   1.0203   0.0000   0.0000   0.0000   0.0000

          k = 0.4310 0.2545-0.1083 (  1797 PWs)   bands (ev):

   -10.5359  -9.7800  -4.3607  -3.7631  -0.4848   0.1253   0.6138   1.6466
     5.4244   6.8263   7.4152   7.5227  13.8882  14.8459  19.0441  19.6627

     occupation numbers 
     1.0000   1.0000   1.0000   1.0000   1.0000   1.0000   1.0000   1.0000
     1.0000   1.0000   1.0000   1.0000   0.0000   0.0000   0.0000   0.0000

          k = 0.6805 0.2596 0.0361 (  1797 PWs)   bands (ev):

    -7.0490  -6.3890  -5.5944  -5.5269  -4.8523  -4.7337   2.8923   3.3683
     4.1997   5.2896   6.1240   6.4174  16.7028  17.8809  18.4280  20.6208

     occupation numbers 
     1.0000   1.0000   1.0000   1.0000   1.0000   1.0000   1.0000   1.0000
     1.0000   1.0000   1.0000   1.0000   0.0000   0.0000   0.0000   0.0000

          k =-0.0681 0.2443-0.3972 (  1807 PWs)   bands (ev):

   -11.2709 -10.5679  -3.6212  -2.9407  -1.0687   0.6979   2.1091   2.9429
     6.0864   6.2930   6.3536   7.4894  14.7701  15.8204  17.9302  18.7103

     occupation numbers 
     1.0000   1.0000   1.0000   1.0000   1.0000   1.0000   1.0000   1.0000
     1.0000   1.0000   1.0000   1.0000   0.0000   0.0000   0.0000   0.0000

          k = 0.1814 0.2494-0.2527 (  1806 PWs)   bands (ev):

   -12.4451 -11.7138  -2.2418  -0.3985  -0.2542   0.3473   1.1799   1.9044
     8.0102   8.4226   8.7047   8.9977  15.2696  15.5583  15.9270  16.7017

     occupation numbers 
     1.0000   1.0000   1.0000   1.0000   1.0000   1.0000   1.0000   1.0000
     1.0000   1.0000   1.0000   1.0001   0.0000   0.0000   0.0000   0.0000

          k = 0.4424-0.2367-0.1083 (  1802 PWs)   bands (ev):

   -10.4949  -9.8347  -4.4427  -3.6606  -0.3530   0.1506   0.7956   1.2281
     5.3793   6.9696   7.2673   7.6221  14.0203  14.8070  18.8222  19.7846

     occupation numbers 
     1.0000   1.0000   1.0000   1.0000   1.0000   1.0000   1.0000   1.0000
     1.0000   1.0000   1.0000   1.0000   0.0000   0.0000   0.0000   0.0000

          k = 0.6919-0.2316 0.0361 (  1800 PWs)   bands (ev):

    -7.0757  -6.3682  -5.5660  -5.4813  -4.9101  -4.7470   2.6168   3.7129
     4.4223   4.9771   6.1066   6.4525  16.6924  17.7765  18.7320  20.3536

     occupation numbers 
     1.0000   1.0000   1.0000   1.0000   1.0000   1.0000   1.0000   1.0000
     1.0000   1.0000   1.0000   1.0000   0.0000   0.0000   0.0000   0.0000

          k =-0.0567-0.2469-0.3972 (  1806 PWs)   bands (ev):

   -11.2768 -10.5601  -3.6278  -2.9323  -1.0927   0.7211   2.2970   2.7119
     5.8303   6.1993   6.7138   7.6193  14.4329  15.9478  17.5983  19.3688

     occupation numbers 
     1.0000   1.0000   1.0000   1.0000   1.0000   1.0000   1.0000   1.0000
     1.0000   1.0000   1.0000   1.0000   0.0000   0.0000   0.0000   0.0000

          k = 0.1929-0.2418-0.2527 (  1808 PWs)   bands (ev):

   -12.4278 -11.7364  -2.1773  -0.4309  -0.3475   0.3920   1.2861   1.8206
     7.8976   8.3641   8.4618   9.4788  14.7358  15.8996  16.0363  16.7561

     occupation numbers 
     1.0000   1.0000   1.0000   1.0000   1.0000   1.0000   1.0000   1.0000
     1.0000   1.0000   1.0000   1.0170   0.0000   0.0000   0.0000   0.0000

          k = 0.4408-0.1665-0.1083 (  1798 PWs)   bands (ev):

   -11.0328  -8.9601  -4.9554  -2.7931  -2.0244  -0.4251   1.6146   2.5154
     4.2076   6.6915   7.5479   8.4433  13.8310  16.0647  17.8817  20.5005

     occupation numbers 
     1.0000   1.0000   1.0000   1.0000   1.0000   1.0000   1.0000   1.0000
     1.0000   1.0000   1.0000   1.0000   0.0000   0.0000   0.0000   0.0000

          k = 0.6903-0.1614 0.0361 (  1794 PWs)   bands (ev):

    -7.5952  -6.0933  -6.0762  -5.3937  -4.0608  -3.9066   1.0782   2.4282
     2.7764   6.4627   7.5483   7.6749  16.8901  17.7018  19.4257  20.1920

     occupation numbers 
     1.0000   1.0000   1.0000   1.0000   1.0000   1.0000   1.0000   1.0000
     1.0000   1.0000   1.0000   1.0000   0.0000   0.0000   0.0000   0.0000

          k =-0.0583-0.1767-0.3972 (  1800 PWs)   bands (ev):

   -11.8089  -9.6760  -4.1489  -2.8423  -2.0790   1.7948   2.3938   3.4393
     4.5159   5.7793   6.9783   8.9597  13.3558  16.5370  17.2697  20.2853

     occupation numbers 
     1.0000   1.0000   1.0000   1.0000   1.0000   1.0000   1.0000   1.0000
     1.0000   1.0000   1.0000   1.0001   0.0000   0.0000   0.0000   0.0000

          k = 0.1912-0.1716-0.2527 (  1814 PWs)   bands (ev):

   -12.9649 -10.8536  -3.9449  -0.8429   0.6376   1.2961   1.4089   2.6129
     6.9222   7.8045   8.3371   9.9769  14.5624  16.3734  16.8940  17.1363

     occupation numbers 
     1.0000   1.0000   1.0000   1.0000   1.0000   1.0000   1.0000   1.0000
     1.0000   1.0000   1.0000   1.0577   0.0000   0.0000   0.0000   0.0000

          k = 0.4391-0.0963-0.1083 (  1801 PWs)   bands (ev):

   -11.3942  -7.9159  -5.3010  -3.6722  -1.7702  -0.7504   1.8536   2.5713
     4.6042   6.0285   7.4309   9.5125  14.2601  16.7764  17.3485  20.3643

     occupation numbers 
     1.0000   1.0000   1.0000   1.0000   1.0000   1.0000   1.0000   1.0000
     1.0000   1.0000   1.0000   1.0216   0.0000   0.0000   0.0000   0.0000

          k = 0.6886-0.0913 0.0361 (  1787 PWs)   bands (ev):

    -7.9420  -6.4305  -6.4030  -4.3876  -3.0493  -2.8783  -0.4822   0.9377
     1.1840   7.8056   8.7312   8.7981  17.2969  17.8552  20.1441  20.3123

     occupation numbers 
     1.0000   1.0000   1.0000   1.0000   1.0000   1.0000   1.0000   1.0000
     1.0000   1.0000   1.0000   1.0000   0.0000   0.0000   0.0000   0.0000

          k =-0.0599-0.1065-0.3972 (  1798 PWs)   bands (ev):

   -12.1644  -8.6218  -4.6063  -4.3854  -1.0710   1.4592   2.6692   3.9959
     4.5189   5.5660   6.9017   9.9036  12.8674  15.6214  18.4549  20.0578

     occupation numbers 
     1.0000   1.0000   1.0000   1.0000   1.0000   1.0000   1.0000   1.0000
     1.0000   1.0000   1.0000   1.0801   0.0000   0.0000   0.0000   0.0000

          k = 0.1896-0.1014-0.2527 (  1809 PWs)   bands (ev):

   -13.3241  -9.7988  -5.6136  -1.1667   0.3553   2.3181   2.7838   3.5421
     5.7570   6.9198   8.2638  10.1438  14.9213  16.9923  17.4955  17.9026

     occupation numbers 
     1.0000   1.0000   1.0000   1.0000   1.0000   1.0000   1.0000   1.0000
     1.0000   1.0000   1.0000   0.9038   0.0000   0.0000   0.0000   0.0000

          k = 0.4375-0.0262-0.1083 (  1794 PWs)   bands (ev):

   -11.5781  -6.7074  -5.5318  -5.1348  -0.9812  -0.5158   0.5347   3.6391
     4.3147   6.0782   7.3438  10.0820  15.0879  15.7032  18.1287  19.8082

     occupation numbers 
     1.0000   1.0000   1.0000   1.0000   1.0000   1.0000   1.0000   1.0000
     1.0000   1.0000   1.0000   0.9783   0.0000   0.0000   0.0000   0.0000

          k = 0.6870-0.0211 0.0361 (  1787 PWs)   bands (ev):

    -8.1143  -6.6101  -6.5725  -3.1902  -1.9513  -1.8842  -1.6902  -0.4928
    -0.2994   8.5993   9.4268   9.4300  17.7540  18.1095  20.1420  21.2804

     occupation numbers 
     1.0000   1.0000   1.0000   1.0000   1.0000   1.0000   1.0000   1.0000
     1.0000   1.0000   1.0114   1.0117   0.0000   0.0000   0.0000   0.0000

          k =-0.0616-0.0364-0.3972 (  1799 PWs)   bands (ev):

   -12.3418  -7.4015  -6.0414  -4.6474   0.0700   1.2879   1.3720   4.7748
     5.3878   5.4942   6.3754  10.2753  13.0944  14.9076  18.9645  19.2215

     occupation numbers 
     1.0000   1.0000   1.0000   1.0000   1.0000   1.0000   1.0000   1.0000
     1.0000   1.0000   1.0000   0.6902   0.0000   0.0000   0.0000   0.0000

          k = 0.1880-0.0313-0.2527 (  1811 PWs)   bands (ev):

   -13.5057  -8.5785  -7.1507  -1.3215   0.1959   3.3964   3.5210   4.4388
     4.8495   5.8932   8.2408  10.1216  15.6484  17.1259  17.4384  17.8591

     occupation numbers 
     1.0000   1.0000   1.0000   1.0000   1.0000   1.0000   1.0000   1.0000
     1.0000   1.0000   1.0000   0.9329   0.0000   0.0000   0.0000   0.0000

          k = 0.5606 0.0465-0.1805 (  1791 PWs)   bands (ev):

    -8.9052  -8.8705  -4.0651  -3.9342  -2.7478  -2.5765  -1.2525   3.0564
     4.3828   6.9870   8.0531   8.0906  14.3637  15.6052  17.9328  22.3543

     occupation numbers 
     1.0000   1.0000   1.0000   1.0000   1.0000   1.0000   1.0000   1.0000
     1.0000   1.0000   1.0000   1.0000   0.0000   0.0000   0.0000   0.0000

          k = 0.8101 0.0516-0.0361 (  1796 PWs)   bands (ev):

    -9.2578  -7.7158  -4.3905  -3.3060  -2.9019  -2.8736  -1.4549   1.6202
     2.4915   7.7761   8.7444   8.9029  16.3320  16.8427  17.6904  21.6902

     occupation numbers 
     1.0000   1.0000   1.0000   1.0000   1.0000   1.0000   1.0000   1.0000
     1.0000   1.0000   1.0000   1.0000   0.0000   0.0000   0.0000   0.0000

          k = 0.0616 0.0364-0.4694 (  1795 PWs)   bands (ev):

   -11.1818  -6.6003  -6.2221  -4.8891  -1.7411  -0.4264   0.9052   4.6700
     5.1123   5.9314   6.2493   9.4380  12.7431  14.3091  19.2019  20.2078

     occupation numbers 
     1.0000   1.0000   1.0000   1.0000   1.0000   1.0000   1.0000   1.0000
     1.0000   1.0000   1.0000   1.0125   0.0000   0.0000   0.0000   0.0000

          k = 0.3111 0.0415-0.3249 (  1796 PWs)   bands (ev):

   -11.5764  -6.6310  -5.4303  -5.3147  -0.9479  -0.7735   0.8196   3.5730
     4.4872   5.9436   7.3517  10.0347  14.9739  15.8861  18.0735  19.6898

     occupation numbers 
     1.0000   1.0000   1.0000   1.0000   1.0000   1.0000   1.0000   1.0000
     1.0000   1.0000   1.0000   1.0214   0.0000   0.0000   0.0000   0.0000

          k = 0.5590 0.1167-0.1805 (  1793 PWs)   bands (ev):

    -8.7330  -8.6916  -5.2565  -5.1431  -1.2891  -1.1997  -0.9379   2.0279
     5.4532   7.0086   7.2514   7.2691  13.5603  16.7505  17.1007  22.7815

     occupation numbers 
     1.0000   1.0000   1.0000   1.0000   1.0000   1.0000   1.0000   1.0000
     1.0000   1.0000   1.0000   1.0000   0.0000   0.0000   0.0000   0.0000

          k = 0.8085 0.1218-0.0361 (  1798 PWs)   bands (ev):

    -9.0783  -7.5389  -5.5892  -4.0757  -3.0729  -1.4531   0.0142   0.4701
     3.7020   6.9602   8.1163   8.7537  15.3547  16.0804  18.9724  21.4846

     occupation numbers 
     1.0000   1.0000   1.0000   1.0000   1.0000   1.0000   1.0000   1.0000
     1.0000   1.0000   1.0000   1.0000   0.0000   0.0000   0.0000   0.0000

          k = 0.0599 0.1065-0.4694 (  1796 PWs)   bands (ev):

   -11.0052  -7.4794  -6.3829  -3.3755  -2.9215   1.0051   1.0917   3.8327
     5.1675   5.2934   6.5620   8.8334  12.5130  15.1598  18.3795  21.2957

     occupation numbers 
     1.0000   1.0000   1.0000   1.0000   1.0000   1.0000   1.0000   1.0000
     1.0000   1.0000   1.0000   1.0000   0.0000   0.0000   0.0000   0.0000

          k = 0.3095 0.1116-0.3249 (  1799 PWs)   bands (ev):

   -11.4028  -7.8425  -5.2520  -3.8080  -1.9367  -0.7616   2.2706   2.5312
     4.7621   5.7769   7.4471   9.3613  14.2338  17.0732  17.2760  19.8041

     occupation numbers 
     1.0000   1.0000   1.0000   1.0000   1.0000   1.0000   1.0000   1.0000
     1.0000   1.0000   1.0000   1.0065   0.0000   0.0000   0.0000   0.0000

          k = 0.5573 0.1869-0.1805 (  1794 PWs)   bands (ev):

    -8.3864  -8.3373  -6.2885  -6.1894  -0.7695   0.2843   0.5921   1.1018
     5.5896   5.8328   6.6663   7.1203  13.2169  15.8042  18.0531  22.3850

     occupation numbers 
     1.0000   1.0000   1.0000   1.0000   1.0000   1.0000   1.0000   1.0000
     1.0000   1.0000   1.0000   1.0000   0.0000   0.0000   0.0000   0.0000

          k = 0.8069 0.1920-0.0361 (  1797 PWs)   bands (ev):

    -8.7226  -7.1979  -6.6154  -5.1050  -2.7351  -0.5489   0.1640   1.5873
     4.5510   5.8238   7.0091   8.5310  14.6444  15.0984  20.2636  21.0763

     occupation numbers 
     1.0000   1.0000   1.0000   1.0000   1.0000   1.0000   1.0000   1.0000
     1.0000   1.0000   1.0000   1.0000   0.0000   0.0000   0.0000   0.0000

          k = 0.0583 0.1767-0.4694 (  1788 PWs)   bands (ev):

   -10.6498  -8.5249  -6.0376  -3.9487  -1.7341   1.4256   2.4081   3.0118
     3.9415   5.4181   6.6331   7.6361  13.0215  16.2705  17.0885  20.7867

     occupation numbers 
     1.0000   1.0000   1.0000   1.0000   1.0000   1.0000   1.0000   1.0000
     1.0000   1.0000   1.0000   1.0000   0.0000   0.0000   0.0000   0.0000

          k = 0.3078 0.1818-0.3249 (  1798 PWs)   bands (ev):

   -11.0515  -8.8963  -4.8956  -2.9374  -2.1746  -0.4286   1.5788   3.2787
     3.9026   6.5542   7.5707   8.2789  13.8618  15.9613  18.4602  19.6214

     occupation numbers 
     1.0000   1.0000   1.0000   1.0000   1.0000   1.0000   1.0000   1.0000
     1.0000   1.0000   1.0000   1.0000   0.0000   0.0000   0.0000   0.0000

          k = 0.5557 0.2571-0.1805 (  1793 PWs)   bands (ev):

    -7.8675  -7.8217  -7.1529  -7.0528  -0.2556   0.3064   1.7722   2.2997
     4.1304   4.2583   7.0823   7.1830  13.5079  14.5614  19.3986  21.1627

     occupation numbers 
     1.0000   1.0000   1.0000   1.0000   1.0000   1.0000   1.0000   1.0000
     1.0000   1.0000   1.0000   1.0000   0.0000   0.0000   0.0000   0.0000

          k = 0.8052 0.2622-0.0361 (  1795 PWs)   bands (ev):

    -8.1924  -7.5177  -6.6383  -5.9685  -2.2364  -1.4026   1.8363   2.8715
     3.9713   4.8785   6.9179   7.9522  14.3336  14.4246  20.4750  21.2494

     occupation numbers 
     1.0000   1.0000   1.0000   1.0000   1.0000   1.0000   1.0000   1.0000
     1.0000   1.0000   1.0000   1.0000   0.0000   0.0000   0.0000   0.0000

          k = 0.0567 0.2469-0.4694 (  1795 PWs)   bands (ev):

   -10.1194  -9.4055  -5.5167  -4.8137  -0.0048   1.7047   1.9330   2.3882
     4.4279   5.7033   6.1128   6.3678  14.1313  15.6728  17.5796  19.3552

     occupation numbers 
     1.0000   1.0000   1.0000   1.0000   1.0000   1.0000   1.0000   1.0000
     1.0000   1.0000   1.0000   1.0000   0.0000   0.0000   0.0000   0.0000

          k = 0.3062 0.2520-0.3249 (  1801 PWs)   bands (ev):

   -10.5233  -9.7812  -4.3645  -3.7809  -0.4698   0.0800   0.7541   1.5792
     5.4920   6.6721   7.3211   7.6453  14.0896  14.7211  18.9436  19.7076

     occupation numbers 
     1.0000   1.0000   1.0000   1.0000   1.0000   1.0000   1.0000   1.0000
     1.0000   1.0000   1.0000   1.0000   0.0000   0.0000   0.0000   0.0000

          k = 0.5672-0.2341-0.1805 (  1792 PWs)   bands (ev):

    -7.8575  -7.8193  -7.1687  -7.0533  -0.3445   0.4131   1.8102   2.3480
     4.0603   4.2010   6.9518   7.3055  13.6712  14.4449  19.6611  20.7765

     occupation numbers 
     1.0000   1.0000   1.0000   1.0000   1.0000   1.0000   1.0000   1.0000
     1.0000   1.0000   1.0000   1.0000   0.0000   0.0000   0.0000   0.0000

          k = 0.8167-0.2291-0.0361 (  1794 PWs)   bands (ev):

    -8.2106  -7.4943  -6.6566  -5.9445  -2.0937  -1.5761   1.7101   2.8375
     4.0627   5.1749   6.9571   7.6833  14.3077  14.5187  19.7881  21.7232

     occupation numbers 
     1.0000   1.0000   1.0000   1.0000   1.0000   1.0000   1.0000   1.0000
     1.0000   1.0000   1.0000   1.0000   0.0000   0.0000   0.0000   0.0000

          k = 0.0681-0.2443-0.4694 (  1794 PWs)   bands (ev):

   -10.1137  -9.4135  -5.5097  -4.8222   0.0131   1.7131   1.7618   2.5762
     4.5158   5.9021   6.0022   6.0708  14.4027  15.5675  17.7604  18.9770

     occupation numbers 
     1.0000   1.0000   1.0000   1.0000   1.0000   1.0000   1.0000   1.0000
     1.0000   1.0000   1.0000   1.0000   0.0000   0.0000   0.0000   0.0000

          k = 0.3176-0.2392-0.3249 (  1800 PWs)   bands (ev):

   -10.4941  -9.8198  -4.4587  -3.6625  -0.3088   0.1743   0.6788   1.2967
     5.3142   7.0943   7.3784   7.5089  13.8232  14.9464  18.2653  20.2930

     occupation numbers 
     1.0000   1.0000   1.0000   1.0000   1.0000   1.0000   1.0000   1.0000
     1.0000   1.0000   1.0000   1.0000   0.0000   0.0000   0.0000   0.0000

          k = 0.5655-0.1640-0.1805 (  1794 PWs)   bands (ev):

    -8.3773  -8.3379  -6.3062  -6.1916  -0.8504   0.3279   0.6373   1.2361
     5.3194   5.7761   6.6622   7.2408  13.4033  15.7353  18.1764  21.9610

     occupation numbers 
     1.0000   1.0000   1.0000   1.0000   1.0000   1.0000   1.0000   1.0000
     1.0000   1.0000   1.0000   1.0000   0.0000   0.0000   0.0000   0.0000

          k = 0.8150-0.1589-0.0361 (  1799 PWs)   bands (ev):

    -8.7356  -7.2100  -6.5874  -5.0783  -2.6153  -0.7593   0.0578   1.4677
     5.4144   5.7126   6.7867   8.2547  14.6955  15.2007  19.0873  21.8338

     occupation numbers 
     1.0000   1.0000   1.0000   1.0000   1.0000   1.0000   1.0000   1.0000
     1.0000   1.0000   1.0000   1.0000   0.0000   0.0000   0.0000   0.0000

          k = 0.0665-0.1742-0.4694 (  1788 PWs)   bands (ev):

   -10.6455  -8.5348  -6.0333  -3.9591  -1.7144   1.2765   2.4705   3.3465
     3.8613   5.5983   6.2025   7.4663  13.5364  16.1955  17.0822  20.3201

     occupation numbers 
     1.0000   1.0000   1.0000   1.0000   1.0000   1.0000   1.0000   1.0000
     1.0000   1.0000   1.0000   1.0000   0.0000   0.0000   0.0000   0.0000

          k = 0.3160-0.1691-0.3249 (  1798 PWs)   bands (ev):

   -11.0299  -8.9433  -4.9694  -2.7953  -2.0311  -0.3621   1.4848   2.5457
     4.2181   6.8881   7.4219   8.5471  13.5695  16.1430  17.5521  20.6769

     occupation numbers 
     1.0000   1.0000   1.0000   1.0000   1.0000   1.0000   1.0000   1.0000
     1.0000   1.0000   1.0000   1.0000   0.0000   0.0000   0.0000   0.0000

          k = 0.5639-0.0938-0.1805 (  1793 PWs)   bands (ev):

    -8.7268  -8.6930  -5.2760  -5.1469  -1.3594  -1.1971  -0.8533   2.1897
     5.1144   7.0668   7.2410   7.3226  13.7546  16.7222  17.0732  22.7654

     occupation numbers 
     1.0000   1.0000   1.0000   1.0000   1.0000   1.0000   1.0000   1.0000
     1.0000   1.0000   1.0000   1.0000   0.0000   0.0000   0.0000   0.0000

          k = 0.8134-0.0887-0.0361 (  1796 PWs)   bands (ev):

    -9.0861  -7.5472  -5.5561  -4.0584  -2.9515  -1.5456  -0.0851   0.2057
     4.2546   6.9098   8.0991   8.5664  15.4428  16.1438  18.3537  21.7118

     occupation numbers 
     1.0000   1.0000   1.0000   1.0000   1.0000   1.0000   1.0000   1.0000
     1.0000   1.0000   1.0000   1.0000   0.0000   0.0000   0.0000   0.0000

          k = 0.0648-0.1040-0.4694 (  1794 PWs)   bands (ev):

   -11.0024  -7.4908  -6.3800  -3.3573  -2.9329   0.8189   1.2413   4.2325
     5.0672   5.3280   6.1446   8.6263  13.3063  14.7620  18.4135  21.3914

     occupation numbers 
     1.0000   1.0000   1.0000   1.0000   1.0000   1.0000   1.0000   1.0000
     1.0000   1.0000   1.0000   1.0000   0.0000   0.0000   0.0000   0.0000

          k = 0.3144-0.0989-0.3249 (  1798 PWs)   bands (ev):

   -11.3899  -7.8972  -5.3130  -3.6819  -1.7799  -0.6858   1.8130   2.4128
     4.8232   6.0682   7.3539   9.6320  13.9408  16.7778  17.3598  20.2064

     occupation numbers 
     1.0000   1.0000   1.0000   1.0000   1.0000   1.0000   1.0000   1.0000
     1.0000   1.0000   1.0000   1.0439   0.0000   0.0000   0.0000   0.0000

          k = 0.5623-0.0236-0.1805 (  1790 PWs)   bands (ev):

    -8.9030  -8.8709  -4.0864  -3.9381  -2.7272  -2.5786  -1.2482   3.2558
     4.1305   7.0118   8.0609   8.0780  14.5566  15.4623  17.9246  22.5858

     occupation numbers 
     1.0000   1.0000   1.0000   1.0000   1.0000   1.0000   1.0000   1.0000
     1.0000   1.0000   1.0000   1.0000   0.0000   0.0000   0.0000   0.0000

          k = 0.8118-0.0185-0.0361 (  1798 PWs)   bands (ev):

    -9.2605  -7.7190  -4.3621  -3.2474  -3.0366  -2.7387  -1.5496   1.2995
     2.8954   7.7695   8.6918   8.8975  16.4193  16.8621  17.4857  21.5826

     occupation numbers 
     1.0000   1.0000   1.0000   1.0000   1.0000   1.0000   1.0000   1.0000
     1.0000   1.0000   1.0000   1.0000   0.0000   0.0000   0.0000   0.0000

          k = 0.0632-0.0338-0.4694 (  1792 PWs)   bands (ev):

   -11.1810  -6.6004  -6.2356  -4.8726  -1.7510  -0.4277   0.9013   5.1391
     5.1565   5.3635   6.2578   9.3280  13.5571  13.6717  19.2184  20.2764

     occupation numbers 
     1.0000   1.0000   1.0000   1.0000   1.0000   1.0000   1.0000   1.0000
     1.0000   1.0000   1.0000   1.0048   0.0000   0.0000   0.0000   0.0000

          k = 0.3127-0.0287-0.3249 (  1793 PWs)   bands (ev):

   -11.5721  -6.6864  -5.5421  -5.1437  -0.9995  -0.4495   0.4887   3.4371
     4.6248   6.0008   7.3209  10.1523  14.7416  15.9337  18.1302  19.6497

     occupation numbers 
     1.0000   1.0000   1.0000   1.0000   1.0000   1.0000   1.0000   1.0000
     1.0000   1.0000   1.0000   0.8920   0.0000   0.0000   0.0000   0.0000

     the Fermi energy is    10.4359 ev

!    total energy              =     -24.53453927 Ry
     estimated scf accuracy    <          5.6E-13 Ry
     smearing contrib. (-TS)   =       0.00267428 Ry
     internal energy E=F+TS    =     -24.53721355 Ry

     The total energy is F=E-TS. E is the sum of the following terms:
     one-electron contribution =      24.33127237 Ry
     hartree contribution      =       1.41430028 Ry
     xc contribution           =     -20.24527382 Ry
     ewald contribution        =     -30.03751237 Ry

     convergence has been achieved in   8 iterations

     Writing output data file ./pwscf.save/
 
     init_run     :      0.50s CPU      0.54s WALL (       1 calls)
     electrons    :      8.91s CPU      9.29s WALL (       1 calls)

     Called by init_run:
     wfcinit      :      0.47s CPU      0.50s WALL (       1 calls)
     wfcinit:atom :      0.01s CPU      0.01s WALL (     128 calls)
     wfcinit:wfcr :      0.44s CPU      0.47s WALL (     128 calls)
     potinit      :      0.01s CPU      0.01s WALL (       1 calls)
     hinit0       :      0.01s CPU      0.02s WALL (       1 calls)

     Called by electrons:
     c_bands      :      7.87s CPU      8.20s WALL (       8 calls)
     sum_band     :      1.02s CPU      1.05s WALL (       8 calls)
     v_of_rho     :      0.02s CPU      0.02s WALL (       9 calls)
     v_h          :      0.00s CPU      0.00s WALL (       9 calls)
     v_xc         :      0.02s CPU      0.02s WALL (       9 calls)
     mix_rho      :      0.00s CPU      0.00s WALL (       8 calls)

     Called by c_bands:
     cegterg      :      7.82s CPU      8.15s WALL (    1024 calls)

     Called by sum_band:
     sum_band:wei :      0.01s CPU      0.01s WALL (       8 calls)
     sum_band:loo :      1.01s CPU      1.04s WALL (       8 calls)
     sum_band:buf :      0.01s CPU      0.01s WALL (    1024 calls)
     sum_band:ini :      0.00s CPU      0.00s WALL (    1024 calls)

     Called by *egterg:
     cdiaghg      :      2.64s CPU      2.74s WALL (    3373 calls)
     cegterg:over :      0.41s CPU      0.43s WALL (    2349 calls)
     cegterg:upda :      0.12s CPU      0.13s WALL (    2349 calls)
     cegterg:last :      0.08s CPU      0.08s WALL (    1024 calls)
     cdiaghg:chol :      0.19s CPU      0.20s WALL (    3373 calls)
     cdiaghg:inve :      0.06s CPU      0.06s WALL (    3373 calls)
     cdiaghg:para :      0.34s CPU      0.36s WALL (    6746 calls)
     h_psi        :      4.82s CPU      5.04s WALL (    3501 calls)
     g_psi        :      0.01s CPU      0.02s WALL (    2349 calls)

     Called by h_psi:
     vloc_psi     :      4.79s CPU      5.02s WALL (    3501 calls)

     General routines
     fft          :      0.02s CPU      0.04s WALL (      89 calls)
     ffts         :      0.00s CPU      0.00s WALL (       8 calls)
     fftw         :      5.34s CPU      5.58s WALL (  101546 calls)
 
     Parallel routines
     fft_scatt_xy :      0.59s CPU      0.62s WALL (  101643 calls)
     fft_scatt_yz :      2.00s CPU      2.09s WALL (  101643 calls)
 
     PWSCF        :      9.52s CPU     10.03s WALL

 
   This run was terminated on:  17:15:39  28May2020            

=------------------------------------------------------------------------------=
   JOB DONE.
=------------------------------------------------------------------------------=
