mpi	nodes	Time-Profile	efficiency	node_h
20	5	1361.0	100.0	1.8902777777777777
40	10	774.0	87.91989664082688	2.15
60	15	556.0	81.5947242206235	2.316666666666667
80	20	441.0	77.15419501133786	2.45
100	25	358.0	76.03351955307262	2.486111111111111
120	30	328.0	69.15650406504065	2.7333333333333334
140	35	285.0	68.22055137844612	2.7708333333333335
160	40	258.0	65.93992248062015	2.8666666666666667
180	45	246.0	61.472448057813914	3.075
200	50	227.0	59.95594713656388	3.1527777777777777
