,ncores,nodes,MPI,threads,dip,Xo,Xo_REDUX,X,X_REDUX,io_X,io_WF,Sgm_x,(REDUX),Sgm_c,(REDUX).1,WALL_TIME
0,2560,20,80,32,1623.0,132.1358,0.1201,7.9136,0.0725,0.3473,2.8839,4.1661,0.1383,12.7836,0.4313,1796
1,5120,40,160,32,827.0,165.7774,0.017,6.3793,0.1054,0.5236,2.6732,2.6552,0.2334,6.7998,0.4678,1025
2,10240,80,320,32,441.6614,43.3924,0.2547,2.826,0.1496,0.5379,2.6024,1.844,0.2088,4.0862,0.2265,510
3,15360,120,480,32,298.6063,38.8259,1.1609,7.4733,0.107,0.52,3.2471,1.6332,0.3956,3.245,0.4782,371
4,20480,160,640,32,254.5834,20.4671,1.6248,1.9817,0.1137,0.7957,1.0638,1.4164,0.329,3.0007,0.3501,304
5,25600,200,800,32,212.9672,35.503,2.912,2.8716,0.1487,0.6593,7.7058,0.6085,0.1516,3.2236,0.5122,285
6,30720,240,960,32,168.9603,14.446,1.5065,1.5422,0.1426,0.611,4.5175,0.5046,0.1905,2.8768,0.4596,215
