2940 atomic
surface 161.4858 0.00000 167.82066
C 0.0 0.0 0.0
C 0.0 0.0 2.66382
C 2.30694 0.0 3.99573
C 2.30694 0.0 6.65955
C 4.61388 0.0 0.0
C 4.61388 0.0 2.66382
C 6.92082 0.0 3.99573
C 6.92082 0.0 6.65955
C 9.22776 0.0 0.0
C 9.22776 0.0 2.66382
C 11.5347 0.0 3.99573
C 11.5347 0.0 6.65955
C 13.84164 0.0 0.0
C 13.84164 0.0 2.66382
C 16.14858 0.0 3.99573
C 16.14858 0.0 6.65955
C 18.45552 0.0 0.0
C 18.45552 0.0 2.66382
C 20.76246 0.0 3.99573
C 20.76246 0.0 6.65955
C 23.0694 0.0 0.0
C 23.0694 0.0 2.66382
C 25.37634 0.0 3.99573
C 25.37634 0.0 6.65955
C 27.68328 0.0 0.0
C 27.68328 0.0 2.66382
C 29.99022 0.0 3.99573
C 29.99022 0.0 6.65955
C 32.29716 0.0 0.0
C 32.29716 0.0 2.66382
C 34.6041 0.0 3.99573
C 34.6041 0.0 6.65955
C 36.91104 0.0 0.0
C 36.91104 0.0 2.66382
C 39.21798 0.0 3.99573
C 39.21798 0.0 6.65955
C 41.52492 0.0 0.0
C 41.52492 0.0 2.66382
C 43.83186 0.0 3.99573
C 43.83186 0.0 6.65955
C 46.1388 0.0 0.0
C 46.1388 0.0 2.66382
C 48.44574 0.0 3.99573
C 48.44574 0.0 6.65955
C 50.75268 0.0 0.0
C 50.75268 0.0 2.66382
C 53.05962 0.0 3.99573
C 53.05962 0.0 6.65955
C 55.36656 0.0 0.0
C 55.36656 0.0 2.66382
C 57.6735 0.0 3.99573
C 57.6735 0.0 6.65955
C 59.98044 0.0 0.0
C 59.98044 0.0 2.66382
C 62.28738 0.0 3.99573
C 62.28738 0.0 6.65955
C 64.59432 0.0 0.0
C 64.59432 0.0 2.66382
C 66.90126 0.0 3.99573
C 66.90126 0.0 6.65955
C 69.2082 0.0 0.0
C 69.2082 0.0 2.66382
C 71.51514 0.0 3.99573
C 71.51514 0.0 6.65955
C 73.82208 0.0 0.0
C 73.82208 0.0 2.66382
C 76.12902 0.0 3.99573
C 76.12902 0.0 6.65955
C 78.43596 0.0 0.0
C 78.43596 0.0 2.66382
C 80.7429 0.0 3.99573
C 80.7429 0.0 6.65955
C 83.04984 0.0 0.0
C 83.04984 0.0 2.66382
C 85.35678 0.0 3.99573
C 85.35678 0.0 6.65955
C 87.66372 0.0 0.0
C 87.66372 0.0 2.66382
C 89.97066 0.0 3.99573
C 89.97066 0.0 6.65955
C 92.2776 0.0 0.0
C 92.2776 0.0 2.66382
C 94.58454 0.0 3.99573
C 94.58454 0.0 6.65955
C 96.89148 0.0 0.0
C 96.89148 0.0 2.66382
C 99.19842 0.0 3.99573
C 99.19842 0.0 6.65955
C 101.50536 0.0 0.0
C 101.50536 0.0 2.66382
C 103.8123 0.0 3.99573
C 103.8123 0.0 6.65955
C 106.11924 0.0 0.0
C 106.11924 0.0 2.66382
C 108.42618 0.0 3.99573
C 108.42618 0.0 6.65955
C 110.73312 0.0 0.0
C 110.73312 0.0 2.66382
C 113.04006 0.0 3.99573
C 113.04006 0.0 6.65955
C 115.347 0.0 0.0
C 115.347 0.0 2.66382
C 117.65394 0.0 3.99573
C 117.65394 0.0 6.65955
C 119.96088 0.0 0.0
C 119.96088 0.0 2.66382
C 122.26782 0.0 3.99573
C 122.26782 0.0 6.65955
C 124.57476 0.0 0.0
C 124.57476 0.0 2.66382
C 126.8817 0.0 3.99573
C 126.8817 0.0 6.65955
C 129.18864 0.0 0.0
C 129.18864 0.0 2.66382
C 131.49558 0.0 3.99573
C 131.49558 0.0 6.65955
C 133.80252 0.0 0.0
C 133.80252 0.0 2.66382
C 136.10946 0.0 3.99573
C 136.10946 0.0 6.65955
C 138.4164 0.0 0.0
C 138.4164 0.0 2.66382
C 140.72334 0.0 3.99573
C 140.72334 0.0 6.65955
C 143.03028 0.0 0.0
C 143.03028 0.0 2.66382
C 145.33722 0.0 3.99573
C 145.33722 0.0 6.65955
C 147.64416 0.0 0.0
C 147.64416 0.0 2.66382
C 149.9511 0.0 3.99573
C 149.9511 0.0 6.65955
C 152.25804 0.0 0.0
C 152.25804 0.0 2.66382
C 154.56498 0.0 3.99573
C 154.56498 0.0 6.65955
C 156.87192 0.0 0.0
C 156.87192 0.0 2.66382
C 159.17886 0.0 3.99573
C 159.17886 0.0 6.65955
C 0.0 0.0 7.99146
C 0.0 0.0 10.65528
C 2.30694 0.0 11.98719
C 2.30694 0.0 14.65101
C 4.61388 0.0 7.99146
C 4.61388 0.0 10.65528
C 6.92082 0.0 11.98719
C 6.92082 0.0 14.65101
C 9.22776 0.0 7.99146
C 9.22776 0.0 10.65528
C 11.5347 0.0 11.98719
C 11.5347 0.0 14.65101
C 13.84164 0.0 7.99146
C 13.84164 0.0 10.65528
C 16.14858 0.0 11.98719
C 16.14858 0.0 14.65101
C 18.45552 0.0 7.99146
C 18.45552 0.0 10.65528
C 20.76246 0.0 11.98719
C 20.76246 0.0 14.65101
C 23.0694 0.0 7.99146
C 23.0694 0.0 10.65528
C 25.37634 0.0 11.98719
C 25.37634 0.0 14.65101
C 27.68328 0.0 7.99146
C 27.68328 0.0 10.65528
C 29.99022 0.0 11.98719
C 29.99022 0.0 14.65101
C 32.29716 0.0 7.99146
C 32.29716 0.0 10.65528
C 34.6041 0.0 11.98719
C 34.6041 0.0 14.65101
C 36.91104 0.0 7.99146
C 36.91104 0.0 10.65528
C 39.21798 0.0 11.98719
C 39.21798 0.0 14.65101
C 41.52492 0.0 7.99146
C 41.52492 0.0 10.65528
C 43.83186 0.0 11.98719
C 43.83186 0.0 14.65101
C 46.1388 0.0 7.99146
C 46.1388 0.0 10.65528
C 48.44574 0.0 11.98719
C 48.44574 0.0 14.65101
C 50.75268 0.0 7.99146
C 50.75268 0.0 10.65528
C 53.05962 0.0 11.98719
C 53.05962 0.0 14.65101
C 55.36656 0.0 7.99146
C 55.36656 0.0 10.65528
C 57.6735 0.0 11.98719
C 57.6735 0.0 14.65101
C 59.98044 0.0 7.99146
C 59.98044 0.0 10.65528
C 62.28738 0.0 11.98719
C 62.28738 0.0 14.65101
C 64.59432 0.0 7.99146
C 64.59432 0.0 10.65528
C 66.90126 0.0 11.98719
C 66.90126 0.0 14.65101
C 69.2082 0.0 7.99146
C 69.2082 0.0 10.65528
C 71.51514 0.0 11.98719
C 71.51514 0.0 14.65101
C 73.82208 0.0 7.99146
C 73.82208 0.0 10.65528
C 76.12902 0.0 11.98719
C 76.12902 0.0 14.65101
C 78.43596 0.0 7.99146
C 78.43596 0.0 10.65528
C 80.7429 0.0 11.98719
C 80.7429 0.0 14.65101
C 83.04984 0.0 7.99146
C 83.04984 0.0 10.65528
C 85.35678 0.0 11.98719
C 85.35678 0.0 14.65101
C 87.66372 0.0 7.99146
C 87.66372 0.0 10.65528
C 89.97066 0.0 11.98719
C 89.97066 0.0 14.65101
C 92.2776 0.0 7.99146
C 92.2776 0.0 10.65528
C 94.58454 0.0 11.98719
C 94.58454 0.0 14.65101
C 96.89148 0.0 7.99146
C 96.89148 0.0 10.65528
C 99.19842 0.0 11.98719
C 99.19842 0.0 14.65101
C 101.50536 0.0 7.99146
C 101.50536 0.0 10.65528
C 103.8123 0.0 11.98719
C 103.8123 0.0 14.65101
C 106.11924 0.0 7.99146
C 106.11924 0.0 10.65528
C 108.42618 0.0 11.98719
C 108.42618 0.0 14.65101
C 110.73312 0.0 7.99146
C 110.73312 0.0 10.65528
C 113.04006 0.0 11.98719
C 113.04006 0.0 14.65101
C 115.347 0.0 7.99146
C 115.347 0.0 10.65528
C 117.65394 0.0 11.98719
C 117.65394 0.0 14.65101
C 119.96088 0.0 7.99146
C 119.96088 0.0 10.65528
C 122.26782 0.0 11.98719
C 122.26782 0.0 14.65101
C 124.57476 0.0 7.99146
C 124.57476 0.0 10.65528
C 126.8817 0.0 11.98719
C 126.8817 0.0 14.65101
C 129.18864 0.0 7.99146
C 129.18864 0.0 10.65528
C 131.49558 0.0 11.98719
C 131.49558 0.0 14.65101
C 133.80252 0.0 7.99146
C 133.80252 0.0 10.65528
C 136.10946 0.0 11.98719
C 136.10946 0.0 14.65101
C 138.4164 0.0 7.99146
C 138.4164 0.0 10.65528
C 140.72334 0.0 11.98719
C 140.72334 0.0 14.65101
C 143.03028 0.0 7.99146
C 143.03028 0.0 10.65528
C 145.33722 0.0 11.98719
C 145.33722 0.0 14.65101
C 147.64416 0.0 7.99146
C 147.64416 0.0 10.65528
C 149.9511 0.0 11.98719
C 149.9511 0.0 14.65101
C 152.25804 0.0 7.99146
C 152.25804 0.0 10.65528
C 154.56498 0.0 11.98719
C 154.56498 0.0 14.65101
C 156.87192 0.0 7.99146
C 156.87192 0.0 10.65528
C 159.17886 0.0 11.98719
C 159.17886 0.0 14.65101
C 0.0 0.0 15.98292
C 0.0 0.0 18.64674
C 2.30694 0.0 19.97865
C 2.30694 0.0 22.64247
C 4.61388 0.0 15.98292
C 4.61388 0.0 18.64674
C 6.92082 0.0 19.97865
C 6.92082 0.0 22.64247
C 9.22776 0.0 15.98292
C 9.22776 0.0 18.64674
C 11.5347 0.0 19.97865
C 11.5347 0.0 22.64247
C 13.84164 0.0 15.98292
C 13.84164 0.0 18.64674
C 16.14858 0.0 19.97865
C 16.14858 0.0 22.64247
C 18.45552 0.0 15.98292
C 18.45552 0.0 18.64674
C 20.76246 0.0 19.97865
C 20.76246 0.0 22.64247
C 23.0694 0.0 15.98292
C 23.0694 0.0 18.64674
C 25.37634 0.0 19.97865
C 25.37634 0.0 22.64247
C 27.68328 0.0 15.98292
C 27.68328 0.0 18.64674
C 29.99022 0.0 19.97865
C 29.99022 0.0 22.64247
C 32.29716 0.0 15.98292
C 32.29716 0.0 18.64674
C 34.6041 0.0 19.97865
C 34.6041 0.0 22.64247
C 36.91104 0.0 15.98292
C 36.91104 0.0 18.64674
C 39.21798 0.0 19.97865
C 39.21798 0.0 22.64247
C 41.52492 0.0 15.98292
C 41.52492 0.0 18.64674
C 43.83186 0.0 19.97865
C 43.83186 0.0 22.64247
C 46.1388 0.0 15.98292
C 46.1388 0.0 18.64674
C 48.44574 0.0 19.97865
C 48.44574 0.0 22.64247
C 50.75268 0.0 15.98292
C 50.75268 0.0 18.64674
C 53.05962 0.0 19.97865
C 53.05962 0.0 22.64247
C 55.36656 0.0 15.98292
C 55.36656 0.0 18.64674
C 57.6735 0.0 19.97865
C 57.6735 0.0 22.64247
C 59.98044 0.0 15.98292
C 59.98044 0.0 18.64674
C 62.28738 0.0 19.97865
C 62.28738 0.0 22.64247
C 64.59432 0.0 15.98292
C 64.59432 0.0 18.64674
C 66.90126 0.0 19.97865
C 66.90126 0.0 22.64247
C 69.2082 0.0 15.98292
C 69.2082 0.0 18.64674
C 71.51514 0.0 19.97865
C 71.51514 0.0 22.64247
C 73.82208 0.0 15.98292
C 73.82208 0.0 18.64674
C 76.12902 0.0 19.97865
C 76.12902 0.0 22.64247
C 78.43596 0.0 15.98292
C 78.43596 0.0 18.64674
C 80.7429 0.0 19.97865
C 80.7429 0.0 22.64247
C 83.04984 0.0 15.98292
C 83.04984 0.0 18.64674
C 85.35678 0.0 19.97865
C 85.35678 0.0 22.64247
C 87.66372 0.0 15.98292
C 87.66372 0.0 18.64674
C 89.97066 0.0 19.97865
C 89.97066 0.0 22.64247
C 92.2776 0.0 15.98292
C 92.2776 0.0 18.64674
C 94.58454 0.0 19.97865
C 94.58454 0.0 22.64247
C 96.89148 0.0 15.98292
C 96.89148 0.0 18.64674
C 99.19842 0.0 19.97865
C 99.19842 0.0 22.64247
C 101.50536 0.0 15.98292
C 101.50536 0.0 18.64674
C 103.8123 0.0 19.97865
C 103.8123 0.0 22.64247
C 106.11924 0.0 15.98292
C 106.11924 0.0 18.64674
C 108.42618 0.0 19.97865
C 108.42618 0.0 22.64247
C 110.73312 0.0 15.98292
C 110.73312 0.0 18.64674
C 113.04006 0.0 19.97865
C 113.04006 0.0 22.64247
C 115.347 0.0 15.98292
C 115.347 0.0 18.64674
C 117.65394 0.0 19.97865
C 117.65394 0.0 22.64247
C 119.96088 0.0 15.98292
C 119.96088 0.0 18.64674
C 122.26782 0.0 19.97865
C 122.26782 0.0 22.64247
C 124.57476 0.0 15.98292
C 124.57476 0.0 18.64674
C 126.8817 0.0 19.97865
C 126.8817 0.0 22.64247
C 129.18864 0.0 15.98292
C 129.18864 0.0 18.64674
C 131.49558 0.0 19.97865
C 131.49558 0.0 22.64247
C 133.80252 0.0 15.98292
C 133.80252 0.0 18.64674
C 136.10946 0.0 19.97865
C 136.10946 0.0 22.64247
C 138.4164 0.0 15.98292
C 138.4164 0.0 18.64674
C 140.72334 0.0 19.97865
C 140.72334 0.0 22.64247
C 143.03028 0.0 15.98292
C 143.03028 0.0 18.64674
C 145.33722 0.0 19.97865
C 145.33722 0.0 22.64247
C 147.64416 0.0 15.98292
C 147.64416 0.0 18.64674
C 149.9511 0.0 19.97865
C 149.9511 0.0 22.64247
C 152.25804 0.0 15.98292
C 152.25804 0.0 18.64674
C 154.56498 0.0 19.97865
C 154.56498 0.0 22.64247
C 156.87192 0.0 15.98292
C 156.87192 0.0 18.64674
C 159.17886 0.0 19.97865
C 159.17886 0.0 22.64247
C 0.0 0.0 23.97438
C 0.0 0.0 26.6382
C 2.30694 0.0 27.97011
C 2.30694 0.0 30.63393
C 4.61388 0.0 23.97438
C 4.61388 0.0 26.6382
C 6.92082 0.0 27.97011
C 6.92082 0.0 30.63393
C 9.22776 0.0 23.97438
C 9.22776 0.0 26.6382
C 11.5347 0.0 27.97011
C 11.5347 0.0 30.63393
C 13.84164 0.0 23.97438
C 13.84164 0.0 26.6382
C 16.14858 0.0 27.97011
C 16.14858 0.0 30.63393
C 18.45552 0.0 23.97438
C 18.45552 0.0 26.6382
C 20.76246 0.0 27.97011
C 20.76246 0.0 30.63393
C 23.0694 0.0 23.97438
C 23.0694 0.0 26.6382
C 25.37634 0.0 27.97011
C 25.37634 0.0 30.63393
C 27.68328 0.0 23.97438
C 27.68328 0.0 26.6382
C 29.99022 0.0 27.97011
C 29.99022 0.0 30.63393
C 32.29716 0.0 23.97438
C 32.29716 0.0 26.6382
C 34.6041 0.0 27.97011
C 34.6041 0.0 30.63393
C 36.91104 0.0 23.97438
C 36.91104 0.0 26.6382
C 39.21798 0.0 27.97011
C 39.21798 0.0 30.63393
C 41.52492 0.0 23.97438
C 41.52492 0.0 26.6382
C 43.83186 0.0 27.97011
C 43.83186 0.0 30.63393
C 46.1388 0.0 23.97438
C 46.1388 0.0 26.6382
C 48.44574 0.0 27.97011
C 48.44574 0.0 30.63393
C 50.75268 0.0 23.97438
C 50.75268 0.0 26.6382
C 53.05962 0.0 27.97011
C 53.05962 0.0 30.63393
C 55.36656 0.0 23.97438
C 55.36656 0.0 26.6382
C 57.6735 0.0 27.97011
C 57.6735 0.0 30.63393
C 59.98044 0.0 23.97438
C 59.98044 0.0 26.6382
C 62.28738 0.0 27.97011
C 62.28738 0.0 30.63393
C 64.59432 0.0 23.97438
C 64.59432 0.0 26.6382
C 66.90126 0.0 27.97011
C 66.90126 0.0 30.63393
C 69.2082 0.0 23.97438
C 69.2082 0.0 26.6382
C 71.51514 0.0 27.97011
C 71.51514 0.0 30.63393
C 73.82208 0.0 23.97438
C 73.82208 0.0 26.6382
C 76.12902 0.0 27.97011
C 76.12902 0.0 30.63393
C 78.43596 0.0 23.97438
C 78.43596 0.0 26.6382
C 80.7429 0.0 27.97011
C 80.7429 0.0 30.63393
C 83.04984 0.0 23.97438
C 83.04984 0.0 26.6382
C 85.35678 0.0 27.97011
C 85.35678 0.0 30.63393
C 87.66372 0.0 23.97438
C 87.66372 0.0 26.6382
C 89.97066 0.0 27.97011
C 89.97066 0.0 30.63393
C 92.2776 0.0 23.97438
C 92.2776 0.0 26.6382
C 94.58454 0.0 27.97011
C 94.58454 0.0 30.63393
C 96.89148 0.0 23.97438
C 96.89148 0.0 26.6382
C 99.19842 0.0 27.97011
C 99.19842 0.0 30.63393
C 101.50536 0.0 23.97438
C 101.50536 0.0 26.6382
C 103.8123 0.0 27.97011
C 103.8123 0.0 30.63393
C 106.11924 0.0 23.97438
C 106.11924 0.0 26.6382
C 108.42618 0.0 27.97011
C 108.42618 0.0 30.63393
C 110.73312 0.0 23.97438
C 110.73312 0.0 26.6382
C 113.04006 0.0 27.97011
C 113.04006 0.0 30.63393
C 115.347 0.0 23.97438
C 115.347 0.0 26.6382
C 117.65394 0.0 27.97011
C 117.65394 0.0 30.63393
C 119.96088 0.0 23.97438
C 119.96088 0.0 26.6382
C 122.26782 0.0 27.97011
C 122.26782 0.0 30.63393
C 124.57476 0.0 23.97438
C 124.57476 0.0 26.6382
C 126.8817 0.0 27.97011
C 126.8817 0.0 30.63393
C 129.18864 0.0 23.97438
C 129.18864 0.0 26.6382
C 131.49558 0.0 27.97011
C 131.49558 0.0 30.63393
C 133.80252 0.0 23.97438
C 133.80252 0.0 26.6382
C 136.10946 0.0 27.97011
C 136.10946 0.0 30.63393
C 138.4164 0.0 23.97438
C 138.4164 0.0 26.6382
C 140.72334 0.0 27.97011
C 140.72334 0.0 30.63393
C 143.03028 0.0 23.97438
C 143.03028 0.0 26.6382
C 145.33722 0.0 27.97011
C 145.33722 0.0 30.63393
C 147.64416 0.0 23.97438
C 147.64416 0.0 26.6382
C 149.9511 0.0 27.97011
C 149.9511 0.0 30.63393
C 152.25804 0.0 23.97438
C 152.25804 0.0 26.6382
C 154.56498 0.0 27.97011
C 154.56498 0.0 30.63393
C 156.87192 0.0 23.97438
C 156.87192 0.0 26.6382
C 159.17886 0.0 27.97011
C 159.17886 0.0 30.63393
C 0.0 0.0 31.96584
C 0.0 0.0 34.62966
C 2.30694 0.0 35.96157
C 2.30694 0.0 38.62539
C 4.61388 0.0 31.96584
C 4.61388 0.0 34.62966
C 6.92082 0.0 35.96157
C 6.92082 0.0 38.62539
C 9.22776 0.0 31.96584
C 9.22776 0.0 34.62966
C 11.5347 0.0 35.96157
C 11.5347 0.0 38.62539
C 13.84164 0.0 31.96584
C 13.84164 0.0 34.62966
C 16.14858 0.0 35.96157
C 16.14858 0.0 38.62539
C 18.45552 0.0 31.96584
C 18.45552 0.0 34.62966
C 20.76246 0.0 35.96157
C 20.76246 0.0 38.62539
C 23.0694 0.0 31.96584
C 23.0694 0.0 34.62966
C 25.37634 0.0 35.96157
C 25.37634 0.0 38.62539
C 27.68328 0.0 31.96584
C 27.68328 0.0 34.62966
C 29.99022 0.0 35.96157
C 29.99022 0.0 38.62539
C 32.29716 0.0 31.96584
C 32.29716 0.0 34.62966
C 34.6041 0.0 35.96157
C 34.6041 0.0 38.62539
C 36.91104 0.0 31.96584
C 36.91104 0.0 34.62966
C 39.21798 0.0 35.96157
C 39.21798 0.0 38.62539
C 41.52492 0.0 31.96584
C 41.52492 0.0 34.62966
C 43.83186 0.0 35.96157
C 43.83186 0.0 38.62539
C 46.1388 0.0 31.96584
C 46.1388 0.0 34.62966
C 48.44574 0.0 35.96157
C 48.44574 0.0 38.62539
C 50.75268 0.0 31.96584
C 50.75268 0.0 34.62966
C 53.05962 0.0 35.96157
C 53.05962 0.0 38.62539
C 55.36656 0.0 31.96584
C 55.36656 0.0 34.62966
C 57.6735 0.0 35.96157
C 57.6735 0.0 38.62539
C 59.98044 0.0 31.96584
C 59.98044 0.0 34.62966
C 62.28738 0.0 35.96157
C 62.28738 0.0 38.62539
C 64.59432 0.0 31.96584
C 64.59432 0.0 34.62966
C 66.90126 0.0 35.96157
C 66.90126 0.0 38.62539
C 69.2082 0.0 31.96584
C 69.2082 0.0 34.62966
C 71.51514 0.0 35.96157
C 71.51514 0.0 38.62539
C 73.82208 0.0 31.96584
C 73.82208 0.0 34.62966
C 76.12902 0.0 35.96157
C 76.12902 0.0 38.62539
C 78.43596 0.0 31.96584
C 78.43596 0.0 34.62966
C 80.7429 0.0 35.96157
C 80.7429 0.0 38.62539
C 83.04984 0.0 31.96584
C 83.04984 0.0 34.62966
C 85.35678 0.0 35.96157
C 85.35678 0.0 38.62539
C 87.66372 0.0 31.96584
C 87.66372 0.0 34.62966
C 89.97066 0.0 35.96157
C 89.97066 0.0 38.62539
C 92.2776 0.0 31.96584
C 92.2776 0.0 34.62966
C 94.58454 0.0 35.96157
C 94.58454 0.0 38.62539
C 96.89148 0.0 31.96584
C 96.89148 0.0 34.62966
C 99.19842 0.0 35.96157
C 99.19842 0.0 38.62539
C 101.50536 0.0 31.96584
C 101.50536 0.0 34.62966
C 103.8123 0.0 35.96157
C 103.8123 0.0 38.62539
C 106.11924 0.0 31.96584
C 106.11924 0.0 34.62966
C 108.42618 0.0 35.96157
C 108.42618 0.0 38.62539
C 110.73312 0.0 31.96584
C 110.73312 0.0 34.62966
C 113.04006 0.0 35.96157
C 113.04006 0.0 38.62539
C 115.347 0.0 31.96584
C 115.347 0.0 34.62966
C 117.65394 0.0 35.96157
C 117.65394 0.0 38.62539
C 119.96088 0.0 31.96584
C 119.96088 0.0 34.62966
C 122.26782 0.0 35.96157
C 122.26782 0.0 38.62539
C 124.57476 0.0 31.96584
C 124.57476 0.0 34.62966
C 126.8817 0.0 35.96157
C 126.8817 0.0 38.62539
C 129.18864 0.0 31.96584
C 129.18864 0.0 34.62966
C 131.49558 0.0 35.96157
C 131.49558 0.0 38.62539
C 133.80252 0.0 31.96584
C 133.80252 0.0 34.62966
C 136.10946 0.0 35.96157
C 136.10946 0.0 38.62539
C 138.4164 0.0 31.96584
C 138.4164 0.0 34.62966
C 140.72334 0.0 35.96157
C 140.72334 0.0 38.62539
C 143.03028 0.0 31.96584
C 143.03028 0.0 34.62966
C 145.33722 0.0 35.96157
C 145.33722 0.0 38.62539
C 147.64416 0.0 31.96584
C 147.64416 0.0 34.62966
C 149.9511 0.0 35.96157
C 149.9511 0.0 38.62539
C 152.25804 0.0 31.96584
C 152.25804 0.0 34.62966
C 154.56498 0.0 35.96157
C 154.56498 0.0 38.62539
C 156.87192 0.0 31.96584
C 156.87192 0.0 34.62966
C 159.17886 0.0 35.96157
C 159.17886 0.0 38.62539
C 0.0 0.0 39.9573
C 0.0 0.0 42.62112
C 2.30694 0.0 43.95303
C 2.30694 0.0 46.61685
C 4.61388 0.0 39.9573
C 4.61388 0.0 42.62112
C 6.92082 0.0 43.95303
C 6.92082 0.0 46.61685
C 9.22776 0.0 39.9573
C 9.22776 0.0 42.62112
C 11.5347 0.0 43.95303
C 11.5347 0.0 46.61685
C 13.84164 0.0 39.9573
C 13.84164 0.0 42.62112
C 16.14858 0.0 43.95303
C 16.14858 0.0 46.61685
C 18.45552 0.0 39.9573
C 18.45552 0.0 42.62112
C 20.76246 0.0 43.95303
C 20.76246 0.0 46.61685
C 23.0694 0.0 39.9573
C 23.0694 0.0 42.62112
C 25.37634 0.0 43.95303
C 25.37634 0.0 46.61685
C 27.68328 0.0 39.9573
C 27.68328 0.0 42.62112
C 29.99022 0.0 43.95303
C 29.99022 0.0 46.61685
C 32.29716 0.0 39.9573
C 32.29716 0.0 42.62112
C 34.6041 0.0 43.95303
C 34.6041 0.0 46.61685
C 36.91104 0.0 39.9573
C 36.91104 0.0 42.62112
C 39.21798 0.0 43.95303
C 39.21798 0.0 46.61685
C 41.52492 0.0 39.9573
C 41.52492 0.0 42.62112
C 43.83186 0.0 43.95303
C 43.83186 0.0 46.61685
C 46.1388 0.0 39.9573
C 46.1388 0.0 42.62112
C 48.44574 0.0 43.95303
C 48.44574 0.0 46.61685
C 50.75268 0.0 39.9573
C 50.75268 0.0 42.62112
C 53.05962 0.0 43.95303
C 53.05962 0.0 46.61685
C 55.36656 0.0 39.9573
C 55.36656 0.0 42.62112
C 57.6735 0.0 43.95303
C 57.6735 0.0 46.61685
C 59.98044 0.0 39.9573
C 59.98044 0.0 42.62112
C 62.28738 0.0 43.95303
C 62.28738 0.0 46.61685
C 64.59432 0.0 39.9573
C 64.59432 0.0 42.62112
C 66.90126 0.0 43.95303
C 66.90126 0.0 46.61685
C 69.2082 0.0 39.9573
C 69.2082 0.0 42.62112
C 71.51514 0.0 43.95303
C 71.51514 0.0 46.61685
C 73.82208 0.0 39.9573
C 73.82208 0.0 42.62112
C 76.12902 0.0 43.95303
C 76.12902 0.0 46.61685
C 78.43596 0.0 39.9573
C 78.43596 0.0 42.62112
C 80.7429 0.0 43.95303
C 80.7429 0.0 46.61685
C 83.04984 0.0 39.9573
C 83.04984 0.0 42.62112
C 85.35678 0.0 43.95303
C 85.35678 0.0 46.61685
C 87.66372 0.0 39.9573
C 87.66372 0.0 42.62112
C 89.97066 0.0 43.95303
C 89.97066 0.0 46.61685
C 92.2776 0.0 39.9573
C 92.2776 0.0 42.62112
C 94.58454 0.0 43.95303
C 94.58454 0.0 46.61685
C 96.89148 0.0 39.9573
C 96.89148 0.0 42.62112
C 99.19842 0.0 43.95303
C 99.19842 0.0 46.61685
C 101.50536 0.0 39.9573
C 101.50536 0.0 42.62112
C 103.8123 0.0 43.95303
C 103.8123 0.0 46.61685
C 106.11924 0.0 39.9573
C 106.11924 0.0 42.62112
C 108.42618 0.0 43.95303
C 108.42618 0.0 46.61685
C 110.73312 0.0 39.9573
C 110.73312 0.0 42.62112
C 113.04006 0.0 43.95303
C 113.04006 0.0 46.61685
C 115.347 0.0 39.9573
C 115.347 0.0 42.62112
C 117.65394 0.0 43.95303
C 117.65394 0.0 46.61685
C 119.96088 0.0 39.9573
C 119.96088 0.0 42.62112
C 122.26782 0.0 43.95303
C 122.26782 0.0 46.61685
C 124.57476 0.0 39.9573
C 124.57476 0.0 42.62112
C 126.8817 0.0 43.95303
C 126.8817 0.0 46.61685
C 129.18864 0.0 39.9573
C 129.18864 0.0 42.62112
C 131.49558 0.0 43.95303
C 131.49558 0.0 46.61685
C 133.80252 0.0 39.9573
C 133.80252 0.0 42.62112
C 136.10946 0.0 43.95303
C 136.10946 0.0 46.61685
C 138.4164 0.0 39.9573
C 138.4164 0.0 42.62112
C 140.72334 0.0 43.95303
C 140.72334 0.0 46.61685
C 143.03028 0.0 39.9573
C 143.03028 0.0 42.62112
C 145.33722 0.0 43.95303
C 145.33722 0.0 46.61685
C 147.64416 0.0 39.9573
C 147.64416 0.0 42.62112
C 149.9511 0.0 43.95303
C 149.9511 0.0 46.61685
C 152.25804 0.0 39.9573
C 152.25804 0.0 42.62112
C 154.56498 0.0 43.95303
C 154.56498 0.0 46.61685
C 156.87192 0.0 39.9573
C 156.87192 0.0 42.62112
C 159.17886 0.0 43.95303
C 159.17886 0.0 46.61685
C 0.0 0.0 47.94876
C 0.0 0.0 50.61258
C 2.30694 0.0 51.94449
C 2.30694 0.0 54.60831
C 4.61388 0.0 47.94876
C 4.61388 0.0 50.61258
C 6.92082 0.0 51.94449
C 6.92082 0.0 54.60831
C 9.22776 0.0 47.94876
C 9.22776 0.0 50.61258
C 11.5347 0.0 51.94449
C 11.5347 0.0 54.60831
C 13.84164 0.0 47.94876
C 13.84164 0.0 50.61258
C 16.14858 0.0 51.94449
C 16.14858 0.0 54.60831
C 18.45552 0.0 47.94876
C 18.45552 0.0 50.61258
C 20.76246 0.0 51.94449
C 20.76246 0.0 54.60831
C 23.0694 0.0 47.94876
C 23.0694 0.0 50.61258
C 25.37634 0.0 51.94449
C 25.37634 0.0 54.60831
C 27.68328 0.0 47.94876
C 27.68328 0.0 50.61258
C 29.99022 0.0 51.94449
C 29.99022 0.0 54.60831
C 32.29716 0.0 47.94876
C 32.29716 0.0 50.61258
C 34.6041 0.0 51.94449
C 34.6041 0.0 54.60831
C 36.91104 0.0 47.94876
C 36.91104 0.0 50.61258
C 39.21798 0.0 51.94449
C 39.21798 0.0 54.60831
C 41.52492 0.0 47.94876
C 41.52492 0.0 50.61258
C 43.83186 0.0 51.94449
C 43.83186 0.0 54.60831
C 46.1388 0.0 47.94876
C 46.1388 0.0 50.61258
C 48.44574 0.0 51.94449
C 48.44574 0.0 54.60831
C 50.75268 0.0 47.94876
C 50.75268 0.0 50.61258
C 53.05962 0.0 51.94449
C 53.05962 0.0 54.60831
C 55.36656 0.0 47.94876
C 55.36656 0.0 50.61258
C 57.6735 0.0 51.94449
C 57.6735 0.0 54.60831
C 59.98044 0.0 47.94876
C 59.98044 0.0 50.61258
C 62.28738 0.0 51.94449
C 62.28738 0.0 54.60831
C 64.59432 0.0 47.94876
C 64.59432 0.0 50.61258
C 66.90126 0.0 51.94449
C 66.90126 0.0 54.60831
C 69.2082 0.0 47.94876
C 69.2082 0.0 50.61258
C 71.51514 0.0 51.94449
C 71.51514 0.0 54.60831
C 73.82208 0.0 47.94876
C 73.82208 0.0 50.61258
C 76.12902 0.0 51.94449
C 76.12902 0.0 54.60831
C 78.43596 0.0 47.94876
C 78.43596 0.0 50.61258
C 80.7429 0.0 51.94449
C 80.7429 0.0 54.60831
C 83.04984 0.0 47.94876
C 83.04984 0.0 50.61258
C 85.35678 0.0 51.94449
C 85.35678 0.0 54.60831
C 87.66372 0.0 47.94876
C 87.66372 0.0 50.61258
C 89.97066 0.0 51.94449
C 89.97066 0.0 54.60831
C 92.2776 0.0 47.94876
C 92.2776 0.0 50.61258
C 94.58454 0.0 51.94449
C 94.58454 0.0 54.60831
C 96.89148 0.0 47.94876
C 96.89148 0.0 50.61258
C 99.19842 0.0 51.94449
C 99.19842 0.0 54.60831
C 101.50536 0.0 47.94876
C 101.50536 0.0 50.61258
C 103.8123 0.0 51.94449
C 103.8123 0.0 54.60831
C 106.11924 0.0 47.94876
C 106.11924 0.0 50.61258
C 108.42618 0.0 51.94449
C 108.42618 0.0 54.60831
C 110.73312 0.0 47.94876
C 110.73312 0.0 50.61258
C 113.04006 0.0 51.94449
C 113.04006 0.0 54.60831
C 115.347 0.0 47.94876
C 115.347 0.0 50.61258
C 117.65394 0.0 51.94449
C 117.65394 0.0 54.60831
C 119.96088 0.0 47.94876
C 119.96088 0.0 50.61258
C 122.26782 0.0 51.94449
C 122.26782 0.0 54.60831
C 124.57476 0.0 47.94876
C 124.57476 0.0 50.61258
C 126.8817 0.0 51.94449
C 126.8817 0.0 54.60831
C 129.18864 0.0 47.94876
C 129.18864 0.0 50.61258
C 131.49558 0.0 51.94449
C 131.49558 0.0 54.60831
C 133.80252 0.0 47.94876
C 133.80252 0.0 50.61258
C 136.10946 0.0 51.94449
C 136.10946 0.0 54.60831
C 138.4164 0.0 47.94876
C 138.4164 0.0 50.61258
C 140.72334 0.0 51.94449
C 140.72334 0.0 54.60831
C 143.03028 0.0 47.94876
C 143.03028 0.0 50.61258
C 145.33722 0.0 51.94449
C 145.33722 0.0 54.60831
C 147.64416 0.0 47.94876
C 147.64416 0.0 50.61258
C 149.9511 0.0 51.94449
C 149.9511 0.0 54.60831
C 152.25804 0.0 47.94876
C 152.25804 0.0 50.61258
C 154.56498 0.0 51.94449
C 154.56498 0.0 54.60831
C 156.87192 0.0 47.94876
C 156.87192 0.0 50.61258
C 159.17886 0.0 51.94449
C 159.17886 0.0 54.60831
C 0.0 0.0 55.94022
C 0.0 0.0 58.60404
C 2.30694 0.0 59.93595
C 2.30694 0.0 62.59977
C 4.61388 0.0 55.94022
C 4.61388 0.0 58.60404
C 6.92082 0.0 59.93595
C 6.92082 0.0 62.59977
C 9.22776 0.0 55.94022
C 9.22776 0.0 58.60404
C 11.5347 0.0 59.93595
C 11.5347 0.0 62.59977
C 13.84164 0.0 55.94022
C 13.84164 0.0 58.60404
C 16.14858 0.0 59.93595
C 16.14858 0.0 62.59977
C 18.45552 0.0 55.94022
C 18.45552 0.0 58.60404
C 20.76246 0.0 59.93595
C 20.76246 0.0 62.59977
C 23.0694 0.0 55.94022
C 23.0694 0.0 58.60404
C 25.37634 0.0 59.93595
C 25.37634 0.0 62.59977
C 27.68328 0.0 55.94022
C 27.68328 0.0 58.60404
C 29.99022 0.0 59.93595
C 29.99022 0.0 62.59977
C 32.29716 0.0 55.94022
C 32.29716 0.0 58.60404
C 34.6041 0.0 59.93595
C 34.6041 0.0 62.59977
C 36.91104 0.0 55.94022
C 36.91104 0.0 58.60404
C 39.21798 0.0 59.93595
C 39.21798 0.0 62.59977
C 41.52492 0.0 55.94022
C 41.52492 0.0 58.60404
C 43.83186 0.0 59.93595
C 43.83186 0.0 62.59977
C 46.1388 0.0 55.94022
C 46.1388 0.0 58.60404
C 48.44574 0.0 59.93595
C 48.44574 0.0 62.59977
C 50.75268 0.0 55.94022
C 50.75268 0.0 58.60404
C 53.05962 0.0 59.93595
C 53.05962 0.0 62.59977
C 55.36656 0.0 55.94022
C 55.36656 0.0 58.60404
C 57.6735 0.0 59.93595
C 57.6735 0.0 62.59977
C 59.98044 0.0 55.94022
C 59.98044 0.0 58.60404
C 62.28738 0.0 59.93595
C 62.28738 0.0 62.59977
C 64.59432 0.0 55.94022
C 64.59432 0.0 58.60404
C 66.90126 0.0 59.93595
C 66.90126 0.0 62.59977
C 69.2082 0.0 55.94022
C 69.2082 0.0 58.60404
C 71.51514 0.0 59.93595
C 71.51514 0.0 62.59977
C 73.82208 0.0 55.94022
C 73.82208 0.0 58.60404
C 76.12902 0.0 59.93595
C 76.12902 0.0 62.59977
C 78.43596 0.0 55.94022
C 78.43596 0.0 58.60404
C 80.7429 0.0 59.93595
C 80.7429 0.0 62.59977
C 83.04984 0.0 55.94022
C 83.04984 0.0 58.60404
C 85.35678 0.0 59.93595
C 85.35678 0.0 62.59977
C 87.66372 0.0 55.94022
C 87.66372 0.0 58.60404
C 89.97066 0.0 59.93595
C 89.97066 0.0 62.59977
C 92.2776 0.0 55.94022
C 92.2776 0.0 58.60404
C 94.58454 0.0 59.93595
C 94.58454 0.0 62.59977
C 96.89148 0.0 55.94022
C 96.89148 0.0 58.60404
C 99.19842 0.0 59.93595
C 99.19842 0.0 62.59977
C 101.50536 0.0 55.94022
C 101.50536 0.0 58.60404
C 103.8123 0.0 59.93595
C 103.8123 0.0 62.59977
C 106.11924 0.0 55.94022
C 106.11924 0.0 58.60404
C 108.42618 0.0 59.93595
C 108.42618 0.0 62.59977
C 110.73312 0.0 55.94022
C 110.73312 0.0 58.60404
C 113.04006 0.0 59.93595
C 113.04006 0.0 62.59977
C 115.347 0.0 55.94022
C 115.347 0.0 58.60404
C 117.65394 0.0 59.93595
C 117.65394 0.0 62.59977
C 119.96088 0.0 55.94022
C 119.96088 0.0 58.60404
C 122.26782 0.0 59.93595
C 122.26782 0.0 62.59977
C 124.57476 0.0 55.94022
C 124.57476 0.0 58.60404
C 126.8817 0.0 59.93595
C 126.8817 0.0 62.59977
C 129.18864 0.0 55.94022
C 129.18864 0.0 58.60404
C 131.49558 0.0 59.93595
C 131.49558 0.0 62.59977
C 133.80252 0.0 55.94022
C 133.80252 0.0 58.60404
C 136.10946 0.0 59.93595
C 136.10946 0.0 62.59977
C 138.4164 0.0 55.94022
C 138.4164 0.0 58.60404
C 140.72334 0.0 59.93595
C 140.72334 0.0 62.59977
C 143.03028 0.0 55.94022
C 143.03028 0.0 58.60404
C 145.33722 0.0 59.93595
C 145.33722 0.0 62.59977
C 147.64416 0.0 55.94022
C 147.64416 0.0 58.60404
C 149.9511 0.0 59.93595
C 149.9511 0.0 62.59977
C 152.25804 0.0 55.94022
C 152.25804 0.0 58.60404
C 154.56498 0.0 59.93595
C 154.56498 0.0 62.59977
C 156.87192 0.0 55.94022
C 156.87192 0.0 58.60404
C 159.17886 0.0 59.93595
C 159.17886 0.0 62.59977
C 0.0 0.0 63.93168
C 0.0 0.0 66.5955
C 2.30694 0.0 67.92741
C 2.30694 0.0 70.59123
C 4.61388 0.0 63.93168
C 4.61388 0.0 66.5955
C 6.92082 0.0 67.92741
C 6.92082 0.0 70.59123
C 9.22776 0.0 63.93168
C 9.22776 0.0 66.5955
C 11.5347 0.0 67.92741
C 11.5347 0.0 70.59123
C 13.84164 0.0 63.93168
C 13.84164 0.0 66.5955
C 16.14858 0.0 67.92741
C 16.14858 0.0 70.59123
C 18.45552 0.0 63.93168
C 18.45552 0.0 66.5955
C 20.76246 0.0 67.92741
C 20.76246 0.0 70.59123
C 23.0694 0.0 63.93168
C 23.0694 0.0 66.5955
C 25.37634 0.0 67.92741
C 25.37634 0.0 70.59123
C 27.68328 0.0 63.93168
C 27.68328 0.0 66.5955
C 29.99022 0.0 67.92741
C 29.99022 0.0 70.59123
C 32.29716 0.0 63.93168
C 32.29716 0.0 66.5955
C 34.6041 0.0 67.92741
C 34.6041 0.0 70.59123
C 36.91104 0.0 63.93168
C 36.91104 0.0 66.5955
C 39.21798 0.0 67.92741
C 39.21798 0.0 70.59123
C 41.52492 0.0 63.93168
C 41.52492 0.0 66.5955
C 43.83186 0.0 67.92741
C 43.83186 0.0 70.59123
C 46.1388 0.0 63.93168
C 46.1388 0.0 66.5955
C 48.44574 0.0 67.92741
C 48.44574 0.0 70.59123
C 50.75268 0.0 63.93168
C 50.75268 0.0 66.5955
C 53.05962 0.0 67.92741
C 53.05962 0.0 70.59123
C 55.36656 0.0 63.93168
C 55.36656 0.0 66.5955
C 57.6735 0.0 67.92741
C 57.6735 0.0 70.59123
C 59.98044 0.0 63.93168
C 59.98044 0.0 66.5955
C 62.28738 0.0 67.92741
C 62.28738 0.0 70.59123
C 64.59432 0.0 63.93168
C 64.59432 0.0 66.5955
C 66.90126 0.0 67.92741
C 66.90126 0.0 70.59123
C 69.2082 0.0 63.93168
C 69.2082 0.0 66.5955
C 71.51514 0.0 67.92741
C 71.51514 0.0 70.59123
C 73.82208 0.0 63.93168
C 73.82208 0.0 66.5955
C 76.12902 0.0 67.92741
C 76.12902 0.0 70.59123
C 78.43596 0.0 63.93168
C 78.43596 0.0 66.5955
C 80.7429 0.0 67.92741
C 80.7429 0.0 70.59123
C 83.04984 0.0 63.93168
C 83.04984 0.0 66.5955
C 85.35678 0.0 67.92741
C 85.35678 0.0 70.59123
C 87.66372 0.0 63.93168
C 87.66372 0.0 66.5955
C 89.97066 0.0 67.92741
C 89.97066 0.0 70.59123
C 92.2776 0.0 63.93168
C 92.2776 0.0 66.5955
C 94.58454 0.0 67.92741
C 94.58454 0.0 70.59123
C 96.89148 0.0 63.93168
C 96.89148 0.0 66.5955
C 99.19842 0.0 67.92741
C 99.19842 0.0 70.59123
C 101.50536 0.0 63.93168
C 101.50536 0.0 66.5955
C 103.8123 0.0 67.92741
C 103.8123 0.0 70.59123
C 106.11924 0.0 63.93168
C 106.11924 0.0 66.5955
C 108.42618 0.0 67.92741
C 108.42618 0.0 70.59123
C 110.73312 0.0 63.93168
C 110.73312 0.0 66.5955
C 113.04006 0.0 67.92741
C 113.04006 0.0 70.59123
C 115.347 0.0 63.93168
C 115.347 0.0 66.5955
C 117.65394 0.0 67.92741
C 117.65394 0.0 70.59123
C 119.96088 0.0 63.93168
C 119.96088 0.0 66.5955
C 122.26782 0.0 67.92741
C 122.26782 0.0 70.59123
C 124.57476 0.0 63.93168
C 124.57476 0.0 66.5955
C 126.8817 0.0 67.92741
C 126.8817 0.0 70.59123
C 129.18864 0.0 63.93168
C 129.18864 0.0 66.5955
C 131.49558 0.0 67.92741
C 131.49558 0.0 70.59123
C 133.80252 0.0 63.93168
C 133.80252 0.0 66.5955
C 136.10946 0.0 67.92741
C 136.10946 0.0 70.59123
C 138.4164 0.0 63.93168
C 138.4164 0.0 66.5955
C 140.72334 0.0 67.92741
C 140.72334 0.0 70.59123
C 143.03028 0.0 63.93168
C 143.03028 0.0 66.5955
C 145.33722 0.0 67.92741
C 145.33722 0.0 70.59123
C 147.64416 0.0 63.93168
C 147.64416 0.0 66.5955
C 149.9511 0.0 67.92741
C 149.9511 0.0 70.59123
C 152.25804 0.0 63.93168
C 152.25804 0.0 66.5955
C 154.56498 0.0 67.92741
C 154.56498 0.0 70.59123
C 156.87192 0.0 63.93168
C 156.87192 0.0 66.5955
C 159.17886 0.0 67.92741
C 159.17886 0.0 70.59123
C 0.0 0.0 71.92314
C 0.0 0.0 74.58696
C 2.30694 0.0 75.91887
C 2.30694 0.0 78.58269
C 4.61388 0.0 71.92314
C 4.61388 0.0 74.58696
C 6.92082 0.0 75.91887
C 6.92082 0.0 78.58269
C 9.22776 0.0 71.92314
C 9.22776 0.0 74.58696
C 11.5347 0.0 75.91887
C 11.5347 0.0 78.58269
C 13.84164 0.0 71.92314
C 13.84164 0.0 74.58696
C 16.14858 0.0 75.91887
C 16.14858 0.0 78.58269
C 18.45552 0.0 71.92314
C 18.45552 0.0 74.58696
C 20.76246 0.0 75.91887
C 20.76246 0.0 78.58269
C 23.0694 0.0 71.92314
C 23.0694 0.0 74.58696
C 25.37634 0.0 75.91887
C 25.37634 0.0 78.58269
C 27.68328 0.0 71.92314
C 27.68328 0.0 74.58696
C 29.99022 0.0 75.91887
C 29.99022 0.0 78.58269
C 32.29716 0.0 71.92314
C 32.29716 0.0 74.58696
C 34.6041 0.0 75.91887
C 34.6041 0.0 78.58269
C 36.91104 0.0 71.92314
C 36.91104 0.0 74.58696
C 39.21798 0.0 75.91887
C 39.21798 0.0 78.58269
C 41.52492 0.0 71.92314
C 41.52492 0.0 74.58696
C 43.83186 0.0 75.91887
C 43.83186 0.0 78.58269
C 46.1388 0.0 71.92314
C 46.1388 0.0 74.58696
C 48.44574 0.0 75.91887
C 48.44574 0.0 78.58269
C 50.75268 0.0 71.92314
C 50.75268 0.0 74.58696
C 53.05962 0.0 75.91887
C 53.05962 0.0 78.58269
C 55.36656 0.0 71.92314
C 55.36656 0.0 74.58696
C 57.6735 0.0 75.91887
C 57.6735 0.0 78.58269
C 59.98044 0.0 71.92314
C 59.98044 0.0 74.58696
C 62.28738 0.0 75.91887
C 62.28738 0.0 78.58269
C 64.59432 0.0 71.92314
C 64.59432 0.0 74.58696
C 66.90126 0.0 75.91887
C 66.90126 0.0 78.58269
C 69.2082 0.0 71.92314
C 69.2082 0.0 74.58696
C 71.51514 0.0 75.91887
C 71.51514 0.0 78.58269
C 73.82208 0.0 71.92314
C 73.82208 0.0 74.58696
C 76.12902 0.0 75.91887
C 76.12902 0.0 78.58269
C 78.43596 0.0 71.92314
C 78.43596 0.0 74.58696
C 80.7429 0.0 75.91887
C 80.7429 0.0 78.58269
C 83.04984 0.0 71.92314
C 83.04984 0.0 74.58696
C 85.35678 0.0 75.91887
C 85.35678 0.0 78.58269
C 87.66372 0.0 71.92314
C 87.66372 0.0 74.58696
C 89.97066 0.0 75.91887
C 89.97066 0.0 78.58269
C 92.2776 0.0 71.92314
C 92.2776 0.0 74.58696
C 94.58454 0.0 75.91887
C 94.58454 0.0 78.58269
C 96.89148 0.0 71.92314
C 96.89148 0.0 74.58696
C 99.19842 0.0 75.91887
C 99.19842 0.0 78.58269
C 101.50536 0.0 71.92314
C 101.50536 0.0 74.58696
C 103.8123 0.0 75.91887
C 103.8123 0.0 78.58269
C 106.11924 0.0 71.92314
C 106.11924 0.0 74.58696
C 108.42618 0.0 75.91887
C 108.42618 0.0 78.58269
C 110.73312 0.0 71.92314
C 110.73312 0.0 74.58696
C 113.04006 0.0 75.91887
C 113.04006 0.0 78.58269
C 115.347 0.0 71.92314
C 115.347 0.0 74.58696
C 117.65394 0.0 75.91887
C 117.65394 0.0 78.58269
C 119.96088 0.0 71.92314
C 119.96088 0.0 74.58696
C 122.26782 0.0 75.91887
C 122.26782 0.0 78.58269
C 124.57476 0.0 71.92314
C 124.57476 0.0 74.58696
C 126.8817 0.0 75.91887
C 126.8817 0.0 78.58269
C 129.18864 0.0 71.92314
C 129.18864 0.0 74.58696
C 131.49558 0.0 75.91887
C 131.49558 0.0 78.58269
C 133.80252 0.0 71.92314
C 133.80252 0.0 74.58696
C 136.10946 0.0 75.91887
C 136.10946 0.0 78.58269
C 138.4164 0.0 71.92314
C 138.4164 0.0 74.58696
C 140.72334 0.0 75.91887
C 140.72334 0.0 78.58269
C 143.03028 0.0 71.92314
C 143.03028 0.0 74.58696
C 145.33722 0.0 75.91887
C 145.33722 0.0 78.58269
C 147.64416 0.0 71.92314
C 147.64416 0.0 74.58696
C 149.9511 0.0 75.91887
C 149.9511 0.0 78.58269
C 152.25804 0.0 71.92314
C 152.25804 0.0 74.58696
C 154.56498 0.0 75.91887
C 154.56498 0.0 78.58269
C 156.87192 0.0 71.92314
C 156.87192 0.0 74.58696
C 159.17886 0.0 75.91887
C 159.17886 0.0 78.58269
C 0.0 0.0 79.9146
C 0.0 0.0 82.57842
C 2.30694 0.0 83.91033
C 2.30694 0.0 86.57415
C 4.61388 0.0 79.9146
C 4.61388 0.0 82.57842
C 6.92082 0.0 83.91033
C 6.92082 0.0 86.57415
C 9.22776 0.0 79.9146
C 9.22776 0.0 82.57842
C 11.5347 0.0 83.91033
C 11.5347 0.0 86.57415
C 13.84164 0.0 79.9146
C 13.84164 0.0 82.57842
C 16.14858 0.0 83.91033
C 16.14858 0.0 86.57415
C 18.45552 0.0 79.9146
C 18.45552 0.0 82.57842
C 20.76246 0.0 83.91033
C 20.76246 0.0 86.57415
C 23.0694 0.0 79.9146
C 23.0694 0.0 82.57842
C 25.37634 0.0 83.91033
C 25.37634 0.0 86.57415
C 27.68328 0.0 79.9146
C 27.68328 0.0 82.57842
C 29.99022 0.0 83.91033
C 29.99022 0.0 86.57415
C 32.29716 0.0 79.9146
C 32.29716 0.0 82.57842
C 34.6041 0.0 83.91033
C 34.6041 0.0 86.57415
C 36.91104 0.0 79.9146
C 36.91104 0.0 82.57842
C 39.21798 0.0 83.91033
C 39.21798 0.0 86.57415
C 41.52492 0.0 79.9146
C 41.52492 0.0 82.57842
C 43.83186 0.0 83.91033
C 43.83186 0.0 86.57415
C 46.1388 0.0 79.9146
C 46.1388 0.0 82.57842
C 48.44574 0.0 83.91033
C 48.44574 0.0 86.57415
C 50.75268 0.0 79.9146
C 50.75268 0.0 82.57842
C 53.05962 0.0 83.91033
C 53.05962 0.0 86.57415
C 55.36656 0.0 79.9146
C 55.36656 0.0 82.57842
C 57.6735 0.0 83.91033
C 57.6735 0.0 86.57415
C 59.98044 0.0 79.9146
C 59.98044 0.0 82.57842
C 62.28738 0.0 83.91033
C 62.28738 0.0 86.57415
C 64.59432 0.0 79.9146
C 64.59432 0.0 82.57842
C 66.90126 0.0 83.91033
C 66.90126 0.0 86.57415
C 69.2082 0.0 79.9146
C 69.2082 0.0 82.57842
C 71.51514 0.0 83.91033
C 71.51514 0.0 86.57415
C 73.82208 0.0 79.9146
C 73.82208 0.0 82.57842
C 76.12902 0.0 83.91033
C 76.12902 0.0 86.57415
C 78.43596 0.0 79.9146
C 78.43596 0.0 82.57842
C 80.7429 0.0 83.91033
C 80.7429 0.0 86.57415
C 83.04984 0.0 79.9146
C 83.04984 0.0 82.57842
C 85.35678 0.0 83.91033
C 85.35678 0.0 86.57415
C 87.66372 0.0 79.9146
C 87.66372 0.0 82.57842
C 89.97066 0.0 83.91033
C 89.97066 0.0 86.57415
C 92.2776 0.0 79.9146
C 92.2776 0.0 82.57842
C 94.58454 0.0 83.91033
C 94.58454 0.0 86.57415
C 96.89148 0.0 79.9146
C 96.89148 0.0 82.57842
C 99.19842 0.0 83.91033
C 99.19842 0.0 86.57415
C 101.50536 0.0 79.9146
C 101.50536 0.0 82.57842
C 103.8123 0.0 83.91033
C 103.8123 0.0 86.57415
C 106.11924 0.0 79.9146
C 106.11924 0.0 82.57842
C 108.42618 0.0 83.91033
C 108.42618 0.0 86.57415
C 110.73312 0.0 79.9146
C 110.73312 0.0 82.57842
C 113.04006 0.0 83.91033
C 113.04006 0.0 86.57415
C 115.347 0.0 79.9146
C 115.347 0.0 82.57842
C 117.65394 0.0 83.91033
C 117.65394 0.0 86.57415
C 119.96088 0.0 79.9146
C 119.96088 0.0 82.57842
C 122.26782 0.0 83.91033
C 122.26782 0.0 86.57415
C 124.57476 0.0 79.9146
C 124.57476 0.0 82.57842
C 126.8817 0.0 83.91033
C 126.8817 0.0 86.57415
C 129.18864 0.0 79.9146
C 129.18864 0.0 82.57842
C 131.49558 0.0 83.91033
C 131.49558 0.0 86.57415
C 133.80252 0.0 79.9146
C 133.80252 0.0 82.57842
C 136.10946 0.0 83.91033
C 136.10946 0.0 86.57415
C 138.4164 0.0 79.9146
C 138.4164 0.0 82.57842
C 140.72334 0.0 83.91033
C 140.72334 0.0 86.57415
C 143.03028 0.0 79.9146
C 143.03028 0.0 82.57842
C 145.33722 0.0 83.91033
C 145.33722 0.0 86.57415
C 147.64416 0.0 79.9146
C 147.64416 0.0 82.57842
C 149.9511 0.0 83.91033
C 149.9511 0.0 86.57415
C 152.25804 0.0 79.9146
C 152.25804 0.0 82.57842
C 154.56498 0.0 83.91033
C 154.56498 0.0 86.57415
C 156.87192 0.0 79.9146
C 156.87192 0.0 82.57842
C 159.17886 0.0 83.91033
C 159.17886 0.0 86.57415
C 0.0 0.0 87.90606
C 0.0 0.0 90.56988
C 2.30694 0.0 91.90179
C 2.30694 0.0 94.56561
C 4.61388 0.0 87.90606
C 4.61388 0.0 90.56988
C 6.92082 0.0 91.90179
C 6.92082 0.0 94.56561
C 9.22776 0.0 87.90606
C 9.22776 0.0 90.56988
C 11.5347 0.0 91.90179
C 11.5347 0.0 94.56561
C 13.84164 0.0 87.90606
C 13.84164 0.0 90.56988
C 16.14858 0.0 91.90179
C 16.14858 0.0 94.56561
C 18.45552 0.0 87.90606
C 18.45552 0.0 90.56988
C 20.76246 0.0 91.90179
C 20.76246 0.0 94.56561
C 23.0694 0.0 87.90606
C 23.0694 0.0 90.56988
C 25.37634 0.0 91.90179
C 25.37634 0.0 94.56561
C 27.68328 0.0 87.90606
C 27.68328 0.0 90.56988
C 29.99022 0.0 91.90179
C 29.99022 0.0 94.56561
C 32.29716 0.0 87.90606
C 32.29716 0.0 90.56988
C 34.6041 0.0 91.90179
C 34.6041 0.0 94.56561
C 36.91104 0.0 87.90606
C 36.91104 0.0 90.56988
C 39.21798 0.0 91.90179
C 39.21798 0.0 94.56561
C 41.52492 0.0 87.90606
C 41.52492 0.0 90.56988
C 43.83186 0.0 91.90179
C 43.83186 0.0 94.56561
C 46.1388 0.0 87.90606
C 46.1388 0.0 90.56988
C 48.44574 0.0 91.90179
C 48.44574 0.0 94.56561
C 50.75268 0.0 87.90606
C 50.75268 0.0 90.56988
C 53.05962 0.0 91.90179
C 53.05962 0.0 94.56561
C 55.36656 0.0 87.90606
C 55.36656 0.0 90.56988
C 57.6735 0.0 91.90179
C 57.6735 0.0 94.56561
C 59.98044 0.0 87.90606
C 59.98044 0.0 90.56988
C 62.28738 0.0 91.90179
C 62.28738 0.0 94.56561
C 64.59432 0.0 87.90606
C 64.59432 0.0 90.56988
C 66.90126 0.0 91.90179
C 66.90126 0.0 94.56561
C 69.2082 0.0 87.90606
C 69.2082 0.0 90.56988
C 71.51514 0.0 91.90179
C 71.51514 0.0 94.56561
C 73.82208 0.0 87.90606
C 73.82208 0.0 90.56988
C 76.12902 0.0 91.90179
C 76.12902 0.0 94.56561
C 78.43596 0.0 87.90606
C 78.43596 0.0 90.56988
C 80.7429 0.0 91.90179
C 80.7429 0.0 94.56561
C 83.04984 0.0 87.90606
C 83.04984 0.0 90.56988
C 85.35678 0.0 91.90179
C 85.35678 0.0 94.56561
C 87.66372 0.0 87.90606
C 87.66372 0.0 90.56988
C 89.97066 0.0 91.90179
C 89.97066 0.0 94.56561
C 92.2776 0.0 87.90606
C 92.2776 0.0 90.56988
C 94.58454 0.0 91.90179
C 94.58454 0.0 94.56561
C 96.89148 0.0 87.90606
C 96.89148 0.0 90.56988
C 99.19842 0.0 91.90179
C 99.19842 0.0 94.56561
C 101.50536 0.0 87.90606
C 101.50536 0.0 90.56988
C 103.8123 0.0 91.90179
C 103.8123 0.0 94.56561
C 106.11924 0.0 87.90606
C 106.11924 0.0 90.56988
C 108.42618 0.0 91.90179
C 108.42618 0.0 94.56561
C 110.73312 0.0 87.90606
C 110.73312 0.0 90.56988
C 113.04006 0.0 91.90179
C 113.04006 0.0 94.56561
C 115.347 0.0 87.90606
C 115.347 0.0 90.56988
C 117.65394 0.0 91.90179
C 117.65394 0.0 94.56561
C 119.96088 0.0 87.90606
C 119.96088 0.0 90.56988
C 122.26782 0.0 91.90179
C 122.26782 0.0 94.56561
C 124.57476 0.0 87.90606
C 124.57476 0.0 90.56988
C 126.8817 0.0 91.90179
C 126.8817 0.0 94.56561
C 129.18864 0.0 87.90606
C 129.18864 0.0 90.56988
C 131.49558 0.0 91.90179
C 131.49558 0.0 94.56561
C 133.80252 0.0 87.90606
C 133.80252 0.0 90.56988
C 136.10946 0.0 91.90179
C 136.10946 0.0 94.56561
C 138.4164 0.0 87.90606
C 138.4164 0.0 90.56988
C 140.72334 0.0 91.90179
C 140.72334 0.0 94.56561
C 143.03028 0.0 87.90606
C 143.03028 0.0 90.56988
C 145.33722 0.0 91.90179
C 145.33722 0.0 94.56561
C 147.64416 0.0 87.90606
C 147.64416 0.0 90.56988
C 149.9511 0.0 91.90179
C 149.9511 0.0 94.56561
C 152.25804 0.0 87.90606
C 152.25804 0.0 90.56988
C 154.56498 0.0 91.90179
C 154.56498 0.0 94.56561
C 156.87192 0.0 87.90606
C 156.87192 0.0 90.56988
C 159.17886 0.0 91.90179
C 159.17886 0.0 94.56561
C 0.0 0.0 95.89752
C 0.0 0.0 98.56134
C 2.30694 0.0 99.89325
C 2.30694 0.0 102.55707
C 4.61388 0.0 95.89752
C 4.61388 0.0 98.56134
C 6.92082 0.0 99.89325
C 6.92082 0.0 102.55707
C 9.22776 0.0 95.89752
C 9.22776 0.0 98.56134
C 11.5347 0.0 99.89325
C 11.5347 0.0 102.55707
C 13.84164 0.0 95.89752
C 13.84164 0.0 98.56134
C 16.14858 0.0 99.89325
C 16.14858 0.0 102.55707
C 18.45552 0.0 95.89752
C 18.45552 0.0 98.56134
C 20.76246 0.0 99.89325
C 20.76246 0.0 102.55707
C 23.0694 0.0 95.89752
C 23.0694 0.0 98.56134
C 25.37634 0.0 99.89325
C 25.37634 0.0 102.55707
C 27.68328 0.0 95.89752
C 27.68328 0.0 98.56134
C 29.99022 0.0 99.89325
C 29.99022 0.0 102.55707
C 32.29716 0.0 95.89752
C 32.29716 0.0 98.56134
C 34.6041 0.0 99.89325
C 34.6041 0.0 102.55707
C 36.91104 0.0 95.89752
C 36.91104 0.0 98.56134
C 39.21798 0.0 99.89325
C 39.21798 0.0 102.55707
C 41.52492 0.0 95.89752
C 41.52492 0.0 98.56134
C 43.83186 0.0 99.89325
C 43.83186 0.0 102.55707
C 46.1388 0.0 95.89752
C 46.1388 0.0 98.56134
C 48.44574 0.0 99.89325
C 48.44574 0.0 102.55707
C 50.75268 0.0 95.89752
C 50.75268 0.0 98.56134
C 53.05962 0.0 99.89325
C 53.05962 0.0 102.55707
C 55.36656 0.0 95.89752
C 55.36656 0.0 98.56134
C 57.6735 0.0 99.89325
C 57.6735 0.0 102.55707
C 59.98044 0.0 95.89752
C 59.98044 0.0 98.56134
C 62.28738 0.0 99.89325
C 62.28738 0.0 102.55707
C 64.59432 0.0 95.89752
C 64.59432 0.0 98.56134
C 66.90126 0.0 99.89325
C 66.90126 0.0 102.55707
C 69.2082 0.0 95.89752
C 69.2082 0.0 98.56134
C 71.51514 0.0 99.89325
C 71.51514 0.0 102.55707
C 73.82208 0.0 95.89752
C 73.82208 0.0 98.56134
C 76.12902 0.0 99.89325
C 76.12902 0.0 102.55707
C 78.43596 0.0 95.89752
C 78.43596 0.0 98.56134
C 80.7429 0.0 99.89325
C 80.7429 0.0 102.55707
C 83.04984 0.0 95.89752
C 83.04984 0.0 98.56134
C 85.35678 0.0 99.89325
C 85.35678 0.0 102.55707
C 87.66372 0.0 95.89752
C 87.66372 0.0 98.56134
C 89.97066 0.0 99.89325
C 89.97066 0.0 102.55707
C 92.2776 0.0 95.89752
C 92.2776 0.0 98.56134
C 94.58454 0.0 99.89325
C 94.58454 0.0 102.55707
C 96.89148 0.0 95.89752
C 96.89148 0.0 98.56134
C 99.19842 0.0 99.89325
C 99.19842 0.0 102.55707
C 101.50536 0.0 95.89752
C 101.50536 0.0 98.56134
C 103.8123 0.0 99.89325
C 103.8123 0.0 102.55707
C 106.11924 0.0 95.89752
C 106.11924 0.0 98.56134
C 108.42618 0.0 99.89325
C 108.42618 0.0 102.55707
C 110.73312 0.0 95.89752
C 110.73312 0.0 98.56134
C 113.04006 0.0 99.89325
C 113.04006 0.0 102.55707
C 115.347 0.0 95.89752
C 115.347 0.0 98.56134
C 117.65394 0.0 99.89325
C 117.65394 0.0 102.55707
C 119.96088 0.0 95.89752
C 119.96088 0.0 98.56134
C 122.26782 0.0 99.89325
C 122.26782 0.0 102.55707
C 124.57476 0.0 95.89752
C 124.57476 0.0 98.56134
C 126.8817 0.0 99.89325
C 126.8817 0.0 102.55707
C 129.18864 0.0 95.89752
C 129.18864 0.0 98.56134
C 131.49558 0.0 99.89325
C 131.49558 0.0 102.55707
C 133.80252 0.0 95.89752
C 133.80252 0.0 98.56134
C 136.10946 0.0 99.89325
C 136.10946 0.0 102.55707
C 138.4164 0.0 95.89752
C 138.4164 0.0 98.56134
C 140.72334 0.0 99.89325
C 140.72334 0.0 102.55707
C 143.03028 0.0 95.89752
C 143.03028 0.0 98.56134
C 145.33722 0.0 99.89325
C 145.33722 0.0 102.55707
C 147.64416 0.0 95.89752
C 147.64416 0.0 98.56134
C 149.9511 0.0 99.89325
C 149.9511 0.0 102.55707
C 152.25804 0.0 95.89752
C 152.25804 0.0 98.56134
C 154.56498 0.0 99.89325
C 154.56498 0.0 102.55707
C 156.87192 0.0 95.89752
C 156.87192 0.0 98.56134
C 159.17886 0.0 99.89325
C 159.17886 0.0 102.55707
C 0.0 0.0 103.88898
C 0.0 0.0 106.5528
C 2.30694 0.0 107.88471
C 2.30694 0.0 110.54853
C 4.61388 0.0 103.88898
C 4.61388 0.0 106.5528
C 6.92082 0.0 107.88471
C 6.92082 0.0 110.54853
C 9.22776 0.0 103.88898
C 9.22776 0.0 106.5528
C 11.5347 0.0 107.88471
C 11.5347 0.0 110.54853
C 13.84164 0.0 103.88898
C 13.84164 0.0 106.5528
C 16.14858 0.0 107.88471
C 16.14858 0.0 110.54853
C 18.45552 0.0 103.88898
C 18.45552 0.0 106.5528
C 20.76246 0.0 107.88471
C 20.76246 0.0 110.54853
C 23.0694 0.0 103.88898
C 23.0694 0.0 106.5528
C 25.37634 0.0 107.88471
C 25.37634 0.0 110.54853
C 27.68328 0.0 103.88898
C 27.68328 0.0 106.5528
C 29.99022 0.0 107.88471
C 29.99022 0.0 110.54853
C 32.29716 0.0 103.88898
C 32.29716 0.0 106.5528
C 34.6041 0.0 107.88471
C 34.6041 0.0 110.54853
C 36.91104 0.0 103.88898
C 36.91104 0.0 106.5528
C 39.21798 0.0 107.88471
C 39.21798 0.0 110.54853
C 41.52492 0.0 103.88898
C 41.52492 0.0 106.5528
C 43.83186 0.0 107.88471
C 43.83186 0.0 110.54853
C 46.1388 0.0 103.88898
C 46.1388 0.0 106.5528
C 48.44574 0.0 107.88471
C 48.44574 0.0 110.54853
C 50.75268 0.0 103.88898
C 50.75268 0.0 106.5528
C 53.05962 0.0 107.88471
C 53.05962 0.0 110.54853
C 55.36656 0.0 103.88898
C 55.36656 0.0 106.5528
C 57.6735 0.0 107.88471
C 57.6735 0.0 110.54853
C 59.98044 0.0 103.88898
C 59.98044 0.0 106.5528
C 62.28738 0.0 107.88471
C 62.28738 0.0 110.54853
C 64.59432 0.0 103.88898
C 64.59432 0.0 106.5528
C 66.90126 0.0 107.88471
C 66.90126 0.0 110.54853
C 69.2082 0.0 103.88898
C 69.2082 0.0 106.5528
C 71.51514 0.0 107.88471
C 71.51514 0.0 110.54853
C 73.82208 0.0 103.88898
C 73.82208 0.0 106.5528
C 76.12902 0.0 107.88471
C 76.12902 0.0 110.54853
C 78.43596 0.0 103.88898
C 78.43596 0.0 106.5528
C 80.7429 0.0 107.88471
C 80.7429 0.0 110.54853
C 83.04984 0.0 103.88898
C 83.04984 0.0 106.5528
C 85.35678 0.0 107.88471
C 85.35678 0.0 110.54853
C 87.66372 0.0 103.88898
C 87.66372 0.0 106.5528
C 89.97066 0.0 107.88471
C 89.97066 0.0 110.54853
C 92.2776 0.0 103.88898
C 92.2776 0.0 106.5528
C 94.58454 0.0 107.88471
C 94.58454 0.0 110.54853
C 96.89148 0.0 103.88898
C 96.89148 0.0 106.5528
C 99.19842 0.0 107.88471
C 99.19842 0.0 110.54853
C 101.50536 0.0 103.88898
C 101.50536 0.0 106.5528
C 103.8123 0.0 107.88471
C 103.8123 0.0 110.54853
C 106.11924 0.0 103.88898
C 106.11924 0.0 106.5528
C 108.42618 0.0 107.88471
C 108.42618 0.0 110.54853
C 110.73312 0.0 103.88898
C 110.73312 0.0 106.5528
C 113.04006 0.0 107.88471
C 113.04006 0.0 110.54853
C 115.347 0.0 103.88898
C 115.347 0.0 106.5528
C 117.65394 0.0 107.88471
C 117.65394 0.0 110.54853
C 119.96088 0.0 103.88898
C 119.96088 0.0 106.5528
C 122.26782 0.0 107.88471
C 122.26782 0.0 110.54853
C 124.57476 0.0 103.88898
C 124.57476 0.0 106.5528
C 126.8817 0.0 107.88471
C 126.8817 0.0 110.54853
C 129.18864 0.0 103.88898
C 129.18864 0.0 106.5528
C 131.49558 0.0 107.88471
C 131.49558 0.0 110.54853
C 133.80252 0.0 103.88898
C 133.80252 0.0 106.5528
C 136.10946 0.0 107.88471
C 136.10946 0.0 110.54853
C 138.4164 0.0 103.88898
C 138.4164 0.0 106.5528
C 140.72334 0.0 107.88471
C 140.72334 0.0 110.54853
C 143.03028 0.0 103.88898
C 143.03028 0.0 106.5528
C 145.33722 0.0 107.88471
C 145.33722 0.0 110.54853
C 147.64416 0.0 103.88898
C 147.64416 0.0 106.5528
C 149.9511 0.0 107.88471
C 149.9511 0.0 110.54853
C 152.25804 0.0 103.88898
C 152.25804 0.0 106.5528
C 154.56498 0.0 107.88471
C 154.56498 0.0 110.54853
C 156.87192 0.0 103.88898
C 156.87192 0.0 106.5528
C 159.17886 0.0 107.88471
C 159.17886 0.0 110.54853
C 0.0 0.0 111.88044
C 0.0 0.0 114.54426
C 2.30694 0.0 115.87617
C 2.30694 0.0 118.53999
C 4.61388 0.0 111.88044
C 4.61388 0.0 114.54426
C 6.92082 0.0 115.87617
C 6.92082 0.0 118.53999
C 9.22776 0.0 111.88044
C 9.22776 0.0 114.54426
C 11.5347 0.0 115.87617
C 11.5347 0.0 118.53999
C 13.84164 0.0 111.88044
C 13.84164 0.0 114.54426
C 16.14858 0.0 115.87617
C 16.14858 0.0 118.53999
C 18.45552 0.0 111.88044
C 18.45552 0.0 114.54426
C 20.76246 0.0 115.87617
C 20.76246 0.0 118.53999
C 23.0694 0.0 111.88044
C 23.0694 0.0 114.54426
C 25.37634 0.0 115.87617
C 25.37634 0.0 118.53999
C 27.68328 0.0 111.88044
C 27.68328 0.0 114.54426
C 29.99022 0.0 115.87617
C 29.99022 0.0 118.53999
C 32.29716 0.0 111.88044
C 32.29716 0.0 114.54426
C 34.6041 0.0 115.87617
C 34.6041 0.0 118.53999
C 36.91104 0.0 111.88044
C 36.91104 0.0 114.54426
C 39.21798 0.0 115.87617
C 39.21798 0.0 118.53999
C 41.52492 0.0 111.88044
C 41.52492 0.0 114.54426
C 43.83186 0.0 115.87617
C 43.83186 0.0 118.53999
C 46.1388 0.0 111.88044
C 46.1388 0.0 114.54426
C 48.44574 0.0 115.87617
C 48.44574 0.0 118.53999
C 50.75268 0.0 111.88044
C 50.75268 0.0 114.54426
C 53.05962 0.0 115.87617
C 53.05962 0.0 118.53999
C 55.36656 0.0 111.88044
C 55.36656 0.0 114.54426
C 57.6735 0.0 115.87617
C 57.6735 0.0 118.53999
C 59.98044 0.0 111.88044
C 59.98044 0.0 114.54426
C 62.28738 0.0 115.87617
C 62.28738 0.0 118.53999
C 64.59432 0.0 111.88044
C 64.59432 0.0 114.54426
C 66.90126 0.0 115.87617
C 66.90126 0.0 118.53999
C 69.2082 0.0 111.88044
C 69.2082 0.0 114.54426
C 71.51514 0.0 115.87617
C 71.51514 0.0 118.53999
C 73.82208 0.0 111.88044
C 73.82208 0.0 114.54426
C 76.12902 0.0 115.87617
C 76.12902 0.0 118.53999
C 78.43596 0.0 111.88044
C 78.43596 0.0 114.54426
C 80.7429 0.0 115.87617
C 80.7429 0.0 118.53999
C 83.04984 0.0 111.88044
C 83.04984 0.0 114.54426
C 85.35678 0.0 115.87617
C 85.35678 0.0 118.53999
C 87.66372 0.0 111.88044
C 87.66372 0.0 114.54426
C 89.97066 0.0 115.87617
C 89.97066 0.0 118.53999
C 92.2776 0.0 111.88044
C 92.2776 0.0 114.54426
C 94.58454 0.0 115.87617
C 94.58454 0.0 118.53999
C 96.89148 0.0 111.88044
C 96.89148 0.0 114.54426
C 99.19842 0.0 115.87617
C 99.19842 0.0 118.53999
C 101.50536 0.0 111.88044
C 101.50536 0.0 114.54426
C 103.8123 0.0 115.87617
C 103.8123 0.0 118.53999
C 106.11924 0.0 111.88044
C 106.11924 0.0 114.54426
C 108.42618 0.0 115.87617
C 108.42618 0.0 118.53999
C 110.73312 0.0 111.88044
C 110.73312 0.0 114.54426
C 113.04006 0.0 115.87617
C 113.04006 0.0 118.53999
C 115.347 0.0 111.88044
C 115.347 0.0 114.54426
C 117.65394 0.0 115.87617
C 117.65394 0.0 118.53999
C 119.96088 0.0 111.88044
C 119.96088 0.0 114.54426
C 122.26782 0.0 115.87617
C 122.26782 0.0 118.53999
C 124.57476 0.0 111.88044
C 124.57476 0.0 114.54426
C 126.8817 0.0 115.87617
C 126.8817 0.0 118.53999
C 129.18864 0.0 111.88044
C 129.18864 0.0 114.54426
C 131.49558 0.0 115.87617
C 131.49558 0.0 118.53999
C 133.80252 0.0 111.88044
C 133.80252 0.0 114.54426
C 136.10946 0.0 115.87617
C 136.10946 0.0 118.53999
C 138.4164 0.0 111.88044
C 138.4164 0.0 114.54426
C 140.72334 0.0 115.87617
C 140.72334 0.0 118.53999
C 143.03028 0.0 111.88044
C 143.03028 0.0 114.54426
C 145.33722 0.0 115.87617
C 145.33722 0.0 118.53999
C 147.64416 0.0 111.88044
C 147.64416 0.0 114.54426
C 149.9511 0.0 115.87617
C 149.9511 0.0 118.53999
C 152.25804 0.0 111.88044
C 152.25804 0.0 114.54426
C 154.56498 0.0 115.87617
C 154.56498 0.0 118.53999
C 156.87192 0.0 111.88044
C 156.87192 0.0 114.54426
C 159.17886 0.0 115.87617
C 159.17886 0.0 118.53999
C 0.0 0.0 119.8719
C 0.0 0.0 122.53572
C 2.30694 0.0 123.86763
C 2.30694 0.0 126.53145
C 4.61388 0.0 119.8719
C 4.61388 0.0 122.53572
C 6.92082 0.0 123.86763
C 6.92082 0.0 126.53145
C 9.22776 0.0 119.8719
C 9.22776 0.0 122.53572
C 11.5347 0.0 123.86763
C 11.5347 0.0 126.53145
C 13.84164 0.0 119.8719
C 13.84164 0.0 122.53572
C 16.14858 0.0 123.86763
C 16.14858 0.0 126.53145
C 18.45552 0.0 119.8719
C 18.45552 0.0 122.53572
C 20.76246 0.0 123.86763
C 20.76246 0.0 126.53145
C 23.0694 0.0 119.8719
C 23.0694 0.0 122.53572
C 25.37634 0.0 123.86763
C 25.37634 0.0 126.53145
C 27.68328 0.0 119.8719
C 27.68328 0.0 122.53572
C 29.99022 0.0 123.86763
C 29.99022 0.0 126.53145
C 32.29716 0.0 119.8719
C 32.29716 0.0 122.53572
C 34.6041 0.0 123.86763
C 34.6041 0.0 126.53145
C 36.91104 0.0 119.8719
C 36.91104 0.0 122.53572
C 39.21798 0.0 123.86763
C 39.21798 0.0 126.53145
C 41.52492 0.0 119.8719
C 41.52492 0.0 122.53572
C 43.83186 0.0 123.86763
C 43.83186 0.0 126.53145
C 46.1388 0.0 119.8719
C 46.1388 0.0 122.53572
C 48.44574 0.0 123.86763
C 48.44574 0.0 126.53145
C 50.75268 0.0 119.8719
C 50.75268 0.0 122.53572
C 53.05962 0.0 123.86763
C 53.05962 0.0 126.53145
C 55.36656 0.0 119.8719
C 55.36656 0.0 122.53572
C 57.6735 0.0 123.86763
C 57.6735 0.0 126.53145
C 59.98044 0.0 119.8719
C 59.98044 0.0 122.53572
C 62.28738 0.0 123.86763
C 62.28738 0.0 126.53145
C 64.59432 0.0 119.8719
C 64.59432 0.0 122.53572
C 66.90126 0.0 123.86763
C 66.90126 0.0 126.53145
C 69.2082 0.0 119.8719
C 69.2082 0.0 122.53572
C 71.51514 0.0 123.86763
C 71.51514 0.0 126.53145
C 73.82208 0.0 119.8719
C 73.82208 0.0 122.53572
C 76.12902 0.0 123.86763
C 76.12902 0.0 126.53145
C 78.43596 0.0 119.8719
C 78.43596 0.0 122.53572
C 80.7429 0.0 123.86763
C 80.7429 0.0 126.53145
C 83.04984 0.0 119.8719
C 83.04984 0.0 122.53572
C 85.35678 0.0 123.86763
C 85.35678 0.0 126.53145
C 87.66372 0.0 119.8719
C 87.66372 0.0 122.53572
C 89.97066 0.0 123.86763
C 89.97066 0.0 126.53145
C 92.2776 0.0 119.8719
C 92.2776 0.0 122.53572
C 94.58454 0.0 123.86763
C 94.58454 0.0 126.53145
C 96.89148 0.0 119.8719
C 96.89148 0.0 122.53572
C 99.19842 0.0 123.86763
C 99.19842 0.0 126.53145
C 101.50536 0.0 119.8719
C 101.50536 0.0 122.53572
C 103.8123 0.0 123.86763
C 103.8123 0.0 126.53145
C 106.11924 0.0 119.8719
C 106.11924 0.0 122.53572
C 108.42618 0.0 123.86763
C 108.42618 0.0 126.53145
C 110.73312 0.0 119.8719
C 110.73312 0.0 122.53572
C 113.04006 0.0 123.86763
C 113.04006 0.0 126.53145
C 115.347 0.0 119.8719
C 115.347 0.0 122.53572
C 117.65394 0.0 123.86763
C 117.65394 0.0 126.53145
C 119.96088 0.0 119.8719
C 119.96088 0.0 122.53572
C 122.26782 0.0 123.86763
C 122.26782 0.0 126.53145
C 124.57476 0.0 119.8719
C 124.57476 0.0 122.53572
C 126.8817 0.0 123.86763
C 126.8817 0.0 126.53145
C 129.18864 0.0 119.8719
C 129.18864 0.0 122.53572
C 131.49558 0.0 123.86763
C 131.49558 0.0 126.53145
C 133.80252 0.0 119.8719
C 133.80252 0.0 122.53572
C 136.10946 0.0 123.86763
C 136.10946 0.0 126.53145
C 138.4164 0.0 119.8719
C 138.4164 0.0 122.53572
C 140.72334 0.0 123.86763
C 140.72334 0.0 126.53145
C 143.03028 0.0 119.8719
C 143.03028 0.0 122.53572
C 145.33722 0.0 123.86763
C 145.33722 0.0 126.53145
C 147.64416 0.0 119.8719
C 147.64416 0.0 122.53572
C 149.9511 0.0 123.86763
C 149.9511 0.0 126.53145
C 152.25804 0.0 119.8719
C 152.25804 0.0 122.53572
C 154.56498 0.0 123.86763
C 154.56498 0.0 126.53145
C 156.87192 0.0 119.8719
C 156.87192 0.0 122.53572
C 159.17886 0.0 123.86763
C 159.17886 0.0 126.53145
C 0.0 0.0 127.86336
C 0.0 0.0 130.52718
C 2.30694 0.0 131.85909
C 2.30694 0.0 134.52291
C 4.61388 0.0 127.86336
C 4.61388 0.0 130.52718
C 6.92082 0.0 131.85909
C 6.92082 0.0 134.52291
C 9.22776 0.0 127.86336
C 9.22776 0.0 130.52718
C 11.5347 0.0 131.85909
C 11.5347 0.0 134.52291
C 13.84164 0.0 127.86336
C 13.84164 0.0 130.52718
C 16.14858 0.0 131.85909
C 16.14858 0.0 134.52291
C 18.45552 0.0 127.86336
C 18.45552 0.0 130.52718
C 20.76246 0.0 131.85909
C 20.76246 0.0 134.52291
C 23.0694 0.0 127.86336
C 23.0694 0.0 130.52718
C 25.37634 0.0 131.85909
C 25.37634 0.0 134.52291
C 27.68328 0.0 127.86336
C 27.68328 0.0 130.52718
C 29.99022 0.0 131.85909
C 29.99022 0.0 134.52291
C 32.29716 0.0 127.86336
C 32.29716 0.0 130.52718
C 34.6041 0.0 131.85909
C 34.6041 0.0 134.52291
C 36.91104 0.0 127.86336
C 36.91104 0.0 130.52718
C 39.21798 0.0 131.85909
C 39.21798 0.0 134.52291
C 41.52492 0.0 127.86336
C 41.52492 0.0 130.52718
C 43.83186 0.0 131.85909
C 43.83186 0.0 134.52291
C 46.1388 0.0 127.86336
C 46.1388 0.0 130.52718
C 48.44574 0.0 131.85909
C 48.44574 0.0 134.52291
C 50.75268 0.0 127.86336
C 50.75268 0.0 130.52718
C 53.05962 0.0 131.85909
C 53.05962 0.0 134.52291
C 55.36656 0.0 127.86336
C 55.36656 0.0 130.52718
C 57.6735 0.0 131.85909
C 57.6735 0.0 134.52291
C 59.98044 0.0 127.86336
C 59.98044 0.0 130.52718
C 62.28738 0.0 131.85909
C 62.28738 0.0 134.52291
C 64.59432 0.0 127.86336
C 64.59432 0.0 130.52718
C 66.90126 0.0 131.85909
C 66.90126 0.0 134.52291
C 69.2082 0.0 127.86336
C 69.2082 0.0 130.52718
C 71.51514 0.0 131.85909
C 71.51514 0.0 134.52291
C 73.82208 0.0 127.86336
C 73.82208 0.0 130.52718
C 76.12902 0.0 131.85909
C 76.12902 0.0 134.52291
C 78.43596 0.0 127.86336
C 78.43596 0.0 130.52718
C 80.7429 0.0 131.85909
C 80.7429 0.0 134.52291
C 83.04984 0.0 127.86336
C 83.04984 0.0 130.52718
C 85.35678 0.0 131.85909
C 85.35678 0.0 134.52291
C 87.66372 0.0 127.86336
C 87.66372 0.0 130.52718
C 89.97066 0.0 131.85909
C 89.97066 0.0 134.52291
C 92.2776 0.0 127.86336
C 92.2776 0.0 130.52718
C 94.58454 0.0 131.85909
C 94.58454 0.0 134.52291
C 96.89148 0.0 127.86336
C 96.89148 0.0 130.52718
C 99.19842 0.0 131.85909
C 99.19842 0.0 134.52291
C 101.50536 0.0 127.86336
C 101.50536 0.0 130.52718
C 103.8123 0.0 131.85909
C 103.8123 0.0 134.52291
C 106.11924 0.0 127.86336
C 106.11924 0.0 130.52718
C 108.42618 0.0 131.85909
C 108.42618 0.0 134.52291
C 110.73312 0.0 127.86336
C 110.73312 0.0 130.52718
C 113.04006 0.0 131.85909
C 113.04006 0.0 134.52291
C 115.347 0.0 127.86336
C 115.347 0.0 130.52718
C 117.65394 0.0 131.85909
C 117.65394 0.0 134.52291
C 119.96088 0.0 127.86336
C 119.96088 0.0 130.52718
C 122.26782 0.0 131.85909
C 122.26782 0.0 134.52291
C 124.57476 0.0 127.86336
C 124.57476 0.0 130.52718
C 126.8817 0.0 131.85909
C 126.8817 0.0 134.52291
C 129.18864 0.0 127.86336
C 129.18864 0.0 130.52718
C 131.49558 0.0 131.85909
C 131.49558 0.0 134.52291
C 133.80252 0.0 127.86336
C 133.80252 0.0 130.52718
C 136.10946 0.0 131.85909
C 136.10946 0.0 134.52291
C 138.4164 0.0 127.86336
C 138.4164 0.0 130.52718
C 140.72334 0.0 131.85909
C 140.72334 0.0 134.52291
C 143.03028 0.0 127.86336
C 143.03028 0.0 130.52718
C 145.33722 0.0 131.85909
C 145.33722 0.0 134.52291
C 147.64416 0.0 127.86336
C 147.64416 0.0 130.52718
C 149.9511 0.0 131.85909
C 149.9511 0.0 134.52291
C 152.25804 0.0 127.86336
C 152.25804 0.0 130.52718
C 154.56498 0.0 131.85909
C 154.56498 0.0 134.52291
C 156.87192 0.0 127.86336
C 156.87192 0.0 130.52718
C 159.17886 0.0 131.85909
C 159.17886 0.0 134.52291
C 0.0 0.0 135.85482
C 0.0 0.0 138.51864
C 2.30694 0.0 139.85055
C 2.30694 0.0 142.51437
C 4.61388 0.0 135.85482
C 4.61388 0.0 138.51864
C 6.92082 0.0 139.85055
C 6.92082 0.0 142.51437
C 9.22776 0.0 135.85482
C 9.22776 0.0 138.51864
C 11.5347 0.0 139.85055
C 11.5347 0.0 142.51437
C 13.84164 0.0 135.85482
C 13.84164 0.0 138.51864
C 16.14858 0.0 139.85055
C 16.14858 0.0 142.51437
C 18.45552 0.0 135.85482
C 18.45552 0.0 138.51864
C 20.76246 0.0 139.85055
C 20.76246 0.0 142.51437
C 23.0694 0.0 135.85482
C 23.0694 0.0 138.51864
C 25.37634 0.0 139.85055
C 25.37634 0.0 142.51437
C 27.68328 0.0 135.85482
C 27.68328 0.0 138.51864
C 29.99022 0.0 139.85055
C 29.99022 0.0 142.51437
C 32.29716 0.0 135.85482
C 32.29716 0.0 138.51864
C 34.6041 0.0 139.85055
C 34.6041 0.0 142.51437
C 36.91104 0.0 135.85482
C 36.91104 0.0 138.51864
C 39.21798 0.0 139.85055
C 39.21798 0.0 142.51437
C 41.52492 0.0 135.85482
C 41.52492 0.0 138.51864
C 43.83186 0.0 139.85055
C 43.83186 0.0 142.51437
C 46.1388 0.0 135.85482
C 46.1388 0.0 138.51864
C 48.44574 0.0 139.85055
C 48.44574 0.0 142.51437
C 50.75268 0.0 135.85482
C 50.75268 0.0 138.51864
C 53.05962 0.0 139.85055
C 53.05962 0.0 142.51437
C 55.36656 0.0 135.85482
C 55.36656 0.0 138.51864
C 57.6735 0.0 139.85055
C 57.6735 0.0 142.51437
C 59.98044 0.0 135.85482
C 59.98044 0.0 138.51864
C 62.28738 0.0 139.85055
C 62.28738 0.0 142.51437
C 64.59432 0.0 135.85482
C 64.59432 0.0 138.51864
C 66.90126 0.0 139.85055
C 66.90126 0.0 142.51437
C 69.2082 0.0 135.85482
C 69.2082 0.0 138.51864
C 71.51514 0.0 139.85055
C 71.51514 0.0 142.51437
C 73.82208 0.0 135.85482
C 73.82208 0.0 138.51864
C 76.12902 0.0 139.85055
C 76.12902 0.0 142.51437
C 78.43596 0.0 135.85482
C 78.43596 0.0 138.51864
C 80.7429 0.0 139.85055
C 80.7429 0.0 142.51437
C 83.04984 0.0 135.85482
C 83.04984 0.0 138.51864
C 85.35678 0.0 139.85055
C 85.35678 0.0 142.51437
C 87.66372 0.0 135.85482
C 87.66372 0.0 138.51864
C 89.97066 0.0 139.85055
C 89.97066 0.0 142.51437
C 92.2776 0.0 135.85482
C 92.2776 0.0 138.51864
C 94.58454 0.0 139.85055
C 94.58454 0.0 142.51437
C 96.89148 0.0 135.85482
C 96.89148 0.0 138.51864
C 99.19842 0.0 139.85055
C 99.19842 0.0 142.51437
C 101.50536 0.0 135.85482
C 101.50536 0.0 138.51864
C 103.8123 0.0 139.85055
C 103.8123 0.0 142.51437
C 106.11924 0.0 135.85482
C 106.11924 0.0 138.51864
C 108.42618 0.0 139.85055
C 108.42618 0.0 142.51437
C 110.73312 0.0 135.85482
C 110.73312 0.0 138.51864
C 113.04006 0.0 139.85055
C 113.04006 0.0 142.51437
C 115.347 0.0 135.85482
C 115.347 0.0 138.51864
C 117.65394 0.0 139.85055
C 117.65394 0.0 142.51437
C 119.96088 0.0 135.85482
C 119.96088 0.0 138.51864
C 122.26782 0.0 139.85055
C 122.26782 0.0 142.51437
C 124.57476 0.0 135.85482
C 124.57476 0.0 138.51864
C 126.8817 0.0 139.85055
C 126.8817 0.0 142.51437
C 129.18864 0.0 135.85482
C 129.18864 0.0 138.51864
C 131.49558 0.0 139.85055
C 131.49558 0.0 142.51437
C 133.80252 0.0 135.85482
C 133.80252 0.0 138.51864
C 136.10946 0.0 139.85055
C 136.10946 0.0 142.51437
C 138.4164 0.0 135.85482
C 138.4164 0.0 138.51864
C 140.72334 0.0 139.85055
C 140.72334 0.0 142.51437
C 143.03028 0.0 135.85482
C 143.03028 0.0 138.51864
C 145.33722 0.0 139.85055
C 145.33722 0.0 142.51437
C 147.64416 0.0 135.85482
C 147.64416 0.0 138.51864
C 149.9511 0.0 139.85055
C 149.9511 0.0 142.51437
C 152.25804 0.0 135.85482
C 152.25804 0.0 138.51864
C 154.56498 0.0 139.85055
C 154.56498 0.0 142.51437
C 156.87192 0.0 135.85482
C 156.87192 0.0 138.51864
C 159.17886 0.0 139.85055
C 159.17886 0.0 142.51437
C 0.0 0.0 143.84628
C 0.0 0.0 146.5101
C 2.30694 0.0 147.84201
C 2.30694 0.0 150.50583
C 4.61388 0.0 143.84628
C 4.61388 0.0 146.5101
C 6.92082 0.0 147.84201
C 6.92082 0.0 150.50583
C 9.22776 0.0 143.84628
C 9.22776 0.0 146.5101
C 11.5347 0.0 147.84201
C 11.5347 0.0 150.50583
C 13.84164 0.0 143.84628
C 13.84164 0.0 146.5101
C 16.14858 0.0 147.84201
C 16.14858 0.0 150.50583
C 18.45552 0.0 143.84628
C 18.45552 0.0 146.5101
C 20.76246 0.0 147.84201
C 20.76246 0.0 150.50583
C 23.0694 0.0 143.84628
C 23.0694 0.0 146.5101
C 25.37634 0.0 147.84201
C 25.37634 0.0 150.50583
C 27.68328 0.0 143.84628
C 27.68328 0.0 146.5101
C 29.99022 0.0 147.84201
C 29.99022 0.0 150.50583
C 32.29716 0.0 143.84628
C 32.29716 0.0 146.5101
C 34.6041 0.0 147.84201
C 34.6041 0.0 150.50583
C 36.91104 0.0 143.84628
C 36.91104 0.0 146.5101
C 39.21798 0.0 147.84201
C 39.21798 0.0 150.50583
C 41.52492 0.0 143.84628
C 41.52492 0.0 146.5101
C 43.83186 0.0 147.84201
C 43.83186 0.0 150.50583
C 46.1388 0.0 143.84628
C 46.1388 0.0 146.5101
C 48.44574 0.0 147.84201
C 48.44574 0.0 150.50583
C 50.75268 0.0 143.84628
C 50.75268 0.0 146.5101
C 53.05962 0.0 147.84201
C 53.05962 0.0 150.50583
C 55.36656 0.0 143.84628
C 55.36656 0.0 146.5101
C 57.6735 0.0 147.84201
C 57.6735 0.0 150.50583
C 59.98044 0.0 143.84628
C 59.98044 0.0 146.5101
C 62.28738 0.0 147.84201
C 62.28738 0.0 150.50583
C 64.59432 0.0 143.84628
C 64.59432 0.0 146.5101
C 66.90126 0.0 147.84201
C 66.90126 0.0 150.50583
C 69.2082 0.0 143.84628
C 69.2082 0.0 146.5101
C 71.51514 0.0 147.84201
C 71.51514 0.0 150.50583
C 73.82208 0.0 143.84628
C 73.82208 0.0 146.5101
C 76.12902 0.0 147.84201
C 76.12902 0.0 150.50583
C 78.43596 0.0 143.84628
C 78.43596 0.0 146.5101
C 80.7429 0.0 147.84201
C 80.7429 0.0 150.50583
C 83.04984 0.0 143.84628
C 83.04984 0.0 146.5101
C 85.35678 0.0 147.84201
C 85.35678 0.0 150.50583
C 87.66372 0.0 143.84628
C 87.66372 0.0 146.5101
C 89.97066 0.0 147.84201
C 89.97066 0.0 150.50583
C 92.2776 0.0 143.84628
C 92.2776 0.0 146.5101
C 94.58454 0.0 147.84201
C 94.58454 0.0 150.50583
C 96.89148 0.0 143.84628
C 96.89148 0.0 146.5101
C 99.19842 0.0 147.84201
C 99.19842 0.0 150.50583
C 101.50536 0.0 143.84628
C 101.50536 0.0 146.5101
C 103.8123 0.0 147.84201
C 103.8123 0.0 150.50583
C 106.11924 0.0 143.84628
C 106.11924 0.0 146.5101
C 108.42618 0.0 147.84201
C 108.42618 0.0 150.50583
C 110.73312 0.0 143.84628
C 110.73312 0.0 146.5101
C 113.04006 0.0 147.84201
C 113.04006 0.0 150.50583
C 115.347 0.0 143.84628
C 115.347 0.0 146.5101
C 117.65394 0.0 147.84201
C 117.65394 0.0 150.50583
C 119.96088 0.0 143.84628
C 119.96088 0.0 146.5101
C 122.26782 0.0 147.84201
C 122.26782 0.0 150.50583
C 124.57476 0.0 143.84628
C 124.57476 0.0 146.5101
C 126.8817 0.0 147.84201
C 126.8817 0.0 150.50583
C 129.18864 0.0 143.84628
C 129.18864 0.0 146.5101
C 131.49558 0.0 147.84201
C 131.49558 0.0 150.50583
C 133.80252 0.0 143.84628
C 133.80252 0.0 146.5101
C 136.10946 0.0 147.84201
C 136.10946 0.0 150.50583
C 138.4164 0.0 143.84628
C 138.4164 0.0 146.5101
C 140.72334 0.0 147.84201
C 140.72334 0.0 150.50583
C 143.03028 0.0 143.84628
C 143.03028 0.0 146.5101
C 145.33722 0.0 147.84201
C 145.33722 0.0 150.50583
C 147.64416 0.0 143.84628
C 147.64416 0.0 146.5101
C 149.9511 0.0 147.84201
C 149.9511 0.0 150.50583
C 152.25804 0.0 143.84628
C 152.25804 0.0 146.5101
C 154.56498 0.0 147.84201
C 154.56498 0.0 150.50583
C 156.87192 0.0 143.84628
C 156.87192 0.0 146.5101
C 159.17886 0.0 147.84201
C 159.17886 0.0 150.50583
C 0.0 0.0 151.83774
C 0.0 0.0 154.50156
C 2.30694 0.0 155.83347
C 2.30694 0.0 158.49729
C 4.61388 0.0 151.83774
C 4.61388 0.0 154.50156
C 6.92082 0.0 155.83347
C 6.92082 0.0 158.49729
C 9.22776 0.0 151.83774
C 9.22776 0.0 154.50156
C 11.5347 0.0 155.83347
C 11.5347 0.0 158.49729
C 13.84164 0.0 151.83774
C 13.84164 0.0 154.50156
C 16.14858 0.0 155.83347
C 16.14858 0.0 158.49729
C 18.45552 0.0 151.83774
C 18.45552 0.0 154.50156
C 20.76246 0.0 155.83347
C 20.76246 0.0 158.49729
C 23.0694 0.0 151.83774
C 23.0694 0.0 154.50156
C 25.37634 0.0 155.83347
C 25.37634 0.0 158.49729
C 27.68328 0.0 151.83774
C 27.68328 0.0 154.50156
C 29.99022 0.0 155.83347
C 29.99022 0.0 158.49729
C 32.29716 0.0 151.83774
C 32.29716 0.0 154.50156
C 34.6041 0.0 155.83347
C 34.6041 0.0 158.49729
C 36.91104 0.0 151.83774
C 36.91104 0.0 154.50156
C 39.21798 0.0 155.83347
C 39.21798 0.0 158.49729
C 41.52492 0.0 151.83774
C 41.52492 0.0 154.50156
C 43.83186 0.0 155.83347
C 43.83186 0.0 158.49729
C 46.1388 0.0 151.83774
C 46.1388 0.0 154.50156
C 48.44574 0.0 155.83347
C 48.44574 0.0 158.49729
C 50.75268 0.0 151.83774
C 50.75268 0.0 154.50156
C 53.05962 0.0 155.83347
C 53.05962 0.0 158.49729
C 55.36656 0.0 151.83774
C 55.36656 0.0 154.50156
C 57.6735 0.0 155.83347
C 57.6735 0.0 158.49729
C 59.98044 0.0 151.83774
C 59.98044 0.0 154.50156
C 62.28738 0.0 155.83347
C 62.28738 0.0 158.49729
C 64.59432 0.0 151.83774
C 64.59432 0.0 154.50156
C 66.90126 0.0 155.83347
C 66.90126 0.0 158.49729
C 69.2082 0.0 151.83774
C 69.2082 0.0 154.50156
C 71.51514 0.0 155.83347
C 71.51514 0.0 158.49729
C 73.82208 0.0 151.83774
C 73.82208 0.0 154.50156
C 76.12902 0.0 155.83347
C 76.12902 0.0 158.49729
C 78.43596 0.0 151.83774
C 78.43596 0.0 154.50156
C 80.7429 0.0 155.83347
C 80.7429 0.0 158.49729
C 83.04984 0.0 151.83774
C 83.04984 0.0 154.50156
C 85.35678 0.0 155.83347
C 85.35678 0.0 158.49729
C 87.66372 0.0 151.83774
C 87.66372 0.0 154.50156
C 89.97066 0.0 155.83347
C 89.97066 0.0 158.49729
C 92.2776 0.0 151.83774
C 92.2776 0.0 154.50156
C 94.58454 0.0 155.83347
C 94.58454 0.0 158.49729
C 96.89148 0.0 151.83774
C 96.89148 0.0 154.50156
C 99.19842 0.0 155.83347
C 99.19842 0.0 158.49729
C 101.50536 0.0 151.83774
C 101.50536 0.0 154.50156
C 103.8123 0.0 155.83347
C 103.8123 0.0 158.49729
C 106.11924 0.0 151.83774
C 106.11924 0.0 154.50156
C 108.42618 0.0 155.83347
C 108.42618 0.0 158.49729
C 110.73312 0.0 151.83774
C 110.73312 0.0 154.50156
C 113.04006 0.0 155.83347
C 113.04006 0.0 158.49729
C 115.347 0.0 151.83774
C 115.347 0.0 154.50156
C 117.65394 0.0 155.83347
C 117.65394 0.0 158.49729
C 119.96088 0.0 151.83774
C 119.96088 0.0 154.50156
C 122.26782 0.0 155.83347
C 122.26782 0.0 158.49729
C 124.57476 0.0 151.83774
C 124.57476 0.0 154.50156
C 126.8817 0.0 155.83347
C 126.8817 0.0 158.49729
C 129.18864 0.0 151.83774
C 129.18864 0.0 154.50156
C 131.49558 0.0 155.83347
C 131.49558 0.0 158.49729
C 133.80252 0.0 151.83774
C 133.80252 0.0 154.50156
C 136.10946 0.0 155.83347
C 136.10946 0.0 158.49729
C 138.4164 0.0 151.83774
C 138.4164 0.0 154.50156
C 140.72334 0.0 155.83347
C 140.72334 0.0 158.49729
C 143.03028 0.0 151.83774
C 143.03028 0.0 154.50156
C 145.33722 0.0 155.83347
C 145.33722 0.0 158.49729
C 147.64416 0.0 151.83774
C 147.64416 0.0 154.50156
C 149.9511 0.0 155.83347
C 149.9511 0.0 158.49729
C 152.25804 0.0 151.83774
C 152.25804 0.0 154.50156
C 154.56498 0.0 155.83347
C 154.56498 0.0 158.49729
C 156.87192 0.0 151.83774
C 156.87192 0.0 154.50156
C 159.17886 0.0 155.83347
C 159.17886 0.0 158.49729
C 0.0 0.0 159.8292
C 0.0 0.0 162.49302
C 2.30694 0.0 163.82493
C 2.30694 0.0 166.48875
C 4.61388 0.0 159.8292
C 4.61388 0.0 162.49302
C 6.92082 0.0 163.82493
C 6.92082 0.0 166.48875
C 9.22776 0.0 159.8292
C 9.22776 0.0 162.49302
C 11.5347 0.0 163.82493
C 11.5347 0.0 166.48875
C 13.84164 0.0 159.8292
C 13.84164 0.0 162.49302
C 16.14858 0.0 163.82493
C 16.14858 0.0 166.48875
C 18.45552 0.0 159.8292
C 18.45552 0.0 162.49302
C 20.76246 0.0 163.82493
C 20.76246 0.0 166.48875
C 23.0694 0.0 159.8292
C 23.0694 0.0 162.49302
C 25.37634 0.0 163.82493
C 25.37634 0.0 166.48875
C 27.68328 0.0 159.8292
C 27.68328 0.0 162.49302
C 29.99022 0.0 163.82493
C 29.99022 0.0 166.48875
C 32.29716 0.0 159.8292
C 32.29716 0.0 162.49302
C 34.6041 0.0 163.82493
C 34.6041 0.0 166.48875
C 36.91104 0.0 159.8292
C 36.91104 0.0 162.49302
C 39.21798 0.0 163.82493
C 39.21798 0.0 166.48875
C 41.52492 0.0 159.8292
C 41.52492 0.0 162.49302
C 43.83186 0.0 163.82493
C 43.83186 0.0 166.48875
C 46.1388 0.0 159.8292
C 46.1388 0.0 162.49302
C 48.44574 0.0 163.82493
C 48.44574 0.0 166.48875
C 50.75268 0.0 159.8292
C 50.75268 0.0 162.49302
C 53.05962 0.0 163.82493
C 53.05962 0.0 166.48875
C 55.36656 0.0 159.8292
C 55.36656 0.0 162.49302
C 57.6735 0.0 163.82493
C 57.6735 0.0 166.48875
C 59.98044 0.0 159.8292
C 59.98044 0.0 162.49302
C 62.28738 0.0 163.82493
C 62.28738 0.0 166.48875
C 64.59432 0.0 159.8292
C 64.59432 0.0 162.49302
C 66.90126 0.0 163.82493
C 66.90126 0.0 166.48875
C 69.2082 0.0 159.8292
C 69.2082 0.0 162.49302
C 71.51514 0.0 163.82493
C 71.51514 0.0 166.48875
C 73.82208 0.0 159.8292
C 73.82208 0.0 162.49302
C 76.12902 0.0 163.82493
C 76.12902 0.0 166.48875
C 78.43596 0.0 159.8292
C 78.43596 0.0 162.49302
C 80.7429 0.0 163.82493
C 80.7429 0.0 166.48875
C 83.04984 0.0 159.8292
C 83.04984 0.0 162.49302
C 85.35678 0.0 163.82493
C 85.35678 0.0 166.48875
C 87.66372 0.0 159.8292
C 87.66372 0.0 162.49302
C 89.97066 0.0 163.82493
C 89.97066 0.0 166.48875
C 92.2776 0.0 159.8292
C 92.2776 0.0 162.49302
C 94.58454 0.0 163.82493
C 94.58454 0.0 166.48875
C 96.89148 0.0 159.8292
C 96.89148 0.0 162.49302
C 99.19842 0.0 163.82493
C 99.19842 0.0 166.48875
C 101.50536 0.0 159.8292
C 101.50536 0.0 162.49302
C 103.8123 0.0 163.82493
C 103.8123 0.0 166.48875
C 106.11924 0.0 159.8292
C 106.11924 0.0 162.49302
C 108.42618 0.0 163.82493
C 108.42618 0.0 166.48875
C 110.73312 0.0 159.8292
C 110.73312 0.0 162.49302
C 113.04006 0.0 163.82493
C 113.04006 0.0 166.48875
C 115.347 0.0 159.8292
C 115.347 0.0 162.49302
C 117.65394 0.0 163.82493
C 117.65394 0.0 166.48875
C 119.96088 0.0 159.8292
C 119.96088 0.0 162.49302
C 122.26782 0.0 163.82493
C 122.26782 0.0 166.48875
C 124.57476 0.0 159.8292
C 124.57476 0.0 162.49302
C 126.8817 0.0 163.82493
C 126.8817 0.0 166.48875
C 129.18864 0.0 159.8292
C 129.18864 0.0 162.49302
C 131.49558 0.0 163.82493
C 131.49558 0.0 166.48875
C 133.80252 0.0 159.8292
C 133.80252 0.0 162.49302
C 136.10946 0.0 163.82493
C 136.10946 0.0 166.48875
C 138.4164 0.0 159.8292
C 138.4164 0.0 162.49302
C 140.72334 0.0 163.82493
C 140.72334 0.0 166.48875
C 143.03028 0.0 159.8292
C 143.03028 0.0 162.49302
C 145.33722 0.0 163.82493
C 145.33722 0.0 166.48875
C 147.64416 0.0 159.8292
C 147.64416 0.0 162.49302
C 149.9511 0.0 163.82493
C 149.9511 0.0 166.48875
C 152.25804 0.0 159.8292
C 152.25804 0.0 162.49302
C 154.56498 0.0 163.82493
C 154.56498 0.0 166.48875
C 156.87192 0.0 159.8292
C 156.87192 0.0 162.49302
C 159.17886 0.0 163.82493
C 159.17886 0.0 166.48875
