### calculation performed using 700 bands in X and G and 11 Ry in the response block size.
### runs done using 40 nodes,  8 MPI/node, and a number of  thread/task from 1 to 40.  


# ncores         MPI     threads         dip          Xo    Xo_REDUX           X     X_REDUX        io_X       io_WF       Sgm_x     (REDUX)       Sgm_c     (REDUX)   WALL_TIME
     480         480           1   32m11.00s   32m21.00s    9m53.00s    1m29.00s      57.00s    4m40.00s       2.00s      12.00s       0.00s   35m36.00s      41.00s   01h59m31s
    1920         480           4   19m34.00s   29m50.00s   10m12.00s     5m6.00s     1m4.00s    4m41.00s       6.00s      10.00s       0.00s   24m16.00s      12.00s   01h36m40s
    3840         480           8   15m33.00s   18m28.00s    6m12.00s    8m41.00s     1m3.00s    4m53.00s       2.00s       5.00s       0.00s   12m11.00s       4.00s   01h08m36s
    5760         480          12    11m9.00s   12m26.00s    4m10.00s    6m29.00s     1m3.00s    4m48.00s       2.00s       5.00s       0.00s    8m10.00s       3.00s      49m51s
    7680         480          16    8m49.00s    9m46.00s    3m22.00s    6m28.00s     1m2.00s    5m15.00s       2.00s       5.00s       0.00s     6m9.00s       3.00s      42m26s
    9600         480          20    7m36.00s    8m12.00s    2m48.00s     5m9.00s     1m1.00s    5m17.00s       2.00s       4.00s       0.00s    4m57.00s    1m17.00s      37m46s
   11520         480          24    6m47.00s    7m46.00s     3m3.00s    3m51.00s     1m1.00s    4m58.00s       2.00s       4.00s       0.00s     4m9.00s       2.00s      33m15s
   13440         480          28    6m29.00s    7m38.00s    2m57.00s    2m41.00s     1m1.00s    4m49.00s       3.00s       4.00s       0.00s    3m36.00s       5.00s      30m52s
   15360         480          32    6m36.00s    7m36.00s    2m54.00s     2m3.00s     1m1.00s    4m47.00s       6.00s       4.00s       0.00s     3m9.00s      45.00s      30m27s
   17280         480          36    7m16.00s   11m35.00s    4m25.00s    1m33.00s     1m2.00s     5m7.00s       2.00s       4.00s       1.00s    5m11.00s       6.00s      37m48s
   19200         480          40     8m3.00s   16m55.00s     5m2.00s    1m39.00s     1m2.00s    4m58.00s       2.00s       5.00s       0.00s    5m15.00s      18.00s      44m40s




##--------------------------------------------------------------------------------------------------------------------------------------------------------------------------------
##                     
## RESULTS IN SECONDS  
##                    
##--------------------------------------------------------------------------------------------------------------------------------------------------------------------------------



# ncores         MPI     threads     dip_TOT      Xo_TOT       X_TOT        io_X       io_WF   Sgm_x_TOT   Sgm_c_TOT   WALL_TIME
     480         480           1        1931        2534         146         280           2          12        2177        7171
    1920         480           4        1174        2402         370         281           6          10        1468        5800
    3840         480           8         933        1480         584         293           2           5         735        4116
    5760         480          12         669         996         452         288           2           5         493        2991
    7680         480          16         529         788         450         315           2           5         372        2546
    9600         480          20         456         660         370         317           2           4         374        2266
   11520         480          24         407         649         292         298           2           4         251        1995
   13440         480          28         389         635         222         289           3           4         221        1852
   15360         480          32         396         630         184         287           6           4         234        1827
   17280         480          36         436         960         155         307           2           5         317        2268
   19200         480          40         483        1317         161         298           2           5         333        2680




