	mpi	thrs	thr_tot	nodes	nodes_io	Time-Profile	io_ATMPROJ_pwscf	io_KB_abinit	io_BS	io_Double_Grid	MATRIX transfer (X_G_finite_q_X_redux_1_2)	MATRIX transfer (X_G_finite_q_X_redux_2_1)	MATRIX transfer (X_G_finite_q_X_redux_2_2)	IO_and_Messaging_switch	io_COL_CUT	io_HF	HF(REDUX)	MATRIX transfer (X_G_finite_q_X_redux_1_1)	PP_uspp_init	GW(REDUX)	io_QINDX	io_GROT	io_QP_and_GF	io_KB_pwscf	X	X (REDUX)	io_X	io_DIPOLES	io_fragment	Xo (REDUX)	RIM	FFT_setup	XC_potential_driver	io_WF	XCo_local	SERIAL_lin_system	LINEAR ALGEBRA	scatter_Gamp	WF_load_FFT	HF	Xo	GW(ppa)	DIPOLE_transverse	Dipoles	ideal	speedup	efficiency	Self energy	Other	node_h
1	240	2	480	10	1	7680.0	0.0047	0.0067	0.0047	0.0027	0.0336	0.0171	0.0343	0.0002	0.0106	0.0276	1.9577	0.0232	0.0039	468.9006	0.0215	0.1096	0.1156	0.4331	2.3356	2.5491	0.9488	1.5992	2.2413	650.0	0.8569	1.3784	1.6231	5.5523	1.6259	1.8184	1.8185	3.3425	8.7925	55.5403	1630.0	1875.0	4080.0	4080.0	1.0	1.0	100.0	1930.5403000000001	37.12409999999977	21.333333333333332
0	480	2	960	20	1	4020.0	0.0048	0.0056	0.0058	0.0021	0.0345	0.017	0.0345	0.0002	0.0235	0.0286	11.7901	0.0231	0.0026	188.5393	0.0264	0.1074	0.0555	0.2317	2.384	2.5969	0.9764	1.478	1.8052	377.6646	0.8713	1.3562	1.6397	3.8909	1.6477	1.8494	1.8495	3.4323	6.6107	34.2691	952.0	870.0	2055.0	2059.0	2.0	1.9104477611940298	95.52238805970148	904.2691	102.3469	22.333333333333332
3	720	2	1440	30	1	2909.0	0.0043	0.0058	0.0061	0.0026	0.0346	0.0169	0.0343	0.0002	0.0146	0.0336	12.5493	0.0216	0.0055	94.7114	0.0235	0.1057	0.0551	0.3294	2.3786	2.6215	1.3467	1.4315	2.0403	288.6414	0.8936	1.3627	1.6518	3.8274	1.6557	1.8479	1.848	3.2817	5.9656	24.3935	683.0	563.4003	1408.0	1412.0	3.0	2.6400825025782058	88.00275008594019	587.7938	223.82759999999996	24.241666666666667
2	960	2	1920	40	1	2416.0	0.0014	0.003	0.002	0.0028	0.0334	0.0173	0.0346	0.0002	0.022	0.0301	11.8449	0.0239	0.0051	121.1674	0.0238	0.074	0.0563	0.3226	2.3478	2.6153	0.9579	1.4973	2.159	225.4401	0.9234	1.4025	1.6545	3.8525	1.657	1.8178	1.8179	3.3369	6.1579	23.4496	564.3314	463.5434	1067.0	1072.0	4.0	3.1788079470198674	79.47019867549669	486.993	290.32779999999997	26.844444444444445
