ncores         MPI     threads         dip          Xo    Xo_REDUX           X     X_REDUX        io_X       io_WF       Sgm_x     (REDUX)       Sgm_c     (REDUX)   WALL_TIME
480   240   2   4080   1630   650   2.3356   2.5491   0.9488   5.5523   55.5403   1.9577   1875   468.9006   7680
960   480   2   2059   952   377.6646   2.3840   2.5969   0.9764   3.8909   34.2691   11.7901   870   188.5393   4020
1440   720   2   1412   683   288.6414   2.3786   2.6215   1.3467   3.8274   24.3935   12.5493   563.4003   94.7114   2909
1920   960   2   1072   564.3314   225.4401   2.3478   2.6153   0.9579   3.8525   23.4496   11.8449   463.5434   121.1674   2416
