,nodes,WALL_TIME,node_h
0,20,1796,9.977777777777778
1,40,1025,11.38888888888889
2,80,510,11.333333333333334
3,120,371,12.366666666666667
4,160,304,13.511111111111111
5,200,285,15.833333333333334
6,240,215,14.333333333333334
