# ncores         MPI     threads         dip          Xo    Xo_REDUX           X     X_REDUX        io_X       io_WF       Sgm_x     (REDUX)       Sgm_c     (REDUX)   WALL_TIME
    1280          40          32   295.5583s   313.8266s   126.4826s     4.1134s     4.0485s     1.4938s     5.1951s     7.2577s     0.3925s    45.4411s     1.0508s      11m24s
    2560          80          32   153.5466s   179.1265s    74.9378s     7.5050s     7.4244s     0.9671s     2.8693s     4.5125s     0.7525s    23.2354s     1.0712s      06m24s
    5120         160          32    82.3737s    93.6803s    37.6417s     2.6627s     2.7177s     1.1206s     2.5545s     3.1997s     0.9212s    12.5931s     1.0057s      03m32s
    7680         240          32    59.0245s    70.9387s    34.4922s     1.5992s     1.5576s     1.0926s     2.5902s     1.5314s     0.3853s     9.7277s     1.0937s      02m40s

# ncores         MPI     threads     dip_TOT      Xo_TOT       X_TOT        io_X       io_WF   Sgm_x_TOT   Sgm_c_TOT   WALL_TIME
    1280          40          32         295         439           8           1           5           7          46         684
    2560          80          32         153         253          14           0           2           4          24         384
    5120         160          32          82         130           4           1           2           3          13         212
    7680         240          32          59         104           2           1           2           1          10         160

