mpi	Time-Profile	Dipoles	Xo	X	Self energy	Other
36	341.0	13.3921	309.5525	1.6985	4.6444	11.712499999999963
48	336.0	33.2678	273.4583	1.7752	6.1442000000000005	21.35449999999997
60	313.0	17.3795	273.383	1.7068	5.300800000000001	15.22990000000001
72	331.0	15.8732	291.7115	1.734	6.265000000000001	15.4163
